vhdl xil_defaultlib "AESL_sim_pkg.vhd"
vhdl xil_defaultlib "ip/xil_defaultlib/mnist_inference_ap_fadd_3_full_dsp_32.vhd"
vhdl xil_defaultlib "ip/xil_defaultlib/mnist_inference_ap_fmul_2_max_dsp_32.vhd"
vhdl xil_defaultlib "ip/xil_defaultlib/mnist_inference_ap_fcmp_0_no_dsp_32.vhd"
sv work "glbl.v"
vhdl xil_defaultlib "mnist_inference_uxdS.vhd"
vhdl xil_defaultlib "mnist_inference_cocq.vhd"
vhdl xil_defaultlib "mnist_inference_pibs.vhd"
vhdl xil_defaultlib "mnist_inference_og8j.vhd"
vhdl xil_defaultlib "mnist_inference.vhd"
vhdl xil_defaultlib "mnist_inference_prcU.vhd"
vhdl xil_defaultlib "mnist_inference_ihbi.vhd"
vhdl xil_defaultlib "mnist_inference_wbkb.vhd"
vhdl xil_defaultlib "AESL_axi_s_stream_in.vhd"
vhdl xil_defaultlib "mnist_inference_wfYi.vhd"
vhdl xil_defaultlib "mnist_inference_fwdI.vhd"
vhdl xil_defaultlib "mnist_inference_uyd2.vhd"
vhdl xil_defaultlib "mnist_inference_cjbC.vhd"
vhdl xil_defaultlib "mnist_inference_wcud.vhd"
vhdl xil_defaultlib "mnist_inference_fvdy.vhd"
vhdl xil_defaultlib "mnist_inference.autotb.vhd"
vhdl xil_defaultlib "mnist_inference_fudo.vhd"
vhdl xil_defaultlib "mnist_inference_pmb6.vhd"
vhdl xil_defaultlib "mnist_inference_wdEe.vhd"
vhdl xil_defaultlib "mnist_inference_weOg.vhd"
vhdl xil_defaultlib "mnist_inference_mzec.vhd"
vhdl xil_defaultlib "mnist_inference_mAem.vhd"
vhdl xil_defaultlib "mnist_inference_pncg.vhd"

