

================================================================
== Vivado HLS Report for 'stream_duplicate'
================================================================
* Date:           Tue Dec  3 12:03:42 2019

* Version:        2018.2 (Build 2258646 on Thu Jun 14 20:25:20 MDT 2018)
* Project:        stream_duplicate
* Solution:       default_solution
* Product family: zynq
* Target device:  xc7z020clg400-1


================================================================
== Performance Estimates
================================================================
+ Timing (ns): 
    * Summary: 
    +--------+-------+----------+------------+
    |  Clock | Target| Estimated| Uncertainty|
    +--------+-------+----------+------------+
    |ap_clk  |  10.00|     7.268|        1.25|
    +--------+-------+----------+------------+

+ Latency (clock cycles): 
    * Summary: 
    +---------+---------+---------+---------+----------+
    |      Latency      |      Interval     | Pipeline |
    |   min   |   max   |   min   |   max   |   Type   |
    +---------+---------+---------+---------+----------+
    |  2077926|  2081164|  2077922|  2081164| dataflow |
    +---------+---------+---------+---------+----------+

    + Detail: 
        * Instance: 
        +-------------------+----------------+---------+---------+---------+---------+---------+
        |                   |                |      Latency      |      Interval     | Pipeline|
        |      Instance     |     Module     |   min   |   max   |   min   |   max   |   Type  |
        +-------------------+----------------+---------+---------+---------+---------+---------+
        |AXIvideo2Mat_U0    |AXIvideo2Mat    |        3|  2081163|        3|  2081163|   none  |
        |Mat2AXIvideo32_U0  |Mat2AXIvideo32  |  2077921|  2077921|  2077921|  2077921|   none  |
        |Mat2AXIvideo_U0    |Mat2AXIvideo    |  2077921|  2077921|  2077921|  2077921|   none  |
        |Duplicate_U0       |Duplicate       |        1|  2076841|        1|  2076841|   none  |
        |Block_proc_U0      |Block_proc      |        0|        0|        0|        0|   none  |
        +-------------------+----------------+---------+---------+---------+---------+---------+

        * Loop: 
        N/A



================================================================
== Utilization Estimates
================================================================
* Summary: 
+-----------------+---------+-------+--------+-------+
|       Name      | BRAM_18K| DSP48E|   FF   |  LUT  |
+-----------------+---------+-------+--------+-------+
|DSP              |        -|      -|       -|      -|
|Expression       |        -|      -|       0|      6|
|FIFO             |        0|      -|      65|    276|
|Instance         |        -|      -|     552|   1471|
|Memory           |        -|      -|       -|      -|
|Multiplexer      |        -|      -|       -|      -|
|Register         |        -|      -|       -|      -|
+-----------------+---------+-------+--------+-------+
|Total            |        0|      0|     617|   1753|
+-----------------+---------+-------+--------+-------+
|Available        |      280|    220|  106400|  53200|
+-----------------+---------+-------+--------+-------+
|Utilization (%)  |        0|      0|   ~0   |      3|
+-----------------+---------+-------+--------+-------+

+ Detail: 
    * Instance: 
    +-------------------+----------------+---------+-------+-----+-----+
    |      Instance     |     Module     | BRAM_18K| DSP48E|  FF | LUT |
    +-------------------+----------------+---------+-------+-----+-----+
    |AXIvideo2Mat_U0    |AXIvideo2Mat    |        0|      0|  242|  485|
    |Block_proc_U0      |Block_proc      |        0|      0|    2|   29|
    |Duplicate_U0       |Duplicate       |        0|      0|   66|  239|
    |Mat2AXIvideo_U0    |Mat2AXIvideo    |        0|      0|  121|  359|
    |Mat2AXIvideo32_U0  |Mat2AXIvideo32  |        0|      0|  121|  359|
    +-------------------+----------------+---------+-------+-----+-----+
    |Total              |                |        0|      0|  552| 1471|
    +-------------------+----------------+---------+-------+-----+-----+

    * DSP48: 
    N/A

    * Memory: 
    N/A

    * FIFO: 
    +--------------------------+---------+---+----+------+-----+---------+
    |           Name           | BRAM_18K| FF| LUT| Depth| Bits| Size:D*B|
    +--------------------------+---------+---+----+------+-----+---------+
    |input_data_cols_V_c9_U    |        0|  5|  24|     2|   12|       24|
    |input_data_cols_V_c_U     |        0|  5|  24|     2|   12|       24|
    |input_data_data_stre_1_U  |        0|  5|  20|     2|    8|       16|
    |input_data_data_stre_2_U  |        0|  5|  20|     2|    8|       16|
    |input_data_data_stre_U    |        0|  5|  20|     2|    8|       16|
    |input_data_rows_V_c8_U    |        0|  5|  24|     2|   12|       24|
    |input_data_rows_V_c_U     |        0|  5|  24|     2|   12|       24|
    |output_data_0_data_s_1_U  |        0|  5|  20|     2|    8|       16|
    |output_data_0_data_s_2_U  |        0|  5|  20|     2|    8|       16|
    |output_data_0_data_s_U    |        0|  5|  20|     2|    8|       16|
    |output_data_1_data_s_1_U  |        0|  5|  20|     2|    8|       16|
    |output_data_1_data_s_2_U  |        0|  5|  20|     2|    8|       16|
    |output_data_1_data_s_U    |        0|  5|  20|     2|    8|       16|
    +--------------------------+---------+---+----+------+-----+---------+
    |Total                     |        0| 65| 276|    26|  120|      240|
    +--------------------------+---------+---+----+------+-----+---------+

    * Expression: 
    +---------------------------+----------+-------+---+----+------------+------------+
    |       Variable Name       | Operation| DSP48E| FF| LUT| Bitwidth P0| Bitwidth P1|
    +---------------------------+----------+-------+---+----+------------+------------+
    |Duplicate_U0_start_full_n  |    and   |      0|  0|   2|           1|           1|
    |ap_idle                    |    and   |      0|  0|   2|           1|           1|
    |ap_sync_done               |    and   |      0|  0|   2|           1|           1|
    +---------------------------+----------+-------+---+----+------------+------------+
    |Total                      |          |      0|  0|   6|           3|           3|
    +---------------------------+----------+-------+---+----+------------+------------+

    * Multiplexer: 
    N/A

    * Register: 
    N/A



================================================================
== Interface
================================================================
* Summary: 
+--------------------+-----+-----+------------+----------------------+--------------+
|      RTL Ports     | Dir | Bits|  Protocol  |     Source Object    |    C Type    |
+--------------------+-----+-----+------------+----------------------+--------------+
|stream_in_TDATA     |  in |   24|    axis    |  stream_in_V_data_V  |    pointer   |
|stream_in_TKEEP     |  in |    3|    axis    |  stream_in_V_keep_V  |    pointer   |
|stream_in_TSTRB     |  in |    3|    axis    |  stream_in_V_strb_V  |    pointer   |
|stream_in_TUSER     |  in |    1|    axis    |  stream_in_V_user_V  |    pointer   |
|stream_in_TLAST     |  in |    1|    axis    |  stream_in_V_last_V  |    pointer   |
|stream_in_TID       |  in |    1|    axis    |   stream_in_V_id_V   |    pointer   |
|stream_in_TDEST     |  in |    1|    axis    |  stream_in_V_dest_V  |    pointer   |
|stream_in_TVALID    |  in |    1|    axis    |  stream_in_V_dest_V  |    pointer   |
|stream_in_TREADY    | out |    1|    axis    |  stream_in_V_dest_V  |    pointer   |
|stream0_out_TDATA   | out |   24|    axis    | stream0_out_V_data_V |    pointer   |
|stream0_out_TKEEP   | out |    3|    axis    | stream0_out_V_keep_V |    pointer   |
|stream0_out_TSTRB   | out |    3|    axis    | stream0_out_V_strb_V |    pointer   |
|stream0_out_TUSER   | out |    1|    axis    | stream0_out_V_user_V |    pointer   |
|stream0_out_TLAST   | out |    1|    axis    | stream0_out_V_last_V |    pointer   |
|stream0_out_TID     | out |    1|    axis    |  stream0_out_V_id_V  |    pointer   |
|stream0_out_TDEST   | out |    1|    axis    | stream0_out_V_dest_V |    pointer   |
|stream0_out_TVALID  | out |    1|    axis    | stream0_out_V_dest_V |    pointer   |
|stream0_out_TREADY  |  in |    1|    axis    | stream0_out_V_dest_V |    pointer   |
|stream1_out_TDATA   | out |   24|    axis    | stream1_out_V_data_V |    pointer   |
|stream1_out_TKEEP   | out |    3|    axis    | stream1_out_V_keep_V |    pointer   |
|stream1_out_TSTRB   | out |    3|    axis    | stream1_out_V_strb_V |    pointer   |
|stream1_out_TUSER   | out |    1|    axis    | stream1_out_V_user_V |    pointer   |
|stream1_out_TLAST   | out |    1|    axis    | stream1_out_V_last_V |    pointer   |
|stream1_out_TID     | out |    1|    axis    |  stream1_out_V_id_V  |    pointer   |
|stream1_out_TDEST   | out |    1|    axis    | stream1_out_V_dest_V |    pointer   |
|stream1_out_TVALID  | out |    1|    axis    | stream1_out_V_dest_V |    pointer   |
|stream1_out_TREADY  |  in |    1|    axis    | stream1_out_V_dest_V |    pointer   |
|ap_clk              |  in |    1| ap_ctrl_hs |   stream_duplicate   | return value |
|ap_rst_n            |  in |    1| ap_ctrl_hs |   stream_duplicate   | return value |
|ap_start            |  in |    1| ap_ctrl_hs |   stream_duplicate   | return value |
|ap_done             | out |    1| ap_ctrl_hs |   stream_duplicate   | return value |
|ap_ready            | out |    1| ap_ctrl_hs |   stream_duplicate   | return value |
|ap_idle             | out |    1| ap_ctrl_hs |   stream_duplicate   | return value |
+--------------------+-----+-----+------------+----------------------+--------------+

============================================================
+ Verbose Summary: Synthesis Manager
============================================================
InlineROM: 1
ExposeGlobal: 0
============================================================
+ Verbose Summary: CDFG Model
============================================================
IsTopModel: 1
ResetActiveHigh: 1
IsCombinational: 2
IsDatapathOnly: 2
HasWiredReturn: 1
HasMFsm: 0
HasVarLatency: 1
IsPipeline: 0
IsRtlPipelined: 0
IsInstanceOverlapped: 0
IsDontTouch: 0
HasImplIP: 0
IsGatedGlobalClock: 0


============================================================
+ Verbose Summary: Schedule
============================================================
* Number of FSM states : 8
* Pipeline : 0
* Dataflow Pipeline: 1
  DF-Pipeline-0: Size = 8, States = { 1 2 3 4 5 6 7 8 }

* FSM state transitions: 
1 --> 
	2  / true
2 --> 
	3  / true
3 --> 
	4  / true
4 --> 
	5  / true
5 --> 
	6  / true
6 --> 
	7  / true
7 --> 
	8  / true
8 --> 

* FSM state operations: 

State 1 <SV = 0> <Delay = 0.00>
ST_1 : Operation 9 [1/1] (0.00ns)   --->   "%input_data_cols_V_c9 = alloca i12, align 2"   --->   Operation 9 'alloca' 'input_data_cols_V_c9' <Predicate = true> <Delay = 0.00> <Core = "FIFO">   --->   Core 32 'FIFO' <Latency = 0> <II = 1> <Delay = 3.63> <Storage> <Opcode : 'read' 'write' 'nbread' 'nbwrite'> <Ports = 0> <Width = 8> <Depth = 2> <FIFO>
ST_1 : Operation 10 [1/1] (0.00ns)   --->   "%input_data_rows_V_c8 = alloca i12, align 2"   --->   Operation 10 'alloca' 'input_data_rows_V_c8' <Predicate = true> <Delay = 0.00> <Core = "FIFO">   --->   Core 32 'FIFO' <Latency = 0> <II = 1> <Delay = 3.63> <Storage> <Opcode : 'read' 'write' 'nbread' 'nbwrite'> <Ports = 0> <Width = 8> <Depth = 2> <FIFO>
ST_1 : Operation 11 [1/1] (0.00ns)   --->   "%input_data_cols_V_c = alloca i12, align 2"   --->   Operation 11 'alloca' 'input_data_cols_V_c' <Predicate = true> <Delay = 0.00> <Core = "FIFO">   --->   Core 32 'FIFO' <Latency = 0> <II = 1> <Delay = 3.63> <Storage> <Opcode : 'read' 'write' 'nbread' 'nbwrite'> <Ports = 0> <Width = 8> <Depth = 2> <FIFO>
ST_1 : Operation 12 [1/1] (0.00ns)   --->   "%input_data_rows_V_c = alloca i12, align 2"   --->   Operation 12 'alloca' 'input_data_rows_V_c' <Predicate = true> <Delay = 0.00> <Core = "FIFO">   --->   Core 32 'FIFO' <Latency = 0> <II = 1> <Delay = 3.63> <Storage> <Opcode : 'read' 'write' 'nbread' 'nbwrite'> <Ports = 0> <Width = 8> <Depth = 2> <FIFO>
ST_1 : Operation 13 [1/1] (0.00ns)   --->   "%input_data_data_stre = alloca i8, align 1" [stream_duplicate/src/stream_duplicate.cpp:15]   --->   Operation 13 'alloca' 'input_data_data_stre' <Predicate = true> <Delay = 0.00> <Core = "FIFO">   --->   Core 32 'FIFO' <Latency = 0> <II = 1> <Delay = 3.63> <Storage> <Opcode : 'read' 'write' 'nbread' 'nbwrite'> <Ports = 0> <Width = 8> <Depth = 2> <FIFO>
ST_1 : Operation 14 [1/1] (0.00ns)   --->   "%input_data_data_stre_1 = alloca i8, align 1" [stream_duplicate/src/stream_duplicate.cpp:15]   --->   Operation 14 'alloca' 'input_data_data_stre_1' <Predicate = true> <Delay = 0.00> <Core = "FIFO">   --->   Core 32 'FIFO' <Latency = 0> <II = 1> <Delay = 3.63> <Storage> <Opcode : 'read' 'write' 'nbread' 'nbwrite'> <Ports = 0> <Width = 8> <Depth = 2> <FIFO>
ST_1 : Operation 15 [1/1] (0.00ns)   --->   "%input_data_data_stre_2 = alloca i8, align 1" [stream_duplicate/src/stream_duplicate.cpp:15]   --->   Operation 15 'alloca' 'input_data_data_stre_2' <Predicate = true> <Delay = 0.00> <Core = "FIFO">   --->   Core 32 'FIFO' <Latency = 0> <II = 1> <Delay = 3.63> <Storage> <Opcode : 'read' 'write' 'nbread' 'nbwrite'> <Ports = 0> <Width = 8> <Depth = 2> <FIFO>
ST_1 : Operation 16 [1/1] (0.00ns)   --->   "%output_data_0_data_s = alloca i8, align 1" [stream_duplicate/src/stream_duplicate.cpp:16]   --->   Operation 16 'alloca' 'output_data_0_data_s' <Predicate = true> <Delay = 0.00> <Core = "FIFO">   --->   Core 32 'FIFO' <Latency = 0> <II = 1> <Delay = 3.63> <Storage> <Opcode : 'read' 'write' 'nbread' 'nbwrite'> <Ports = 0> <Width = 8> <Depth = 2> <FIFO>
ST_1 : Operation 17 [1/1] (0.00ns)   --->   "%output_data_0_data_s_1 = alloca i8, align 1" [stream_duplicate/src/stream_duplicate.cpp:16]   --->   Operation 17 'alloca' 'output_data_0_data_s_1' <Predicate = true> <Delay = 0.00> <Core = "FIFO">   --->   Core 32 'FIFO' <Latency = 0> <II = 1> <Delay = 3.63> <Storage> <Opcode : 'read' 'write' 'nbread' 'nbwrite'> <Ports = 0> <Width = 8> <Depth = 2> <FIFO>
ST_1 : Operation 18 [1/1] (0.00ns)   --->   "%output_data_0_data_s_2 = alloca i8, align 1" [stream_duplicate/src/stream_duplicate.cpp:16]   --->   Operation 18 'alloca' 'output_data_0_data_s_2' <Predicate = true> <Delay = 0.00> <Core = "FIFO">   --->   Core 32 'FIFO' <Latency = 0> <II = 1> <Delay = 3.63> <Storage> <Opcode : 'read' 'write' 'nbread' 'nbwrite'> <Ports = 0> <Width = 8> <Depth = 2> <FIFO>
ST_1 : Operation 19 [1/1] (0.00ns)   --->   "%output_data_1_data_s = alloca i8, align 1" [stream_duplicate/src/stream_duplicate.cpp:17]   --->   Operation 19 'alloca' 'output_data_1_data_s' <Predicate = true> <Delay = 0.00> <Core = "FIFO">   --->   Core 32 'FIFO' <Latency = 0> <II = 1> <Delay = 3.63> <Storage> <Opcode : 'read' 'write' 'nbread' 'nbwrite'> <Ports = 0> <Width = 8> <Depth = 2> <FIFO>
ST_1 : Operation 20 [1/1] (0.00ns)   --->   "%output_data_1_data_s_1 = alloca i8, align 1" [stream_duplicate/src/stream_duplicate.cpp:17]   --->   Operation 20 'alloca' 'output_data_1_data_s_1' <Predicate = true> <Delay = 0.00> <Core = "FIFO">   --->   Core 32 'FIFO' <Latency = 0> <II = 1> <Delay = 3.63> <Storage> <Opcode : 'read' 'write' 'nbread' 'nbwrite'> <Ports = 0> <Width = 8> <Depth = 2> <FIFO>
ST_1 : Operation 21 [1/1] (0.00ns)   --->   "%output_data_1_data_s_2 = alloca i8, align 1" [stream_duplicate/src/stream_duplicate.cpp:17]   --->   Operation 21 'alloca' 'output_data_1_data_s_2' <Predicate = true> <Delay = 0.00> <Core = "FIFO">   --->   Core 32 'FIFO' <Latency = 0> <II = 1> <Delay = 3.63> <Storage> <Opcode : 'read' 'write' 'nbread' 'nbwrite'> <Ports = 0> <Width = 8> <Depth = 2> <FIFO>
ST_1 : Operation 22 [1/1] (0.00ns)   --->   "call fastcc void @Block__proc(i12* %input_data_rows_V_c, i12* %input_data_cols_V_c)"   --->   Operation 22 'call' <Predicate = true> <Delay = 0.00> <CoreType = "Generic">   --->   Core 0 '' <Latency = 0> <II = 1> <Delay = 1.00> <Generic> <Opcode : >

State 2 <SV = 1> <Delay = 0.00>
ST_2 : Operation 23 [2/2] (0.00ns)   --->   "call fastcc void @AXIvideo2Mat(i24* %stream_in_V_data_V, i3* %stream_in_V_keep_V, i3* %stream_in_V_strb_V, i1* %stream_in_V_user_V, i1* %stream_in_V_last_V, i1* %stream_in_V_id_V, i1* %stream_in_V_dest_V, i12* nocapture %input_data_rows_V_c, i12* nocapture %input_data_cols_V_c, i8* %input_data_data_stre, i8* %input_data_data_stre_1, i8* %input_data_data_stre_2, i12* %input_data_rows_V_c8, i12* %input_data_cols_V_c9)" [stream_duplicate/src/stream_duplicate.cpp:21]   --->   Operation 23 'call' <Predicate = true> <Delay = 0.00> <CoreType = "Generic">   --->   Core 0 '' <Latency = 0> <II = 1> <Delay = 1.00> <Generic> <Opcode : >

State 3 <SV = 2> <Delay = 0.00>
ST_3 : Operation 24 [1/2] (0.00ns)   --->   "call fastcc void @AXIvideo2Mat(i24* %stream_in_V_data_V, i3* %stream_in_V_keep_V, i3* %stream_in_V_strb_V, i1* %stream_in_V_user_V, i1* %stream_in_V_last_V, i1* %stream_in_V_id_V, i1* %stream_in_V_dest_V, i12* nocapture %input_data_rows_V_c, i12* nocapture %input_data_cols_V_c, i8* %input_data_data_stre, i8* %input_data_data_stre_1, i8* %input_data_data_stre_2, i12* %input_data_rows_V_c8, i12* %input_data_cols_V_c9)" [stream_duplicate/src/stream_duplicate.cpp:21]   --->   Operation 24 'call' <Predicate = true> <Delay = 0.00> <CoreType = "Generic">   --->   Core 0 '' <Latency = 0> <II = 1> <Delay = 1.00> <Generic> <Opcode : >

State 4 <SV = 3> <Delay = 0.00>
ST_4 : Operation 25 [2/2] (0.00ns)   --->   "call fastcc void @Duplicate(i12* nocapture %input_data_rows_V_c8, i12* nocapture %input_data_cols_V_c9, i8* %input_data_data_stre, i8* %input_data_data_stre_1, i8* %input_data_data_stre_2, i8* %output_data_0_data_s, i8* %output_data_0_data_s_1, i8* %output_data_0_data_s_2, i8* %output_data_1_data_s, i8* %output_data_1_data_s_1, i8* %output_data_1_data_s_2)" [stream_duplicate/src/stream_duplicate.cpp:22]   --->   Operation 25 'call' <Predicate = true> <Delay = 0.00> <CoreType = "Generic">   --->   Core 0 '' <Latency = 0> <II = 1> <Delay = 1.00> <Generic> <Opcode : >

State 5 <SV = 4> <Delay = 0.00>
ST_5 : Operation 26 [1/2] (0.00ns)   --->   "call fastcc void @Duplicate(i12* nocapture %input_data_rows_V_c8, i12* nocapture %input_data_cols_V_c9, i8* %input_data_data_stre, i8* %input_data_data_stre_1, i8* %input_data_data_stre_2, i8* %output_data_0_data_s, i8* %output_data_0_data_s_1, i8* %output_data_0_data_s_2, i8* %output_data_1_data_s, i8* %output_data_1_data_s_1, i8* %output_data_1_data_s_2)" [stream_duplicate/src/stream_duplicate.cpp:22]   --->   Operation 26 'call' <Predicate = true> <Delay = 0.00> <CoreType = "Generic">   --->   Core 0 '' <Latency = 0> <II = 1> <Delay = 1.00> <Generic> <Opcode : >

State 6 <SV = 5> <Delay = 0.00>
ST_6 : Operation 27 [2/2] (0.00ns)   --->   "call fastcc void @Mat2AXIvideo32(i8* %output_data_0_data_s, i8* %output_data_0_data_s_1, i8* %output_data_0_data_s_2, i24* %stream0_out_V_data_V, i3* %stream0_out_V_keep_V, i3* %stream0_out_V_strb_V, i1* %stream0_out_V_user_V, i1* %stream0_out_V_last_V, i1* %stream0_out_V_id_V, i1* %stream0_out_V_dest_V)" [stream_duplicate/src/stream_duplicate.cpp:23]   --->   Operation 27 'call' <Predicate = true> <Delay = 0.00> <CoreType = "Generic">   --->   Core 0 '' <Latency = 0> <II = 1> <Delay = 1.00> <Generic> <Opcode : >
ST_6 : Operation 28 [2/2] (0.00ns)   --->   "call fastcc void @Mat2AXIvideo(i8* %output_data_1_data_s, i8* %output_data_1_data_s_1, i8* %output_data_1_data_s_2, i24* %stream1_out_V_data_V, i3* %stream1_out_V_keep_V, i3* %stream1_out_V_strb_V, i1* %stream1_out_V_user_V, i1* %stream1_out_V_last_V, i1* %stream1_out_V_id_V, i1* %stream1_out_V_dest_V)" [stream_duplicate/src/stream_duplicate.cpp:24]   --->   Operation 28 'call' <Predicate = true> <Delay = 0.00> <CoreType = "Generic">   --->   Core 0 '' <Latency = 0> <II = 1> <Delay = 1.00> <Generic> <Opcode : >

State 7 <SV = 6> <Delay = 0.00>
ST_7 : Operation 29 [1/2] (0.00ns)   --->   "call fastcc void @Mat2AXIvideo32(i8* %output_data_0_data_s, i8* %output_data_0_data_s_1, i8* %output_data_0_data_s_2, i24* %stream0_out_V_data_V, i3* %stream0_out_V_keep_V, i3* %stream0_out_V_strb_V, i1* %stream0_out_V_user_V, i1* %stream0_out_V_last_V, i1* %stream0_out_V_id_V, i1* %stream0_out_V_dest_V)" [stream_duplicate/src/stream_duplicate.cpp:23]   --->   Operation 29 'call' <Predicate = true> <Delay = 0.00> <CoreType = "Generic">   --->   Core 0 '' <Latency = 0> <II = 1> <Delay = 1.00> <Generic> <Opcode : >
ST_7 : Operation 30 [1/2] (0.00ns)   --->   "call fastcc void @Mat2AXIvideo(i8* %output_data_1_data_s, i8* %output_data_1_data_s_1, i8* %output_data_1_data_s_2, i24* %stream1_out_V_data_V, i3* %stream1_out_V_keep_V, i3* %stream1_out_V_strb_V, i1* %stream1_out_V_user_V, i1* %stream1_out_V_last_V, i1* %stream1_out_V_id_V, i1* %stream1_out_V_dest_V)" [stream_duplicate/src/stream_duplicate.cpp:24]   --->   Operation 30 'call' <Predicate = true> <Delay = 0.00> <CoreType = "Generic">   --->   Core 0 '' <Latency = 0> <II = 1> <Delay = 1.00> <Generic> <Opcode : >

State 8 <SV = 7> <Delay = 0.00>
ST_8 : Operation 31 [1/1] (0.00ns)   --->   "call void (...)* @_ssdm_op_SpecDataflowPipeline(i32 -1, [1 x i8]* @p_str3) nounwind" [stream_duplicate/src/stream_duplicate.cpp:19]   --->   Operation 31 'specdataflowpipeline' <Predicate = true> <Delay = 0.00>
ST_8 : Operation 32 [1/1] (0.00ns)   --->   "call void (...)* @_ssdm_op_SpecBitsMap(i24* %stream_in_V_data_V), !map !125"   --->   Operation 32 'specbitsmap' <Predicate = true> <Delay = 0.00>
ST_8 : Operation 33 [1/1] (0.00ns)   --->   "call void (...)* @_ssdm_op_SpecBitsMap(i3* %stream_in_V_keep_V), !map !129"   --->   Operation 33 'specbitsmap' <Predicate = true> <Delay = 0.00>
ST_8 : Operation 34 [1/1] (0.00ns)   --->   "call void (...)* @_ssdm_op_SpecBitsMap(i3* %stream_in_V_strb_V), !map !133"   --->   Operation 34 'specbitsmap' <Predicate = true> <Delay = 0.00>
ST_8 : Operation 35 [1/1] (0.00ns)   --->   "call void (...)* @_ssdm_op_SpecBitsMap(i1* %stream_in_V_user_V), !map !137"   --->   Operation 35 'specbitsmap' <Predicate = true> <Delay = 0.00>
ST_8 : Operation 36 [1/1] (0.00ns)   --->   "call void (...)* @_ssdm_op_SpecBitsMap(i1* %stream_in_V_last_V), !map !141"   --->   Operation 36 'specbitsmap' <Predicate = true> <Delay = 0.00>
ST_8 : Operation 37 [1/1] (0.00ns)   --->   "call void (...)* @_ssdm_op_SpecBitsMap(i1* %stream_in_V_id_V), !map !145"   --->   Operation 37 'specbitsmap' <Predicate = true> <Delay = 0.00>
ST_8 : Operation 38 [1/1] (0.00ns)   --->   "call void (...)* @_ssdm_op_SpecBitsMap(i1* %stream_in_V_dest_V), !map !149"   --->   Operation 38 'specbitsmap' <Predicate = true> <Delay = 0.00>
ST_8 : Operation 39 [1/1] (0.00ns)   --->   "call void (...)* @_ssdm_op_SpecBitsMap(i24* %stream0_out_V_data_V), !map !153"   --->   Operation 39 'specbitsmap' <Predicate = true> <Delay = 0.00>
ST_8 : Operation 40 [1/1] (0.00ns)   --->   "call void (...)* @_ssdm_op_SpecBitsMap(i3* %stream0_out_V_keep_V), !map !157"   --->   Operation 40 'specbitsmap' <Predicate = true> <Delay = 0.00>
ST_8 : Operation 41 [1/1] (0.00ns)   --->   "call void (...)* @_ssdm_op_SpecBitsMap(i3* %stream0_out_V_strb_V), !map !161"   --->   Operation 41 'specbitsmap' <Predicate = true> <Delay = 0.00>
ST_8 : Operation 42 [1/1] (0.00ns)   --->   "call void (...)* @_ssdm_op_SpecBitsMap(i1* %stream0_out_V_user_V), !map !165"   --->   Operation 42 'specbitsmap' <Predicate = true> <Delay = 0.00>
ST_8 : Operation 43 [1/1] (0.00ns)   --->   "call void (...)* @_ssdm_op_SpecBitsMap(i1* %stream0_out_V_last_V), !map !169"   --->   Operation 43 'specbitsmap' <Predicate = true> <Delay = 0.00>
ST_8 : Operation 44 [1/1] (0.00ns)   --->   "call void (...)* @_ssdm_op_SpecBitsMap(i1* %stream0_out_V_id_V), !map !173"   --->   Operation 44 'specbitsmap' <Predicate = true> <Delay = 0.00>
ST_8 : Operation 45 [1/1] (0.00ns)   --->   "call void (...)* @_ssdm_op_SpecBitsMap(i1* %stream0_out_V_dest_V), !map !177"   --->   Operation 45 'specbitsmap' <Predicate = true> <Delay = 0.00>
ST_8 : Operation 46 [1/1] (0.00ns)   --->   "call void (...)* @_ssdm_op_SpecBitsMap(i24* %stream1_out_V_data_V), !map !181"   --->   Operation 46 'specbitsmap' <Predicate = true> <Delay = 0.00>
ST_8 : Operation 47 [1/1] (0.00ns)   --->   "call void (...)* @_ssdm_op_SpecBitsMap(i3* %stream1_out_V_keep_V), !map !185"   --->   Operation 47 'specbitsmap' <Predicate = true> <Delay = 0.00>
ST_8 : Operation 48 [1/1] (0.00ns)   --->   "call void (...)* @_ssdm_op_SpecBitsMap(i3* %stream1_out_V_strb_V), !map !189"   --->   Operation 48 'specbitsmap' <Predicate = true> <Delay = 0.00>
ST_8 : Operation 49 [1/1] (0.00ns)   --->   "call void (...)* @_ssdm_op_SpecBitsMap(i1* %stream1_out_V_user_V), !map !193"   --->   Operation 49 'specbitsmap' <Predicate = true> <Delay = 0.00>
ST_8 : Operation 50 [1/1] (0.00ns)   --->   "call void (...)* @_ssdm_op_SpecBitsMap(i1* %stream1_out_V_last_V), !map !197"   --->   Operation 50 'specbitsmap' <Predicate = true> <Delay = 0.00>
ST_8 : Operation 51 [1/1] (0.00ns)   --->   "call void (...)* @_ssdm_op_SpecBitsMap(i1* %stream1_out_V_id_V), !map !201"   --->   Operation 51 'specbitsmap' <Predicate = true> <Delay = 0.00>
ST_8 : Operation 52 [1/1] (0.00ns)   --->   "call void (...)* @_ssdm_op_SpecBitsMap(i1* %stream1_out_V_dest_V), !map !205"   --->   Operation 52 'specbitsmap' <Predicate = true> <Delay = 0.00>
ST_8 : Operation 53 [1/1] (0.00ns)   --->   "call void (...)* @_ssdm_op_SpecTopModule([17 x i8]* @stream_duplicate_str) nounwind"   --->   Operation 53 'spectopmodule' <Predicate = true> <Delay = 0.00>
ST_8 : Operation 54 [1/1] (0.00ns)   --->   "%empty = call i32 (...)* @_ssdm_op_SpecChannel([28 x i8]* @input_data_OC_data_s_2, i32 1, [1 x i8]* @p_str46, [1 x i8]* @p_str46, i32 2, i32 2, i8* %input_data_data_stre, i8* %input_data_data_stre)"   --->   Operation 54 'specchannel' 'empty' <Predicate = true> <Delay = 0.00>
ST_8 : Operation 55 [1/1] (0.00ns)   --->   "call void (...)* @_ssdm_op_SpecInterface(i8* %input_data_data_stre, [8 x i8]* @ap_fifo_str, i32 0, i32 0, [1 x i8]* @p_str47, i32 0, i32 0, [1 x i8]* @p_str48, [1 x i8]* @p_str49, [1 x i8]* @p_str50, i32 2, i32 2, i32 16, i32 16, [1 x i8]* @p_str51, [1 x i8]* @p_str52)"   --->   Operation 55 'specinterface' <Predicate = true> <Delay = 0.00>
ST_8 : Operation 56 [1/1] (0.00ns)   --->   "%empty_7 = call i32 (...)* @_ssdm_op_SpecChannel([28 x i8]* @input_data_OC_data_s_1, i32 1, [1 x i8]* @p_str53, [1 x i8]* @p_str53, i32 2, i32 2, i8* %input_data_data_stre_1, i8* %input_data_data_stre_1)"   --->   Operation 56 'specchannel' 'empty_7' <Predicate = true> <Delay = 0.00>
ST_8 : Operation 57 [1/1] (0.00ns)   --->   "call void (...)* @_ssdm_op_SpecInterface(i8* %input_data_data_stre_1, [8 x i8]* @ap_fifo_str, i32 0, i32 0, [1 x i8]* @p_str54, i32 0, i32 0, [1 x i8]* @p_str55, [1 x i8]* @p_str56, [1 x i8]* @p_str57, i32 2, i32 2, i32 16, i32 16, [1 x i8]* @p_str58, [1 x i8]* @p_str59)"   --->   Operation 57 'specinterface' <Predicate = true> <Delay = 0.00>
ST_8 : Operation 58 [1/1] (0.00ns)   --->   "%empty_8 = call i32 (...)* @_ssdm_op_SpecChannel([28 x i8]* @input_data_OC_data_s, i32 1, [1 x i8]* @p_str60, [1 x i8]* @p_str60, i32 2, i32 2, i8* %input_data_data_stre_2, i8* %input_data_data_stre_2)"   --->   Operation 58 'specchannel' 'empty_8' <Predicate = true> <Delay = 0.00>
ST_8 : Operation 59 [1/1] (0.00ns)   --->   "call void (...)* @_ssdm_op_SpecInterface(i8* %input_data_data_stre_2, [8 x i8]* @ap_fifo_str, i32 0, i32 0, [1 x i8]* @p_str61, i32 0, i32 0, [1 x i8]* @p_str62, [1 x i8]* @p_str63, [1 x i8]* @p_str64, i32 2, i32 2, i32 16, i32 16, [1 x i8]* @p_str65, [1 x i8]* @p_str66)"   --->   Operation 59 'specinterface' <Predicate = true> <Delay = 0.00>
ST_8 : Operation 60 [1/1] (0.00ns)   --->   "%empty_9 = call i32 (...)* @_ssdm_op_SpecChannel([31 x i8]* @output_data_0_OC_dat_2, i32 1, [1 x i8]* @p_str67, [1 x i8]* @p_str67, i32 2, i32 2, i8* %output_data_0_data_s, i8* %output_data_0_data_s)"   --->   Operation 60 'specchannel' 'empty_9' <Predicate = true> <Delay = 0.00>
ST_8 : Operation 61 [1/1] (0.00ns)   --->   "call void (...)* @_ssdm_op_SpecInterface(i8* %output_data_0_data_s, [8 x i8]* @ap_fifo_str, i32 0, i32 0, [1 x i8]* @p_str68, i32 0, i32 0, [1 x i8]* @p_str69, [1 x i8]* @p_str70, [1 x i8]* @p_str71, i32 2, i32 2, i32 16, i32 16, [1 x i8]* @p_str72, [1 x i8]* @p_str73)"   --->   Operation 61 'specinterface' <Predicate = true> <Delay = 0.00>
ST_8 : Operation 62 [1/1] (0.00ns)   --->   "%empty_10 = call i32 (...)* @_ssdm_op_SpecChannel([31 x i8]* @output_data_0_OC_dat_1, i32 1, [1 x i8]* @p_str74, [1 x i8]* @p_str74, i32 2, i32 2, i8* %output_data_0_data_s_1, i8* %output_data_0_data_s_1)"   --->   Operation 62 'specchannel' 'empty_10' <Predicate = true> <Delay = 0.00>
ST_8 : Operation 63 [1/1] (0.00ns)   --->   "call void (...)* @_ssdm_op_SpecInterface(i8* %output_data_0_data_s_1, [8 x i8]* @ap_fifo_str, i32 0, i32 0, [1 x i8]* @p_str75, i32 0, i32 0, [1 x i8]* @p_str76, [1 x i8]* @p_str77, [1 x i8]* @p_str78, i32 2, i32 2, i32 16, i32 16, [1 x i8]* @p_str79, [1 x i8]* @p_str80)"   --->   Operation 63 'specinterface' <Predicate = true> <Delay = 0.00>
ST_8 : Operation 64 [1/1] (0.00ns)   --->   "%empty_11 = call i32 (...)* @_ssdm_op_SpecChannel([31 x i8]* @output_data_0_OC_dat, i32 1, [1 x i8]* @p_str81, [1 x i8]* @p_str81, i32 2, i32 2, i8* %output_data_0_data_s_2, i8* %output_data_0_data_s_2)"   --->   Operation 64 'specchannel' 'empty_11' <Predicate = true> <Delay = 0.00>
ST_8 : Operation 65 [1/1] (0.00ns)   --->   "call void (...)* @_ssdm_op_SpecInterface(i8* %output_data_0_data_s_2, [8 x i8]* @ap_fifo_str, i32 0, i32 0, [1 x i8]* @p_str82, i32 0, i32 0, [1 x i8]* @p_str83, [1 x i8]* @p_str84, [1 x i8]* @p_str85, i32 2, i32 2, i32 16, i32 16, [1 x i8]* @p_str86, [1 x i8]* @p_str87)"   --->   Operation 65 'specinterface' <Predicate = true> <Delay = 0.00>
ST_8 : Operation 66 [1/1] (0.00ns)   --->   "%empty_12 = call i32 (...)* @_ssdm_op_SpecChannel([31 x i8]* @output_data_1_OC_dat_2, i32 1, [1 x i8]* @p_str88, [1 x i8]* @p_str88, i32 2, i32 2, i8* %output_data_1_data_s, i8* %output_data_1_data_s)"   --->   Operation 66 'specchannel' 'empty_12' <Predicate = true> <Delay = 0.00>
ST_8 : Operation 67 [1/1] (0.00ns)   --->   "call void (...)* @_ssdm_op_SpecInterface(i8* %output_data_1_data_s, [8 x i8]* @ap_fifo_str, i32 0, i32 0, [1 x i8]* @p_str89, i32 0, i32 0, [1 x i8]* @p_str90, [1 x i8]* @p_str91, [1 x i8]* @p_str92, i32 2, i32 2, i32 16, i32 16, [1 x i8]* @p_str93, [1 x i8]* @p_str94)"   --->   Operation 67 'specinterface' <Predicate = true> <Delay = 0.00>
ST_8 : Operation 68 [1/1] (0.00ns)   --->   "%empty_13 = call i32 (...)* @_ssdm_op_SpecChannel([31 x i8]* @output_data_1_OC_dat_1, i32 1, [1 x i8]* @p_str95, [1 x i8]* @p_str95, i32 2, i32 2, i8* %output_data_1_data_s_1, i8* %output_data_1_data_s_1)"   --->   Operation 68 'specchannel' 'empty_13' <Predicate = true> <Delay = 0.00>
ST_8 : Operation 69 [1/1] (0.00ns)   --->   "call void (...)* @_ssdm_op_SpecInterface(i8* %output_data_1_data_s_1, [8 x i8]* @ap_fifo_str, i32 0, i32 0, [1 x i8]* @p_str96, i32 0, i32 0, [1 x i8]* @p_str97, [1 x i8]* @p_str98, [1 x i8]* @p_str99, i32 2, i32 2, i32 16, i32 16, [1 x i8]* @p_str100, [1 x i8]* @p_str101)"   --->   Operation 69 'specinterface' <Predicate = true> <Delay = 0.00>
ST_8 : Operation 70 [1/1] (0.00ns)   --->   "%empty_14 = call i32 (...)* @_ssdm_op_SpecChannel([31 x i8]* @output_data_1_OC_dat, i32 1, [1 x i8]* @p_str102, [1 x i8]* @p_str102, i32 2, i32 2, i8* %output_data_1_data_s_2, i8* %output_data_1_data_s_2)"   --->   Operation 70 'specchannel' 'empty_14' <Predicate = true> <Delay = 0.00>
ST_8 : Operation 71 [1/1] (0.00ns)   --->   "call void (...)* @_ssdm_op_SpecInterface(i8* %output_data_1_data_s_2, [8 x i8]* @ap_fifo_str, i32 0, i32 0, [1 x i8]* @p_str103, i32 0, i32 0, [1 x i8]* @p_str104, [1 x i8]* @p_str105, [1 x i8]* @p_str106, i32 2, i32 2, i32 16, i32 16, [1 x i8]* @p_str107, [1 x i8]* @p_str108)"   --->   Operation 71 'specinterface' <Predicate = true> <Delay = 0.00>
ST_8 : Operation 72 [1/1] (0.00ns)   --->   "call void (...)* @_ssdm_op_SpecInterface(i24* %stream_in_V_data_V, i3* %stream_in_V_keep_V, i3* %stream_in_V_strb_V, i1* %stream_in_V_user_V, i1* %stream_in_V_last_V, i1* %stream_in_V_id_V, i1* %stream_in_V_dest_V, [5 x i8]* @p_str, i32 1, i32 1, [5 x i8]* @p_str2, i32 0, i32 0, [1 x i8]* @p_str3, [1 x i8]* @p_str3, [1 x i8]* @p_str3, i32 0, i32 0, i32 0, i32 0, [1 x i8]* @p_str3, [1 x i8]* @p_str3) nounwind" [stream_duplicate/src/stream_duplicate.cpp:11]   --->   Operation 72 'specinterface' <Predicate = true> <Delay = 0.00>
ST_8 : Operation 73 [1/1] (0.00ns)   --->   "call void (...)* @_ssdm_op_SpecInterface(i24* %stream0_out_V_data_V, i3* %stream0_out_V_keep_V, i3* %stream0_out_V_strb_V, i1* %stream0_out_V_user_V, i1* %stream0_out_V_last_V, i1* %stream0_out_V_id_V, i1* %stream0_out_V_dest_V, [5 x i8]* @p_str, i32 1, i32 1, [5 x i8]* @p_str2, i32 0, i32 0, [1 x i8]* @p_str3, [1 x i8]* @p_str3, [1 x i8]* @p_str3, i32 0, i32 0, i32 0, i32 0, [1 x i8]* @p_str3, [1 x i8]* @p_str3) nounwind" [stream_duplicate/src/stream_duplicate.cpp:12]   --->   Operation 73 'specinterface' <Predicate = true> <Delay = 0.00>
ST_8 : Operation 74 [1/1] (0.00ns)   --->   "call void (...)* @_ssdm_op_SpecInterface(i24* %stream1_out_V_data_V, i3* %stream1_out_V_keep_V, i3* %stream1_out_V_strb_V, i1* %stream1_out_V_user_V, i1* %stream1_out_V_last_V, i1* %stream1_out_V_id_V, i1* %stream1_out_V_dest_V, [5 x i8]* @p_str, i32 1, i32 1, [5 x i8]* @p_str2, i32 0, i32 0, [1 x i8]* @p_str3, [1 x i8]* @p_str3, [1 x i8]* @p_str3, i32 0, i32 0, i32 0, i32 0, [1 x i8]* @p_str3, [1 x i8]* @p_str3) nounwind" [stream_duplicate/src/stream_duplicate.cpp:13]   --->   Operation 74 'specinterface' <Predicate = true> <Delay = 0.00>
ST_8 : Operation 75 [1/1] (0.00ns)   --->   "%empty_15 = call i32 (...)* @_ssdm_op_SpecChannel([20 x i8]* @input_data_OC_rows_O_1, i32 1, [1 x i8]* @p_str122, [1 x i8]* @p_str122, i32 2, i32 0, i12* %input_data_rows_V_c, i12* %input_data_rows_V_c)"   --->   Operation 75 'specchannel' 'empty_15' <Predicate = true> <Delay = 0.00>
ST_8 : Operation 76 [1/1] (0.00ns)   --->   "call void (...)* @_ssdm_op_SpecInterface(i12* %input_data_rows_V_c, [8 x i8]* @ap_fifo_str, i32 0, i32 0, [1 x i8]* @p_str123, i32 0, i32 0, [1 x i8]* @p_str124, [1 x i8]* @p_str125, [1 x i8]* @p_str126, i32 2, i32 2, i32 16, i32 16, [1 x i8]* @p_str127, [1 x i8]* @p_str128)"   --->   Operation 76 'specinterface' <Predicate = true> <Delay = 0.00>
ST_8 : Operation 77 [1/1] (0.00ns)   --->   "%empty_16 = call i32 (...)* @_ssdm_op_SpecChannel([20 x i8]* @input_data_OC_cols_O_1, i32 1, [1 x i8]* @p_str129, [1 x i8]* @p_str129, i32 2, i32 0, i12* %input_data_cols_V_c, i12* %input_data_cols_V_c)"   --->   Operation 77 'specchannel' 'empty_16' <Predicate = true> <Delay = 0.00>
ST_8 : Operation 78 [1/1] (0.00ns)   --->   "call void (...)* @_ssdm_op_SpecInterface(i12* %input_data_cols_V_c, [8 x i8]* @ap_fifo_str, i32 0, i32 0, [1 x i8]* @p_str130, i32 0, i32 0, [1 x i8]* @p_str131, [1 x i8]* @p_str132, [1 x i8]* @p_str133, i32 2, i32 2, i32 16, i32 16, [1 x i8]* @p_str134, [1 x i8]* @p_str135)"   --->   Operation 78 'specinterface' <Predicate = true> <Delay = 0.00>
ST_8 : Operation 79 [1/1] (0.00ns)   --->   "%empty_17 = call i32 (...)* @_ssdm_op_SpecChannel([21 x i8]* @input_data_OC_rows_O, i32 1, [1 x i8]* @p_str161, [1 x i8]* @p_str161, i32 2, i32 0, i12* %input_data_rows_V_c8, i12* %input_data_rows_V_c8)"   --->   Operation 79 'specchannel' 'empty_17' <Predicate = true> <Delay = 0.00>
ST_8 : Operation 80 [1/1] (0.00ns)   --->   "call void (...)* @_ssdm_op_SpecInterface(i12* %input_data_rows_V_c8, [8 x i8]* @ap_fifo_str, i32 0, i32 0, [1 x i8]* @p_str162, i32 0, i32 0, [1 x i8]* @p_str163, [1 x i8]* @p_str164, [1 x i8]* @p_str165, i32 2, i32 2, i32 16, i32 16, [1 x i8]* @p_str166, [1 x i8]* @p_str167)"   --->   Operation 80 'specinterface' <Predicate = true> <Delay = 0.00>
ST_8 : Operation 81 [1/1] (0.00ns)   --->   "%empty_18 = call i32 (...)* @_ssdm_op_SpecChannel([21 x i8]* @input_data_OC_cols_O, i32 1, [1 x i8]* @p_str168, [1 x i8]* @p_str168, i32 2, i32 0, i12* %input_data_cols_V_c9, i12* %input_data_cols_V_c9)"   --->   Operation 81 'specchannel' 'empty_18' <Predicate = true> <Delay = 0.00>
ST_8 : Operation 82 [1/1] (0.00ns)   --->   "call void (...)* @_ssdm_op_SpecInterface(i12* %input_data_cols_V_c9, [8 x i8]* @ap_fifo_str, i32 0, i32 0, [1 x i8]* @p_str169, i32 0, i32 0, [1 x i8]* @p_str170, [1 x i8]* @p_str171, [1 x i8]* @p_str172, i32 2, i32 2, i32 16, i32 16, [1 x i8]* @p_str173, [1 x i8]* @p_str174)"   --->   Operation 82 'specinterface' <Predicate = true> <Delay = 0.00>
ST_8 : Operation 83 [1/1] (0.00ns)   --->   "ret void" [stream_duplicate/src/stream_duplicate.cpp:25]   --->   Operation 83 'ret' <Predicate = true> <Delay = 0.00>


============================================================
+ Verbose Summary: Binding
============================================================
STG Binding: 
---------------- STG Properties BEGIN ----------------
- Is combinational: 0
- Is one-state seq: 0
- Is datapath-only: 0
- Is pipelined: 0
- Is top level: 1
Port [ Return ] is wired: 1; IO mode=ap_ctrl_hs:ce=0
Port [ stream_in_V_data_V]:  wired=1; compound=1; hidden=0; nouse=0; global=0; static=0; extern=0; dir=0; type=0; pingpong=0; private_global=0; IO mode=axis:ce=0
Port [ stream_in_V_keep_V]:  wired=1; compound=1; hidden=0; nouse=0; global=0; static=0; extern=0; dir=0; type=0; pingpong=0; private_global=0; IO mode=axis:ce=0
Port [ stream_in_V_strb_V]:  wired=1; compound=1; hidden=0; nouse=0; global=0; static=0; extern=0; dir=0; type=0; pingpong=0; private_global=0; IO mode=axis:ce=0
Port [ stream_in_V_user_V]:  wired=1; compound=1; hidden=0; nouse=0; global=0; static=0; extern=0; dir=0; type=0; pingpong=0; private_global=0; IO mode=axis:ce=0
Port [ stream_in_V_last_V]:  wired=1; compound=1; hidden=0; nouse=0; global=0; static=0; extern=0; dir=0; type=0; pingpong=0; private_global=0; IO mode=axis:ce=0
Port [ stream_in_V_id_V]:  wired=1; compound=1; hidden=0; nouse=0; global=0; static=0; extern=0; dir=0; type=0; pingpong=0; private_global=0; IO mode=axis:ce=0
Port [ stream_in_V_dest_V]:  wired=1; compound=1; hidden=0; nouse=0; global=0; static=0; extern=0; dir=0; type=0; pingpong=0; private_global=0; IO mode=axis:ce=0
Port [ stream0_out_V_data_V]:  wired=1; compound=1; hidden=0; nouse=0; global=0; static=0; extern=0; dir=1; type=0; pingpong=0; private_global=0; IO mode=axis:ce=0
Port [ stream0_out_V_keep_V]:  wired=1; compound=1; hidden=0; nouse=0; global=0; static=0; extern=0; dir=1; type=0; pingpong=0; private_global=0; IO mode=axis:ce=0
Port [ stream0_out_V_strb_V]:  wired=1; compound=1; hidden=0; nouse=0; global=0; static=0; extern=0; dir=1; type=0; pingpong=0; private_global=0; IO mode=axis:ce=0
Port [ stream0_out_V_user_V]:  wired=1; compound=1; hidden=0; nouse=0; global=0; static=0; extern=0; dir=1; type=0; pingpong=0; private_global=0; IO mode=axis:ce=0
Port [ stream0_out_V_last_V]:  wired=1; compound=1; hidden=0; nouse=0; global=0; static=0; extern=0; dir=1; type=0; pingpong=0; private_global=0; IO mode=axis:ce=0
Port [ stream0_out_V_id_V]:  wired=1; compound=1; hidden=0; nouse=0; global=0; static=0; extern=0; dir=1; type=0; pingpong=0; private_global=0; IO mode=axis:ce=0
Port [ stream0_out_V_dest_V]:  wired=1; compound=1; hidden=0; nouse=0; global=0; static=0; extern=0; dir=1; type=0; pingpong=0; private_global=0; IO mode=axis:ce=0
Port [ stream1_out_V_data_V]:  wired=1; compound=1; hidden=0; nouse=0; global=0; static=0; extern=0; dir=1; type=0; pingpong=0; private_global=0; IO mode=axis:ce=0
Port [ stream1_out_V_keep_V]:  wired=1; compound=1; hidden=0; nouse=0; global=0; static=0; extern=0; dir=1; type=0; pingpong=0; private_global=0; IO mode=axis:ce=0
Port [ stream1_out_V_strb_V]:  wired=1; compound=1; hidden=0; nouse=0; global=0; static=0; extern=0; dir=1; type=0; pingpong=0; private_global=0; IO mode=axis:ce=0
Port [ stream1_out_V_user_V]:  wired=1; compound=1; hidden=0; nouse=0; global=0; static=0; extern=0; dir=1; type=0; pingpong=0; private_global=0; IO mode=axis:ce=0
Port [ stream1_out_V_last_V]:  wired=1; compound=1; hidden=0; nouse=0; global=0; static=0; extern=0; dir=1; type=0; pingpong=0; private_global=0; IO mode=axis:ce=0
Port [ stream1_out_V_id_V]:  wired=1; compound=1; hidden=0; nouse=0; global=0; static=0; extern=0; dir=1; type=0; pingpong=0; private_global=0; IO mode=axis:ce=0
Port [ stream1_out_V_dest_V]:  wired=1; compound=1; hidden=0; nouse=0; global=0; static=0; extern=0; dir=1; type=0; pingpong=0; private_global=0; IO mode=axis:ce=0
---------------- STG Properties END ------------------

---------------- Datapath Model BEGIN ----------------

<LifeTime>
<method=bitvector/>
input_data_cols_V_c9   (alloca              ) [ 001111111]
input_data_rows_V_c8   (alloca              ) [ 001111111]
input_data_cols_V_c    (alloca              ) [ 011111111]
input_data_rows_V_c    (alloca              ) [ 011111111]
input_data_data_stre   (alloca              ) [ 001111111]
input_data_data_stre_1 (alloca              ) [ 001111111]
input_data_data_stre_2 (alloca              ) [ 001111111]
output_data_0_data_s   (alloca              ) [ 001111111]
output_data_0_data_s_1 (alloca              ) [ 001111111]
output_data_0_data_s_2 (alloca              ) [ 001111111]
output_data_1_data_s   (alloca              ) [ 001111111]
output_data_1_data_s_1 (alloca              ) [ 001111111]
output_data_1_data_s_2 (alloca              ) [ 001111111]
StgValue_22            (call                ) [ 000000000]
StgValue_24            (call                ) [ 000000000]
StgValue_26            (call                ) [ 000000000]
StgValue_29            (call                ) [ 000000000]
StgValue_30            (call                ) [ 000000000]
StgValue_31            (specdataflowpipeline) [ 000000000]
StgValue_32            (specbitsmap         ) [ 000000000]
StgValue_33            (specbitsmap         ) [ 000000000]
StgValue_34            (specbitsmap         ) [ 000000000]
StgValue_35            (specbitsmap         ) [ 000000000]
StgValue_36            (specbitsmap         ) [ 000000000]
StgValue_37            (specbitsmap         ) [ 000000000]
StgValue_38            (specbitsmap         ) [ 000000000]
StgValue_39            (specbitsmap         ) [ 000000000]
StgValue_40            (specbitsmap         ) [ 000000000]
StgValue_41            (specbitsmap         ) [ 000000000]
StgValue_42            (specbitsmap         ) [ 000000000]
StgValue_43            (specbitsmap         ) [ 000000000]
StgValue_44            (specbitsmap         ) [ 000000000]
StgValue_45            (specbitsmap         ) [ 000000000]
StgValue_46            (specbitsmap         ) [ 000000000]
StgValue_47            (specbitsmap         ) [ 000000000]
StgValue_48            (specbitsmap         ) [ 000000000]
StgValue_49            (specbitsmap         ) [ 000000000]
StgValue_50            (specbitsmap         ) [ 000000000]
StgValue_51            (specbitsmap         ) [ 000000000]
StgValue_52            (specbitsmap         ) [ 000000000]
StgValue_53            (spectopmodule       ) [ 000000000]
empty                  (specchannel         ) [ 000000000]
StgValue_55            (specinterface       ) [ 000000000]
empty_7                (specchannel         ) [ 000000000]
StgValue_57            (specinterface       ) [ 000000000]
empty_8                (specchannel         ) [ 000000000]
StgValue_59            (specinterface       ) [ 000000000]
empty_9                (specchannel         ) [ 000000000]
StgValue_61            (specinterface       ) [ 000000000]
empty_10               (specchannel         ) [ 000000000]
StgValue_63            (specinterface       ) [ 000000000]
empty_11               (specchannel         ) [ 000000000]
StgValue_65            (specinterface       ) [ 000000000]
empty_12               (specchannel         ) [ 000000000]
StgValue_67            (specinterface       ) [ 000000000]
empty_13               (specchannel         ) [ 000000000]
StgValue_69            (specinterface       ) [ 000000000]
empty_14               (specchannel         ) [ 000000000]
StgValue_71            (specinterface       ) [ 000000000]
StgValue_72            (specinterface       ) [ 000000000]
StgValue_73            (specinterface       ) [ 000000000]
StgValue_74            (specinterface       ) [ 000000000]
empty_15               (specchannel         ) [ 000000000]
StgValue_76            (specinterface       ) [ 000000000]
empty_16               (specchannel         ) [ 000000000]
StgValue_78            (specinterface       ) [ 000000000]
empty_17               (specchannel         ) [ 000000000]
StgValue_80            (specinterface       ) [ 000000000]
empty_18               (specchannel         ) [ 000000000]
StgValue_82            (specinterface       ) [ 000000000]
StgValue_83            (ret                 ) [ 000000000]
</LifeTime>

<model>

<comp_list>
<comp id="0" class="1000" name="stream_in_V_data_V">
<pin_list>
<pin id="1" dir="1" index="0" bw="1" slack="0"/>
</pin_list>
<bind>
<StgValue><ssdm name="stream_in_V_data_V"/></StgValue>
</bind>
</comp>

<comp id="2" class="1000" name="stream_in_V_keep_V">
<pin_list>
<pin id="3" dir="1" index="0" bw="1" slack="0"/>
</pin_list>
<bind>
<StgValue><ssdm name="stream_in_V_keep_V"/></StgValue>
</bind>
</comp>

<comp id="4" class="1000" name="stream_in_V_strb_V">
<pin_list>
<pin id="5" dir="1" index="0" bw="1" slack="0"/>
</pin_list>
<bind>
<StgValue><ssdm name="stream_in_V_strb_V"/></StgValue>
</bind>
</comp>

<comp id="6" class="1000" name="stream_in_V_user_V">
<pin_list>
<pin id="7" dir="1" index="0" bw="1" slack="0"/>
</pin_list>
<bind>
<StgValue><ssdm name="stream_in_V_user_V"/></StgValue>
</bind>
</comp>

<comp id="8" class="1000" name="stream_in_V_last_V">
<pin_list>
<pin id="9" dir="1" index="0" bw="1" slack="0"/>
</pin_list>
<bind>
<StgValue><ssdm name="stream_in_V_last_V"/></StgValue>
</bind>
</comp>

<comp id="10" class="1000" name="stream_in_V_id_V">
<pin_list>
<pin id="11" dir="1" index="0" bw="1" slack="0"/>
</pin_list>
<bind>
<StgValue><ssdm name="stream_in_V_id_V"/></StgValue>
</bind>
</comp>

<comp id="12" class="1000" name="stream_in_V_dest_V">
<pin_list>
<pin id="13" dir="1" index="0" bw="1" slack="0"/>
</pin_list>
<bind>
<StgValue><ssdm name="stream_in_V_dest_V"/></StgValue>
</bind>
</comp>

<comp id="14" class="1000" name="stream0_out_V_data_V">
<pin_list>
<pin id="15" dir="1" index="0" bw="1" slack="0"/>
</pin_list>
<bind>
<StgValue><ssdm name="stream0_out_V_data_V"/></StgValue>
</bind>
</comp>

<comp id="16" class="1000" name="stream0_out_V_keep_V">
<pin_list>
<pin id="17" dir="1" index="0" bw="1" slack="0"/>
</pin_list>
<bind>
<StgValue><ssdm name="stream0_out_V_keep_V"/></StgValue>
</bind>
</comp>

<comp id="18" class="1000" name="stream0_out_V_strb_V">
<pin_list>
<pin id="19" dir="1" index="0" bw="1" slack="0"/>
</pin_list>
<bind>
<StgValue><ssdm name="stream0_out_V_strb_V"/></StgValue>
</bind>
</comp>

<comp id="20" class="1000" name="stream0_out_V_user_V">
<pin_list>
<pin id="21" dir="1" index="0" bw="1" slack="0"/>
</pin_list>
<bind>
<StgValue><ssdm name="stream0_out_V_user_V"/></StgValue>
</bind>
</comp>

<comp id="22" class="1000" name="stream0_out_V_last_V">
<pin_list>
<pin id="23" dir="1" index="0" bw="1" slack="0"/>
</pin_list>
<bind>
<StgValue><ssdm name="stream0_out_V_last_V"/></StgValue>
</bind>
</comp>

<comp id="24" class="1000" name="stream0_out_V_id_V">
<pin_list>
<pin id="25" dir="1" index="0" bw="1" slack="0"/>
</pin_list>
<bind>
<StgValue><ssdm name="stream0_out_V_id_V"/></StgValue>
</bind>
</comp>

<comp id="26" class="1000" name="stream0_out_V_dest_V">
<pin_list>
<pin id="27" dir="1" index="0" bw="1" slack="0"/>
</pin_list>
<bind>
<StgValue><ssdm name="stream0_out_V_dest_V"/></StgValue>
</bind>
</comp>

<comp id="28" class="1000" name="stream1_out_V_data_V">
<pin_list>
<pin id="29" dir="1" index="0" bw="1" slack="0"/>
</pin_list>
<bind>
<StgValue><ssdm name="stream1_out_V_data_V"/></StgValue>
</bind>
</comp>

<comp id="30" class="1000" name="stream1_out_V_keep_V">
<pin_list>
<pin id="31" dir="1" index="0" bw="1" slack="0"/>
</pin_list>
<bind>
<StgValue><ssdm name="stream1_out_V_keep_V"/></StgValue>
</bind>
</comp>

<comp id="32" class="1000" name="stream1_out_V_strb_V">
<pin_list>
<pin id="33" dir="1" index="0" bw="1" slack="0"/>
</pin_list>
<bind>
<StgValue><ssdm name="stream1_out_V_strb_V"/></StgValue>
</bind>
</comp>

<comp id="34" class="1000" name="stream1_out_V_user_V">
<pin_list>
<pin id="35" dir="1" index="0" bw="1" slack="0"/>
</pin_list>
<bind>
<StgValue><ssdm name="stream1_out_V_user_V"/></StgValue>
</bind>
</comp>

<comp id="36" class="1000" name="stream1_out_V_last_V">
<pin_list>
<pin id="37" dir="1" index="0" bw="1" slack="0"/>
</pin_list>
<bind>
<StgValue><ssdm name="stream1_out_V_last_V"/></StgValue>
</bind>
</comp>

<comp id="38" class="1000" name="stream1_out_V_id_V">
<pin_list>
<pin id="39" dir="1" index="0" bw="1" slack="0"/>
</pin_list>
<bind>
<StgValue><ssdm name="stream1_out_V_id_V"/></StgValue>
</bind>
</comp>

<comp id="40" class="1000" name="stream1_out_V_dest_V">
<pin_list>
<pin id="41" dir="1" index="0" bw="1" slack="0"/>
</pin_list>
<bind>
<StgValue><ssdm name="stream1_out_V_dest_V"/></StgValue>
</bind>
</comp>

<comp id="42" class="1001" name="const_42">
<pin_list>
<pin id="43" dir="1" index="0" bw="1" slack="0"/>
</pin_list>
<bind>
<StgValue><ssdm name=""/></StgValue>
</bind>
</comp>

<comp id="44" class="1001" name="const_44">
<pin_list>
<pin id="45" dir="1" index="0" bw="1" slack="0"/>
</pin_list>
<bind>
<StgValue><ssdm name="Block__proc"/></StgValue>
</bind>
</comp>

<comp id="46" class="1001" name="const_46">
<pin_list>
<pin id="47" dir="1" index="0" bw="1" slack="0"/>
</pin_list>
<bind>
<StgValue><ssdm name="AXIvideo2Mat"/></StgValue>
</bind>
</comp>

<comp id="48" class="1001" name="const_48">
<pin_list>
<pin id="49" dir="1" index="0" bw="1" slack="0"/>
</pin_list>
<bind>
<StgValue><ssdm name="Duplicate"/></StgValue>
</bind>
</comp>

<comp id="50" class="1001" name="const_50">
<pin_list>
<pin id="51" dir="1" index="0" bw="1" slack="0"/>
</pin_list>
<bind>
<StgValue><ssdm name="Mat2AXIvideo32"/></StgValue>
</bind>
</comp>

<comp id="52" class="1001" name="const_52">
<pin_list>
<pin id="53" dir="1" index="0" bw="1" slack="0"/>
</pin_list>
<bind>
<StgValue><ssdm name="Mat2AXIvideo"/></StgValue>
</bind>
</comp>

<comp id="54" class="1001" name="const_54">
<pin_list>
<pin id="55" dir="1" index="0" bw="1" slack="2147483647"/>
</pin_list>
<bind>
<StgValue><ssdm name="_ssdm_op_SpecDataflowPipeline"/></StgValue>
</bind>
</comp>

<comp id="56" class="1001" name="const_56">
<pin_list>
<pin id="57" dir="1" index="0" bw="1" slack="2147483647"/>
</pin_list>
<bind>
<StgValue><ssdm name=""/></StgValue>
</bind>
</comp>

<comp id="58" class="1001" name="const_58">
<pin_list>
<pin id="59" dir="1" index="0" bw="1" slack="2147483647"/>
</pin_list>
<bind>
<StgValue><ssdm name="p_str3"/></StgValue>
</bind>
</comp>

<comp id="60" class="1001" name="const_60">
<pin_list>
<pin id="61" dir="1" index="0" bw="1" slack="2147483647"/>
</pin_list>
<bind>
<StgValue><ssdm name="_ssdm_op_SpecBitsMap"/></StgValue>
</bind>
</comp>

<comp id="62" class="1001" name="const_62">
<pin_list>
<pin id="63" dir="1" index="0" bw="1" slack="2147483647"/>
</pin_list>
<bind>
<StgValue><ssdm name="_ssdm_op_SpecTopModule"/></StgValue>
</bind>
</comp>

<comp id="64" class="1001" name="const_64">
<pin_list>
<pin id="65" dir="1" index="0" bw="1" slack="2147483647"/>
</pin_list>
<bind>
<StgValue><ssdm name="stream_duplicate_str"/></StgValue>
</bind>
</comp>

<comp id="66" class="1001" name="const_66">
<pin_list>
<pin id="67" dir="1" index="0" bw="1" slack="2147483647"/>
</pin_list>
<bind>
<StgValue><ssdm name="_ssdm_op_SpecChannel"/></StgValue>
</bind>
</comp>

<comp id="68" class="1001" name="const_68">
<pin_list>
<pin id="69" dir="1" index="0" bw="1" slack="2147483647"/>
</pin_list>
<bind>
<StgValue><ssdm name="input_data_OC_data_s_2"/></StgValue>
</bind>
</comp>

<comp id="70" class="1001" name="const_70">
<pin_list>
<pin id="71" dir="1" index="0" bw="1" slack="2147483647"/>
</pin_list>
<bind>
<StgValue><ssdm name=""/></StgValue>
</bind>
</comp>

<comp id="72" class="1001" name="const_72">
<pin_list>
<pin id="73" dir="1" index="0" bw="1" slack="2147483647"/>
</pin_list>
<bind>
<StgValue><ssdm name="p_str46"/></StgValue>
</bind>
</comp>

<comp id="74" class="1001" name="const_74">
<pin_list>
<pin id="75" dir="1" index="0" bw="1" slack="2147483647"/>
</pin_list>
<bind>
<StgValue><ssdm name=""/></StgValue>
</bind>
</comp>

<comp id="76" class="1001" name="const_76">
<pin_list>
<pin id="77" dir="1" index="0" bw="1" slack="2147483647"/>
</pin_list>
<bind>
<StgValue><ssdm name="_ssdm_op_SpecInterface"/></StgValue>
</bind>
</comp>

<comp id="78" class="1001" name="const_78">
<pin_list>
<pin id="79" dir="1" index="0" bw="1" slack="2147483647"/>
</pin_list>
<bind>
<StgValue><ssdm name="ap_fifo_str"/></StgValue>
</bind>
</comp>

<comp id="80" class="1001" name="const_80">
<pin_list>
<pin id="81" dir="1" index="0" bw="1" slack="2147483647"/>
</pin_list>
<bind>
<StgValue><ssdm name=""/></StgValue>
</bind>
</comp>

<comp id="82" class="1001" name="const_82">
<pin_list>
<pin id="83" dir="1" index="0" bw="1" slack="2147483647"/>
</pin_list>
<bind>
<StgValue><ssdm name="p_str47"/></StgValue>
</bind>
</comp>

<comp id="84" class="1001" name="const_84">
<pin_list>
<pin id="85" dir="1" index="0" bw="1" slack="2147483647"/>
</pin_list>
<bind>
<StgValue><ssdm name="p_str48"/></StgValue>
</bind>
</comp>

<comp id="86" class="1001" name="const_86">
<pin_list>
<pin id="87" dir="1" index="0" bw="1" slack="2147483647"/>
</pin_list>
<bind>
<StgValue><ssdm name="p_str49"/></StgValue>
</bind>
</comp>

<comp id="88" class="1001" name="const_88">
<pin_list>
<pin id="89" dir="1" index="0" bw="1" slack="2147483647"/>
</pin_list>
<bind>
<StgValue><ssdm name="p_str50"/></StgValue>
</bind>
</comp>

<comp id="90" class="1001" name="const_90">
<pin_list>
<pin id="91" dir="1" index="0" bw="1" slack="2147483647"/>
</pin_list>
<bind>
<StgValue><ssdm name=""/></StgValue>
</bind>
</comp>

<comp id="92" class="1001" name="const_92">
<pin_list>
<pin id="93" dir="1" index="0" bw="1" slack="2147483647"/>
</pin_list>
<bind>
<StgValue><ssdm name="p_str51"/></StgValue>
</bind>
</comp>

<comp id="94" class="1001" name="const_94">
<pin_list>
<pin id="95" dir="1" index="0" bw="1" slack="2147483647"/>
</pin_list>
<bind>
<StgValue><ssdm name="p_str52"/></StgValue>
</bind>
</comp>

<comp id="96" class="1001" name="const_96">
<pin_list>
<pin id="97" dir="1" index="0" bw="1" slack="2147483647"/>
</pin_list>
<bind>
<StgValue><ssdm name="input_data_OC_data_s_1"/></StgValue>
</bind>
</comp>

<comp id="98" class="1001" name="const_98">
<pin_list>
<pin id="99" dir="1" index="0" bw="1" slack="2147483647"/>
</pin_list>
<bind>
<StgValue><ssdm name="p_str53"/></StgValue>
</bind>
</comp>

<comp id="100" class="1001" name="const_100">
<pin_list>
<pin id="101" dir="1" index="0" bw="1" slack="2147483647"/>
</pin_list>
<bind>
<StgValue><ssdm name="p_str54"/></StgValue>
</bind>
</comp>

<comp id="102" class="1001" name="const_102">
<pin_list>
<pin id="103" dir="1" index="0" bw="1" slack="2147483647"/>
</pin_list>
<bind>
<StgValue><ssdm name="p_str55"/></StgValue>
</bind>
</comp>

<comp id="104" class="1001" name="const_104">
<pin_list>
<pin id="105" dir="1" index="0" bw="1" slack="2147483647"/>
</pin_list>
<bind>
<StgValue><ssdm name="p_str56"/></StgValue>
</bind>
</comp>

<comp id="106" class="1001" name="const_106">
<pin_list>
<pin id="107" dir="1" index="0" bw="1" slack="2147483647"/>
</pin_list>
<bind>
<StgValue><ssdm name="p_str57"/></StgValue>
</bind>
</comp>

<comp id="108" class="1001" name="const_108">
<pin_list>
<pin id="109" dir="1" index="0" bw="1" slack="2147483647"/>
</pin_list>
<bind>
<StgValue><ssdm name="p_str58"/></StgValue>
</bind>
</comp>

<comp id="110" class="1001" name="const_110">
<pin_list>
<pin id="111" dir="1" index="0" bw="1" slack="2147483647"/>
</pin_list>
<bind>
<StgValue><ssdm name="p_str59"/></StgValue>
</bind>
</comp>

<comp id="112" class="1001" name="const_112">
<pin_list>
<pin id="113" dir="1" index="0" bw="1" slack="2147483647"/>
</pin_list>
<bind>
<StgValue><ssdm name="input_data_OC_data_s"/></StgValue>
</bind>
</comp>

<comp id="114" class="1001" name="const_114">
<pin_list>
<pin id="115" dir="1" index="0" bw="1" slack="2147483647"/>
</pin_list>
<bind>
<StgValue><ssdm name="p_str60"/></StgValue>
</bind>
</comp>

<comp id="116" class="1001" name="const_116">
<pin_list>
<pin id="117" dir="1" index="0" bw="1" slack="2147483647"/>
</pin_list>
<bind>
<StgValue><ssdm name="p_str61"/></StgValue>
</bind>
</comp>

<comp id="118" class="1001" name="const_118">
<pin_list>
<pin id="119" dir="1" index="0" bw="1" slack="2147483647"/>
</pin_list>
<bind>
<StgValue><ssdm name="p_str62"/></StgValue>
</bind>
</comp>

<comp id="120" class="1001" name="const_120">
<pin_list>
<pin id="121" dir="1" index="0" bw="1" slack="2147483647"/>
</pin_list>
<bind>
<StgValue><ssdm name="p_str63"/></StgValue>
</bind>
</comp>

<comp id="122" class="1001" name="const_122">
<pin_list>
<pin id="123" dir="1" index="0" bw="1" slack="2147483647"/>
</pin_list>
<bind>
<StgValue><ssdm name="p_str64"/></StgValue>
</bind>
</comp>

<comp id="124" class="1001" name="const_124">
<pin_list>
<pin id="125" dir="1" index="0" bw="1" slack="2147483647"/>
</pin_list>
<bind>
<StgValue><ssdm name="p_str65"/></StgValue>
</bind>
</comp>

<comp id="126" class="1001" name="const_126">
<pin_list>
<pin id="127" dir="1" index="0" bw="1" slack="2147483647"/>
</pin_list>
<bind>
<StgValue><ssdm name="p_str66"/></StgValue>
</bind>
</comp>

<comp id="128" class="1001" name="const_128">
<pin_list>
<pin id="129" dir="1" index="0" bw="1" slack="2147483647"/>
</pin_list>
<bind>
<StgValue><ssdm name="output_data_0_OC_dat_2"/></StgValue>
</bind>
</comp>

<comp id="130" class="1001" name="const_130">
<pin_list>
<pin id="131" dir="1" index="0" bw="1" slack="2147483647"/>
</pin_list>
<bind>
<StgValue><ssdm name="p_str67"/></StgValue>
</bind>
</comp>

<comp id="132" class="1001" name="const_132">
<pin_list>
<pin id="133" dir="1" index="0" bw="1" slack="2147483647"/>
</pin_list>
<bind>
<StgValue><ssdm name="p_str68"/></StgValue>
</bind>
</comp>

<comp id="134" class="1001" name="const_134">
<pin_list>
<pin id="135" dir="1" index="0" bw="1" slack="2147483647"/>
</pin_list>
<bind>
<StgValue><ssdm name="p_str69"/></StgValue>
</bind>
</comp>

<comp id="136" class="1001" name="const_136">
<pin_list>
<pin id="137" dir="1" index="0" bw="1" slack="2147483647"/>
</pin_list>
<bind>
<StgValue><ssdm name="p_str70"/></StgValue>
</bind>
</comp>

<comp id="138" class="1001" name="const_138">
<pin_list>
<pin id="139" dir="1" index="0" bw="1" slack="2147483647"/>
</pin_list>
<bind>
<StgValue><ssdm name="p_str71"/></StgValue>
</bind>
</comp>

<comp id="140" class="1001" name="const_140">
<pin_list>
<pin id="141" dir="1" index="0" bw="1" slack="2147483647"/>
</pin_list>
<bind>
<StgValue><ssdm name="p_str72"/></StgValue>
</bind>
</comp>

<comp id="142" class="1001" name="const_142">
<pin_list>
<pin id="143" dir="1" index="0" bw="1" slack="2147483647"/>
</pin_list>
<bind>
<StgValue><ssdm name="p_str73"/></StgValue>
</bind>
</comp>

<comp id="144" class="1001" name="const_144">
<pin_list>
<pin id="145" dir="1" index="0" bw="1" slack="2147483647"/>
</pin_list>
<bind>
<StgValue><ssdm name="output_data_0_OC_dat_1"/></StgValue>
</bind>
</comp>

<comp id="146" class="1001" name="const_146">
<pin_list>
<pin id="147" dir="1" index="0" bw="1" slack="2147483647"/>
</pin_list>
<bind>
<StgValue><ssdm name="p_str74"/></StgValue>
</bind>
</comp>

<comp id="148" class="1001" name="const_148">
<pin_list>
<pin id="149" dir="1" index="0" bw="1" slack="2147483647"/>
</pin_list>
<bind>
<StgValue><ssdm name="p_str75"/></StgValue>
</bind>
</comp>

<comp id="150" class="1001" name="const_150">
<pin_list>
<pin id="151" dir="1" index="0" bw="1" slack="2147483647"/>
</pin_list>
<bind>
<StgValue><ssdm name="p_str76"/></StgValue>
</bind>
</comp>

<comp id="152" class="1001" name="const_152">
<pin_list>
<pin id="153" dir="1" index="0" bw="1" slack="2147483647"/>
</pin_list>
<bind>
<StgValue><ssdm name="p_str77"/></StgValue>
</bind>
</comp>

<comp id="154" class="1001" name="const_154">
<pin_list>
<pin id="155" dir="1" index="0" bw="1" slack="2147483647"/>
</pin_list>
<bind>
<StgValue><ssdm name="p_str78"/></StgValue>
</bind>
</comp>

<comp id="156" class="1001" name="const_156">
<pin_list>
<pin id="157" dir="1" index="0" bw="1" slack="2147483647"/>
</pin_list>
<bind>
<StgValue><ssdm name="p_str79"/></StgValue>
</bind>
</comp>

<comp id="158" class="1001" name="const_158">
<pin_list>
<pin id="159" dir="1" index="0" bw="1" slack="2147483647"/>
</pin_list>
<bind>
<StgValue><ssdm name="p_str80"/></StgValue>
</bind>
</comp>

<comp id="160" class="1001" name="const_160">
<pin_list>
<pin id="161" dir="1" index="0" bw="1" slack="2147483647"/>
</pin_list>
<bind>
<StgValue><ssdm name="output_data_0_OC_dat"/></StgValue>
</bind>
</comp>

<comp id="162" class="1001" name="const_162">
<pin_list>
<pin id="163" dir="1" index="0" bw="1" slack="2147483647"/>
</pin_list>
<bind>
<StgValue><ssdm name="p_str81"/></StgValue>
</bind>
</comp>

<comp id="164" class="1001" name="const_164">
<pin_list>
<pin id="165" dir="1" index="0" bw="1" slack="2147483647"/>
</pin_list>
<bind>
<StgValue><ssdm name="p_str82"/></StgValue>
</bind>
</comp>

<comp id="166" class="1001" name="const_166">
<pin_list>
<pin id="167" dir="1" index="0" bw="1" slack="2147483647"/>
</pin_list>
<bind>
<StgValue><ssdm name="p_str83"/></StgValue>
</bind>
</comp>

<comp id="168" class="1001" name="const_168">
<pin_list>
<pin id="169" dir="1" index="0" bw="1" slack="2147483647"/>
</pin_list>
<bind>
<StgValue><ssdm name="p_str84"/></StgValue>
</bind>
</comp>

<comp id="170" class="1001" name="const_170">
<pin_list>
<pin id="171" dir="1" index="0" bw="1" slack="2147483647"/>
</pin_list>
<bind>
<StgValue><ssdm name="p_str85"/></StgValue>
</bind>
</comp>

<comp id="172" class="1001" name="const_172">
<pin_list>
<pin id="173" dir="1" index="0" bw="1" slack="2147483647"/>
</pin_list>
<bind>
<StgValue><ssdm name="p_str86"/></StgValue>
</bind>
</comp>

<comp id="174" class="1001" name="const_174">
<pin_list>
<pin id="175" dir="1" index="0" bw="1" slack="2147483647"/>
</pin_list>
<bind>
<StgValue><ssdm name="p_str87"/></StgValue>
</bind>
</comp>

<comp id="176" class="1001" name="const_176">
<pin_list>
<pin id="177" dir="1" index="0" bw="1" slack="2147483647"/>
</pin_list>
<bind>
<StgValue><ssdm name="output_data_1_OC_dat_2"/></StgValue>
</bind>
</comp>

<comp id="178" class="1001" name="const_178">
<pin_list>
<pin id="179" dir="1" index="0" bw="1" slack="2147483647"/>
</pin_list>
<bind>
<StgValue><ssdm name="p_str88"/></StgValue>
</bind>
</comp>

<comp id="180" class="1001" name="const_180">
<pin_list>
<pin id="181" dir="1" index="0" bw="1" slack="2147483647"/>
</pin_list>
<bind>
<StgValue><ssdm name="p_str89"/></StgValue>
</bind>
</comp>

<comp id="182" class="1001" name="const_182">
<pin_list>
<pin id="183" dir="1" index="0" bw="1" slack="2147483647"/>
</pin_list>
<bind>
<StgValue><ssdm name="p_str90"/></StgValue>
</bind>
</comp>

<comp id="184" class="1001" name="const_184">
<pin_list>
<pin id="185" dir="1" index="0" bw="1" slack="2147483647"/>
</pin_list>
<bind>
<StgValue><ssdm name="p_str91"/></StgValue>
</bind>
</comp>

<comp id="186" class="1001" name="const_186">
<pin_list>
<pin id="187" dir="1" index="0" bw="1" slack="2147483647"/>
</pin_list>
<bind>
<StgValue><ssdm name="p_str92"/></StgValue>
</bind>
</comp>

<comp id="188" class="1001" name="const_188">
<pin_list>
<pin id="189" dir="1" index="0" bw="1" slack="2147483647"/>
</pin_list>
<bind>
<StgValue><ssdm name="p_str93"/></StgValue>
</bind>
</comp>

<comp id="190" class="1001" name="const_190">
<pin_list>
<pin id="191" dir="1" index="0" bw="1" slack="2147483647"/>
</pin_list>
<bind>
<StgValue><ssdm name="p_str94"/></StgValue>
</bind>
</comp>

<comp id="192" class="1001" name="const_192">
<pin_list>
<pin id="193" dir="1" index="0" bw="1" slack="2147483647"/>
</pin_list>
<bind>
<StgValue><ssdm name="output_data_1_OC_dat_1"/></StgValue>
</bind>
</comp>

<comp id="194" class="1001" name="const_194">
<pin_list>
<pin id="195" dir="1" index="0" bw="1" slack="2147483647"/>
</pin_list>
<bind>
<StgValue><ssdm name="p_str95"/></StgValue>
</bind>
</comp>

<comp id="196" class="1001" name="const_196">
<pin_list>
<pin id="197" dir="1" index="0" bw="1" slack="2147483647"/>
</pin_list>
<bind>
<StgValue><ssdm name="p_str96"/></StgValue>
</bind>
</comp>

<comp id="198" class="1001" name="const_198">
<pin_list>
<pin id="199" dir="1" index="0" bw="1" slack="2147483647"/>
</pin_list>
<bind>
<StgValue><ssdm name="p_str97"/></StgValue>
</bind>
</comp>

<comp id="200" class="1001" name="const_200">
<pin_list>
<pin id="201" dir="1" index="0" bw="1" slack="2147483647"/>
</pin_list>
<bind>
<StgValue><ssdm name="p_str98"/></StgValue>
</bind>
</comp>

<comp id="202" class="1001" name="const_202">
<pin_list>
<pin id="203" dir="1" index="0" bw="1" slack="2147483647"/>
</pin_list>
<bind>
<StgValue><ssdm name="p_str99"/></StgValue>
</bind>
</comp>

<comp id="204" class="1001" name="const_204">
<pin_list>
<pin id="205" dir="1" index="0" bw="1" slack="2147483647"/>
</pin_list>
<bind>
<StgValue><ssdm name="p_str100"/></StgValue>
</bind>
</comp>

<comp id="206" class="1001" name="const_206">
<pin_list>
<pin id="207" dir="1" index="0" bw="1" slack="2147483647"/>
</pin_list>
<bind>
<StgValue><ssdm name="p_str101"/></StgValue>
</bind>
</comp>

<comp id="208" class="1001" name="const_208">
<pin_list>
<pin id="209" dir="1" index="0" bw="1" slack="2147483647"/>
</pin_list>
<bind>
<StgValue><ssdm name="output_data_1_OC_dat"/></StgValue>
</bind>
</comp>

<comp id="210" class="1001" name="const_210">
<pin_list>
<pin id="211" dir="1" index="0" bw="1" slack="2147483647"/>
</pin_list>
<bind>
<StgValue><ssdm name="p_str102"/></StgValue>
</bind>
</comp>

<comp id="212" class="1001" name="const_212">
<pin_list>
<pin id="213" dir="1" index="0" bw="1" slack="2147483647"/>
</pin_list>
<bind>
<StgValue><ssdm name="p_str103"/></StgValue>
</bind>
</comp>

<comp id="214" class="1001" name="const_214">
<pin_list>
<pin id="215" dir="1" index="0" bw="1" slack="2147483647"/>
</pin_list>
<bind>
<StgValue><ssdm name="p_str104"/></StgValue>
</bind>
</comp>

<comp id="216" class="1001" name="const_216">
<pin_list>
<pin id="217" dir="1" index="0" bw="1" slack="2147483647"/>
</pin_list>
<bind>
<StgValue><ssdm name="p_str105"/></StgValue>
</bind>
</comp>

<comp id="218" class="1001" name="const_218">
<pin_list>
<pin id="219" dir="1" index="0" bw="1" slack="2147483647"/>
</pin_list>
<bind>
<StgValue><ssdm name="p_str106"/></StgValue>
</bind>
</comp>

<comp id="220" class="1001" name="const_220">
<pin_list>
<pin id="221" dir="1" index="0" bw="1" slack="2147483647"/>
</pin_list>
<bind>
<StgValue><ssdm name="p_str107"/></StgValue>
</bind>
</comp>

<comp id="222" class="1001" name="const_222">
<pin_list>
<pin id="223" dir="1" index="0" bw="1" slack="2147483647"/>
</pin_list>
<bind>
<StgValue><ssdm name="p_str108"/></StgValue>
</bind>
</comp>

<comp id="224" class="1001" name="const_224">
<pin_list>
<pin id="225" dir="1" index="0" bw="1" slack="2147483647"/>
</pin_list>
<bind>
<StgValue><ssdm name="p_str"/></StgValue>
</bind>
</comp>

<comp id="226" class="1001" name="const_226">
<pin_list>
<pin id="227" dir="1" index="0" bw="1" slack="2147483647"/>
</pin_list>
<bind>
<StgValue><ssdm name="p_str2"/></StgValue>
</bind>
</comp>

<comp id="228" class="1001" name="const_228">
<pin_list>
<pin id="229" dir="1" index="0" bw="1" slack="2147483647"/>
</pin_list>
<bind>
<StgValue><ssdm name="input_data_OC_rows_O_1"/></StgValue>
</bind>
</comp>

<comp id="230" class="1001" name="const_230">
<pin_list>
<pin id="231" dir="1" index="0" bw="1" slack="2147483647"/>
</pin_list>
<bind>
<StgValue><ssdm name="p_str122"/></StgValue>
</bind>
</comp>

<comp id="232" class="1001" name="const_232">
<pin_list>
<pin id="233" dir="1" index="0" bw="1" slack="2147483647"/>
</pin_list>
<bind>
<StgValue><ssdm name="p_str123"/></StgValue>
</bind>
</comp>

<comp id="234" class="1001" name="const_234">
<pin_list>
<pin id="235" dir="1" index="0" bw="1" slack="2147483647"/>
</pin_list>
<bind>
<StgValue><ssdm name="p_str124"/></StgValue>
</bind>
</comp>

<comp id="236" class="1001" name="const_236">
<pin_list>
<pin id="237" dir="1" index="0" bw="1" slack="2147483647"/>
</pin_list>
<bind>
<StgValue><ssdm name="p_str125"/></StgValue>
</bind>
</comp>

<comp id="238" class="1001" name="const_238">
<pin_list>
<pin id="239" dir="1" index="0" bw="1" slack="2147483647"/>
</pin_list>
<bind>
<StgValue><ssdm name="p_str126"/></StgValue>
</bind>
</comp>

<comp id="240" class="1001" name="const_240">
<pin_list>
<pin id="241" dir="1" index="0" bw="1" slack="2147483647"/>
</pin_list>
<bind>
<StgValue><ssdm name="p_str127"/></StgValue>
</bind>
</comp>

<comp id="242" class="1001" name="const_242">
<pin_list>
<pin id="243" dir="1" index="0" bw="1" slack="2147483647"/>
</pin_list>
<bind>
<StgValue><ssdm name="p_str128"/></StgValue>
</bind>
</comp>

<comp id="244" class="1001" name="const_244">
<pin_list>
<pin id="245" dir="1" index="0" bw="1" slack="2147483647"/>
</pin_list>
<bind>
<StgValue><ssdm name="input_data_OC_cols_O_1"/></StgValue>
</bind>
</comp>

<comp id="246" class="1001" name="const_246">
<pin_list>
<pin id="247" dir="1" index="0" bw="1" slack="2147483647"/>
</pin_list>
<bind>
<StgValue><ssdm name="p_str129"/></StgValue>
</bind>
</comp>

<comp id="248" class="1001" name="const_248">
<pin_list>
<pin id="249" dir="1" index="0" bw="1" slack="2147483647"/>
</pin_list>
<bind>
<StgValue><ssdm name="p_str130"/></StgValue>
</bind>
</comp>

<comp id="250" class="1001" name="const_250">
<pin_list>
<pin id="251" dir="1" index="0" bw="1" slack="2147483647"/>
</pin_list>
<bind>
<StgValue><ssdm name="p_str131"/></StgValue>
</bind>
</comp>

<comp id="252" class="1001" name="const_252">
<pin_list>
<pin id="253" dir="1" index="0" bw="1" slack="2147483647"/>
</pin_list>
<bind>
<StgValue><ssdm name="p_str132"/></StgValue>
</bind>
</comp>

<comp id="254" class="1001" name="const_254">
<pin_list>
<pin id="255" dir="1" index="0" bw="1" slack="2147483647"/>
</pin_list>
<bind>
<StgValue><ssdm name="p_str133"/></StgValue>
</bind>
</comp>

<comp id="256" class="1001" name="const_256">
<pin_list>
<pin id="257" dir="1" index="0" bw="1" slack="2147483647"/>
</pin_list>
<bind>
<StgValue><ssdm name="p_str134"/></StgValue>
</bind>
</comp>

<comp id="258" class="1001" name="const_258">
<pin_list>
<pin id="259" dir="1" index="0" bw="1" slack="2147483647"/>
</pin_list>
<bind>
<StgValue><ssdm name="p_str135"/></StgValue>
</bind>
</comp>

<comp id="260" class="1001" name="const_260">
<pin_list>
<pin id="261" dir="1" index="0" bw="1" slack="2147483647"/>
</pin_list>
<bind>
<StgValue><ssdm name="input_data_OC_rows_O"/></StgValue>
</bind>
</comp>

<comp id="262" class="1001" name="const_262">
<pin_list>
<pin id="263" dir="1" index="0" bw="1" slack="2147483647"/>
</pin_list>
<bind>
<StgValue><ssdm name="p_str161"/></StgValue>
</bind>
</comp>

<comp id="264" class="1001" name="const_264">
<pin_list>
<pin id="265" dir="1" index="0" bw="1" slack="2147483647"/>
</pin_list>
<bind>
<StgValue><ssdm name="p_str162"/></StgValue>
</bind>
</comp>

<comp id="266" class="1001" name="const_266">
<pin_list>
<pin id="267" dir="1" index="0" bw="1" slack="2147483647"/>
</pin_list>
<bind>
<StgValue><ssdm name="p_str163"/></StgValue>
</bind>
</comp>

<comp id="268" class="1001" name="const_268">
<pin_list>
<pin id="269" dir="1" index="0" bw="1" slack="2147483647"/>
</pin_list>
<bind>
<StgValue><ssdm name="p_str164"/></StgValue>
</bind>
</comp>

<comp id="270" class="1001" name="const_270">
<pin_list>
<pin id="271" dir="1" index="0" bw="1" slack="2147483647"/>
</pin_list>
<bind>
<StgValue><ssdm name="p_str165"/></StgValue>
</bind>
</comp>

<comp id="272" class="1001" name="const_272">
<pin_list>
<pin id="273" dir="1" index="0" bw="1" slack="2147483647"/>
</pin_list>
<bind>
<StgValue><ssdm name="p_str166"/></StgValue>
</bind>
</comp>

<comp id="274" class="1001" name="const_274">
<pin_list>
<pin id="275" dir="1" index="0" bw="1" slack="2147483647"/>
</pin_list>
<bind>
<StgValue><ssdm name="p_str167"/></StgValue>
</bind>
</comp>

<comp id="276" class="1001" name="const_276">
<pin_list>
<pin id="277" dir="1" index="0" bw="1" slack="2147483647"/>
</pin_list>
<bind>
<StgValue><ssdm name="input_data_OC_cols_O"/></StgValue>
</bind>
</comp>

<comp id="278" class="1001" name="const_278">
<pin_list>
<pin id="279" dir="1" index="0" bw="1" slack="2147483647"/>
</pin_list>
<bind>
<StgValue><ssdm name="p_str168"/></StgValue>
</bind>
</comp>

<comp id="280" class="1001" name="const_280">
<pin_list>
<pin id="281" dir="1" index="0" bw="1" slack="2147483647"/>
</pin_list>
<bind>
<StgValue><ssdm name="p_str169"/></StgValue>
</bind>
</comp>

<comp id="282" class="1001" name="const_282">
<pin_list>
<pin id="283" dir="1" index="0" bw="1" slack="2147483647"/>
</pin_list>
<bind>
<StgValue><ssdm name="p_str170"/></StgValue>
</bind>
</comp>

<comp id="284" class="1001" name="const_284">
<pin_list>
<pin id="285" dir="1" index="0" bw="1" slack="2147483647"/>
</pin_list>
<bind>
<StgValue><ssdm name="p_str171"/></StgValue>
</bind>
</comp>

<comp id="286" class="1001" name="const_286">
<pin_list>
<pin id="287" dir="1" index="0" bw="1" slack="2147483647"/>
</pin_list>
<bind>
<StgValue><ssdm name="p_str172"/></StgValue>
</bind>
</comp>

<comp id="288" class="1001" name="const_288">
<pin_list>
<pin id="289" dir="1" index="0" bw="1" slack="2147483647"/>
</pin_list>
<bind>
<StgValue><ssdm name="p_str173"/></StgValue>
</bind>
</comp>

<comp id="290" class="1001" name="const_290">
<pin_list>
<pin id="291" dir="1" index="0" bw="1" slack="2147483647"/>
</pin_list>
<bind>
<StgValue><ssdm name="p_str174"/></StgValue>
</bind>
</comp>

<comp id="292" class="1004" name="input_data_cols_V_c9_fu_292">
<pin_list>
<pin id="293" dir="0" index="0" bw="1" slack="0"/>
<pin id="294" dir="1" index="1" bw="12" slack="1"/>
</pin_list>
<bind>
<opcode="alloca(26) " fcode="alloca"/>
<opset="input_data_cols_V_c9/1 "/>
</bind>
</comp>

<comp id="296" class="1004" name="input_data_rows_V_c8_fu_296">
<pin_list>
<pin id="297" dir="0" index="0" bw="1" slack="0"/>
<pin id="298" dir="1" index="1" bw="12" slack="1"/>
</pin_list>
<bind>
<opcode="alloca(26) " fcode="alloca"/>
<opset="input_data_rows_V_c8/1 "/>
</bind>
</comp>

<comp id="300" class="1004" name="input_data_cols_V_c_fu_300">
<pin_list>
<pin id="301" dir="0" index="0" bw="1" slack="0"/>
<pin id="302" dir="1" index="1" bw="12" slack="0"/>
</pin_list>
<bind>
<opcode="alloca(26) " fcode="alloca"/>
<opset="input_data_cols_V_c/1 "/>
</bind>
</comp>

<comp id="304" class="1004" name="input_data_rows_V_c_fu_304">
<pin_list>
<pin id="305" dir="0" index="0" bw="1" slack="0"/>
<pin id="306" dir="1" index="1" bw="12" slack="0"/>
</pin_list>
<bind>
<opcode="alloca(26) " fcode="alloca"/>
<opset="input_data_rows_V_c/1 "/>
</bind>
</comp>

<comp id="308" class="1004" name="input_data_data_stre_fu_308">
<pin_list>
<pin id="309" dir="0" index="0" bw="1" slack="0"/>
<pin id="310" dir="1" index="1" bw="8" slack="1"/>
</pin_list>
<bind>
<opcode="alloca(26) " fcode="alloca"/>
<opset="input_data_data_stre/1 "/>
</bind>
</comp>

<comp id="312" class="1004" name="input_data_data_stre_1_fu_312">
<pin_list>
<pin id="313" dir="0" index="0" bw="1" slack="0"/>
<pin id="314" dir="1" index="1" bw="8" slack="1"/>
</pin_list>
<bind>
<opcode="alloca(26) " fcode="alloca"/>
<opset="input_data_data_stre_1/1 "/>
</bind>
</comp>

<comp id="316" class="1004" name="input_data_data_stre_2_fu_316">
<pin_list>
<pin id="317" dir="0" index="0" bw="1" slack="0"/>
<pin id="318" dir="1" index="1" bw="8" slack="1"/>
</pin_list>
<bind>
<opcode="alloca(26) " fcode="alloca"/>
<opset="input_data_data_stre_2/1 "/>
</bind>
</comp>

<comp id="320" class="1004" name="output_data_0_data_s_fu_320">
<pin_list>
<pin id="321" dir="0" index="0" bw="1" slack="0"/>
<pin id="322" dir="1" index="1" bw="8" slack="3"/>
</pin_list>
<bind>
<opcode="alloca(26) " fcode="alloca"/>
<opset="output_data_0_data_s/1 "/>
</bind>
</comp>

<comp id="324" class="1004" name="output_data_0_data_s_1_fu_324">
<pin_list>
<pin id="325" dir="0" index="0" bw="1" slack="0"/>
<pin id="326" dir="1" index="1" bw="8" slack="3"/>
</pin_list>
<bind>
<opcode="alloca(26) " fcode="alloca"/>
<opset="output_data_0_data_s_1/1 "/>
</bind>
</comp>

<comp id="328" class="1004" name="output_data_0_data_s_2_fu_328">
<pin_list>
<pin id="329" dir="0" index="0" bw="1" slack="0"/>
<pin id="330" dir="1" index="1" bw="8" slack="3"/>
</pin_list>
<bind>
<opcode="alloca(26) " fcode="alloca"/>
<opset="output_data_0_data_s_2/1 "/>
</bind>
</comp>

<comp id="332" class="1004" name="output_data_1_data_s_fu_332">
<pin_list>
<pin id="333" dir="0" index="0" bw="1" slack="0"/>
<pin id="334" dir="1" index="1" bw="8" slack="3"/>
</pin_list>
<bind>
<opcode="alloca(26) " fcode="alloca"/>
<opset="output_data_1_data_s/1 "/>
</bind>
</comp>

<comp id="336" class="1004" name="output_data_1_data_s_1_fu_336">
<pin_list>
<pin id="337" dir="0" index="0" bw="1" slack="0"/>
<pin id="338" dir="1" index="1" bw="8" slack="3"/>
</pin_list>
<bind>
<opcode="alloca(26) " fcode="alloca"/>
<opset="output_data_1_data_s_1/1 "/>
</bind>
</comp>

<comp id="340" class="1004" name="output_data_1_data_s_2_fu_340">
<pin_list>
<pin id="341" dir="0" index="0" bw="1" slack="0"/>
<pin id="342" dir="1" index="1" bw="8" slack="3"/>
</pin_list>
<bind>
<opcode="alloca(26) " fcode="alloca"/>
<opset="output_data_1_data_s_2/1 "/>
</bind>
</comp>

<comp id="344" class="1004" name="grp_AXIvideo2Mat_fu_344">
<pin_list>
<pin id="345" dir="0" index="0" bw="0" slack="0"/>
<pin id="346" dir="0" index="1" bw="24" slack="0"/>
<pin id="347" dir="0" index="2" bw="3" slack="0"/>
<pin id="348" dir="0" index="3" bw="3" slack="0"/>
<pin id="349" dir="0" index="4" bw="1" slack="0"/>
<pin id="350" dir="0" index="5" bw="1" slack="0"/>
<pin id="351" dir="0" index="6" bw="1" slack="0"/>
<pin id="352" dir="0" index="7" bw="1" slack="0"/>
<pin id="353" dir="0" index="8" bw="12" slack="1"/>
<pin id="354" dir="0" index="9" bw="12" slack="1"/>
<pin id="355" dir="0" index="10" bw="8" slack="1"/>
<pin id="356" dir="0" index="11" bw="8" slack="1"/>
<pin id="357" dir="0" index="12" bw="8" slack="1"/>
<pin id="358" dir="0" index="13" bw="12" slack="1"/>
<pin id="359" dir="0" index="14" bw="12" slack="1"/>
<pin id="360" dir="1" index="15" bw="0" slack="2147483647"/>
</pin_list>
<bind>
<opcode="call(48) " fcode="call"/>
<opset="StgValue_23/2 "/>
</bind>
</comp>

<comp id="369" class="1004" name="grp_Mat2AXIvideo32_fu_369">
<pin_list>
<pin id="370" dir="0" index="0" bw="0" slack="0"/>
<pin id="371" dir="0" index="1" bw="8" slack="5"/>
<pin id="372" dir="0" index="2" bw="8" slack="5"/>
<pin id="373" dir="0" index="3" bw="8" slack="5"/>
<pin id="374" dir="0" index="4" bw="24" slack="0"/>
<pin id="375" dir="0" index="5" bw="3" slack="0"/>
<pin id="376" dir="0" index="6" bw="3" slack="0"/>
<pin id="377" dir="0" index="7" bw="1" slack="0"/>
<pin id="378" dir="0" index="8" bw="1" slack="0"/>
<pin id="379" dir="0" index="9" bw="1" slack="0"/>
<pin id="380" dir="0" index="10" bw="1" slack="0"/>
<pin id="381" dir="1" index="11" bw="0" slack="2147483647"/>
</pin_list>
<bind>
<opcode="call(48) " fcode="call"/>
<opset="StgValue_27/6 "/>
</bind>
</comp>

<comp id="390" class="1004" name="grp_Mat2AXIvideo_fu_390">
<pin_list>
<pin id="391" dir="0" index="0" bw="0" slack="0"/>
<pin id="392" dir="0" index="1" bw="8" slack="5"/>
<pin id="393" dir="0" index="2" bw="8" slack="5"/>
<pin id="394" dir="0" index="3" bw="8" slack="5"/>
<pin id="395" dir="0" index="4" bw="24" slack="0"/>
<pin id="396" dir="0" index="5" bw="3" slack="0"/>
<pin id="397" dir="0" index="6" bw="3" slack="0"/>
<pin id="398" dir="0" index="7" bw="1" slack="0"/>
<pin id="399" dir="0" index="8" bw="1" slack="0"/>
<pin id="400" dir="0" index="9" bw="1" slack="0"/>
<pin id="401" dir="0" index="10" bw="1" slack="0"/>
<pin id="402" dir="1" index="11" bw="0" slack="2147483647"/>
</pin_list>
<bind>
<opcode="call(48) " fcode="call"/>
<opset="StgValue_28/6 "/>
</bind>
</comp>

<comp id="411" class="1004" name="grp_Duplicate_fu_411">
<pin_list>
<pin id="412" dir="0" index="0" bw="0" slack="0"/>
<pin id="413" dir="0" index="1" bw="12" slack="3"/>
<pin id="414" dir="0" index="2" bw="12" slack="3"/>
<pin id="415" dir="0" index="3" bw="8" slack="3"/>
<pin id="416" dir="0" index="4" bw="8" slack="3"/>
<pin id="417" dir="0" index="5" bw="8" slack="3"/>
<pin id="418" dir="0" index="6" bw="8" slack="3"/>
<pin id="419" dir="0" index="7" bw="8" slack="3"/>
<pin id="420" dir="0" index="8" bw="8" slack="3"/>
<pin id="421" dir="0" index="9" bw="8" slack="3"/>
<pin id="422" dir="0" index="10" bw="8" slack="3"/>
<pin id="423" dir="0" index="11" bw="8" slack="3"/>
<pin id="424" dir="1" index="12" bw="0" slack="2147483647"/>
</pin_list>
<bind>
<opcode="call(48) " fcode="call"/>
<opset="StgValue_25/4 "/>
</bind>
</comp>

<comp id="426" class="1004" name="StgValue_22_Block_proc_fu_426">
<pin_list>
<pin id="427" dir="0" index="0" bw="0" slack="0"/>
<pin id="428" dir="0" index="1" bw="12" slack="0"/>
<pin id="429" dir="0" index="2" bw="12" slack="0"/>
<pin id="430" dir="1" index="3" bw="0" slack="2147483647"/>
</pin_list>
<bind>
<opcode="call(48) " fcode="call"/>
<opset="StgValue_22/1 "/>
</bind>
</comp>

<comp id="432" class="1005" name="input_data_cols_V_c9_reg_432">
<pin_list>
<pin id="433" dir="0" index="0" bw="12" slack="1"/>
<pin id="434" dir="1" index="1" bw="12" slack="1"/>
</pin_list>
<bind>
<opset="input_data_cols_V_c9 "/>
</bind>
</comp>

<comp id="438" class="1005" name="input_data_rows_V_c8_reg_438">
<pin_list>
<pin id="439" dir="0" index="0" bw="12" slack="1"/>
<pin id="440" dir="1" index="1" bw="12" slack="1"/>
</pin_list>
<bind>
<opset="input_data_rows_V_c8 "/>
</bind>
</comp>

<comp id="444" class="1005" name="input_data_cols_V_c_reg_444">
<pin_list>
<pin id="445" dir="0" index="0" bw="12" slack="0"/>
<pin id="446" dir="1" index="1" bw="12" slack="0"/>
</pin_list>
<bind>
<opset="input_data_cols_V_c "/>
</bind>
</comp>

<comp id="450" class="1005" name="input_data_rows_V_c_reg_450">
<pin_list>
<pin id="451" dir="0" index="0" bw="12" slack="0"/>
<pin id="452" dir="1" index="1" bw="12" slack="0"/>
</pin_list>
<bind>
<opset="input_data_rows_V_c "/>
</bind>
</comp>

<comp id="456" class="1005" name="input_data_data_stre_reg_456">
<pin_list>
<pin id="457" dir="0" index="0" bw="8" slack="1"/>
<pin id="458" dir="1" index="1" bw="8" slack="1"/>
</pin_list>
<bind>
<opset="input_data_data_stre "/>
</bind>
</comp>

<comp id="462" class="1005" name="input_data_data_stre_1_reg_462">
<pin_list>
<pin id="463" dir="0" index="0" bw="8" slack="1"/>
<pin id="464" dir="1" index="1" bw="8" slack="1"/>
</pin_list>
<bind>
<opset="input_data_data_stre_1 "/>
</bind>
</comp>

<comp id="468" class="1005" name="input_data_data_stre_2_reg_468">
<pin_list>
<pin id="469" dir="0" index="0" bw="8" slack="1"/>
<pin id="470" dir="1" index="1" bw="8" slack="1"/>
</pin_list>
<bind>
<opset="input_data_data_stre_2 "/>
</bind>
</comp>

<comp id="474" class="1005" name="output_data_0_data_s_reg_474">
<pin_list>
<pin id="475" dir="0" index="0" bw="8" slack="3"/>
<pin id="476" dir="1" index="1" bw="8" slack="3"/>
</pin_list>
<bind>
<opset="output_data_0_data_s "/>
</bind>
</comp>

<comp id="480" class="1005" name="output_data_0_data_s_1_reg_480">
<pin_list>
<pin id="481" dir="0" index="0" bw="8" slack="3"/>
<pin id="482" dir="1" index="1" bw="8" slack="3"/>
</pin_list>
<bind>
<opset="output_data_0_data_s_1 "/>
</bind>
</comp>

<comp id="486" class="1005" name="output_data_0_data_s_2_reg_486">
<pin_list>
<pin id="487" dir="0" index="0" bw="8" slack="3"/>
<pin id="488" dir="1" index="1" bw="8" slack="3"/>
</pin_list>
<bind>
<opset="output_data_0_data_s_2 "/>
</bind>
</comp>

<comp id="492" class="1005" name="output_data_1_data_s_reg_492">
<pin_list>
<pin id="493" dir="0" index="0" bw="8" slack="3"/>
<pin id="494" dir="1" index="1" bw="8" slack="3"/>
</pin_list>
<bind>
<opset="output_data_1_data_s "/>
</bind>
</comp>

<comp id="498" class="1005" name="output_data_1_data_s_1_reg_498">
<pin_list>
<pin id="499" dir="0" index="0" bw="8" slack="3"/>
<pin id="500" dir="1" index="1" bw="8" slack="3"/>
</pin_list>
<bind>
<opset="output_data_1_data_s_1 "/>
</bind>
</comp>

<comp id="504" class="1005" name="output_data_1_data_s_2_reg_504">
<pin_list>
<pin id="505" dir="0" index="0" bw="8" slack="3"/>
<pin id="506" dir="1" index="1" bw="8" slack="3"/>
</pin_list>
<bind>
<opset="output_data_1_data_s_2 "/>
</bind>
</comp>

</comp_list>

<net_list>
<net id="295"><net_src comp="42" pin="0"/><net_sink comp="292" pin=0"/></net>

<net id="299"><net_src comp="42" pin="0"/><net_sink comp="296" pin=0"/></net>

<net id="303"><net_src comp="42" pin="0"/><net_sink comp="300" pin=0"/></net>

<net id="307"><net_src comp="42" pin="0"/><net_sink comp="304" pin=0"/></net>

<net id="311"><net_src comp="42" pin="0"/><net_sink comp="308" pin=0"/></net>

<net id="315"><net_src comp="42" pin="0"/><net_sink comp="312" pin=0"/></net>

<net id="319"><net_src comp="42" pin="0"/><net_sink comp="316" pin=0"/></net>

<net id="323"><net_src comp="42" pin="0"/><net_sink comp="320" pin=0"/></net>

<net id="327"><net_src comp="42" pin="0"/><net_sink comp="324" pin=0"/></net>

<net id="331"><net_src comp="42" pin="0"/><net_sink comp="328" pin=0"/></net>

<net id="335"><net_src comp="42" pin="0"/><net_sink comp="332" pin=0"/></net>

<net id="339"><net_src comp="42" pin="0"/><net_sink comp="336" pin=0"/></net>

<net id="343"><net_src comp="42" pin="0"/><net_sink comp="340" pin=0"/></net>

<net id="361"><net_src comp="46" pin="0"/><net_sink comp="344" pin=0"/></net>

<net id="362"><net_src comp="0" pin="0"/><net_sink comp="344" pin=1"/></net>

<net id="363"><net_src comp="2" pin="0"/><net_sink comp="344" pin=2"/></net>

<net id="364"><net_src comp="4" pin="0"/><net_sink comp="344" pin=3"/></net>

<net id="365"><net_src comp="6" pin="0"/><net_sink comp="344" pin=4"/></net>

<net id="366"><net_src comp="8" pin="0"/><net_sink comp="344" pin=5"/></net>

<net id="367"><net_src comp="10" pin="0"/><net_sink comp="344" pin=6"/></net>

<net id="368"><net_src comp="12" pin="0"/><net_sink comp="344" pin=7"/></net>

<net id="382"><net_src comp="50" pin="0"/><net_sink comp="369" pin=0"/></net>

<net id="383"><net_src comp="14" pin="0"/><net_sink comp="369" pin=4"/></net>

<net id="384"><net_src comp="16" pin="0"/><net_sink comp="369" pin=5"/></net>

<net id="385"><net_src comp="18" pin="0"/><net_sink comp="369" pin=6"/></net>

<net id="386"><net_src comp="20" pin="0"/><net_sink comp="369" pin=7"/></net>

<net id="387"><net_src comp="22" pin="0"/><net_sink comp="369" pin=8"/></net>

<net id="388"><net_src comp="24" pin="0"/><net_sink comp="369" pin=9"/></net>

<net id="389"><net_src comp="26" pin="0"/><net_sink comp="369" pin=10"/></net>

<net id="403"><net_src comp="52" pin="0"/><net_sink comp="390" pin=0"/></net>

<net id="404"><net_src comp="28" pin="0"/><net_sink comp="390" pin=4"/></net>

<net id="405"><net_src comp="30" pin="0"/><net_sink comp="390" pin=5"/></net>

<net id="406"><net_src comp="32" pin="0"/><net_sink comp="390" pin=6"/></net>

<net id="407"><net_src comp="34" pin="0"/><net_sink comp="390" pin=7"/></net>

<net id="408"><net_src comp="36" pin="0"/><net_sink comp="390" pin=8"/></net>

<net id="409"><net_src comp="38" pin="0"/><net_sink comp="390" pin=9"/></net>

<net id="410"><net_src comp="40" pin="0"/><net_sink comp="390" pin=10"/></net>

<net id="425"><net_src comp="48" pin="0"/><net_sink comp="411" pin=0"/></net>

<net id="431"><net_src comp="44" pin="0"/><net_sink comp="426" pin=0"/></net>

<net id="435"><net_src comp="292" pin="1"/><net_sink comp="432" pin=0"/></net>

<net id="436"><net_src comp="432" pin="1"/><net_sink comp="344" pin=14"/></net>

<net id="437"><net_src comp="432" pin="1"/><net_sink comp="411" pin=2"/></net>

<net id="441"><net_src comp="296" pin="1"/><net_sink comp="438" pin=0"/></net>

<net id="442"><net_src comp="438" pin="1"/><net_sink comp="344" pin=13"/></net>

<net id="443"><net_src comp="438" pin="1"/><net_sink comp="411" pin=1"/></net>

<net id="447"><net_src comp="300" pin="1"/><net_sink comp="444" pin=0"/></net>

<net id="448"><net_src comp="444" pin="1"/><net_sink comp="426" pin=2"/></net>

<net id="449"><net_src comp="444" pin="1"/><net_sink comp="344" pin=9"/></net>

<net id="453"><net_src comp="304" pin="1"/><net_sink comp="450" pin=0"/></net>

<net id="454"><net_src comp="450" pin="1"/><net_sink comp="426" pin=1"/></net>

<net id="455"><net_src comp="450" pin="1"/><net_sink comp="344" pin=8"/></net>

<net id="459"><net_src comp="308" pin="1"/><net_sink comp="456" pin=0"/></net>

<net id="460"><net_src comp="456" pin="1"/><net_sink comp="344" pin=10"/></net>

<net id="461"><net_src comp="456" pin="1"/><net_sink comp="411" pin=3"/></net>

<net id="465"><net_src comp="312" pin="1"/><net_sink comp="462" pin=0"/></net>

<net id="466"><net_src comp="462" pin="1"/><net_sink comp="344" pin=11"/></net>

<net id="467"><net_src comp="462" pin="1"/><net_sink comp="411" pin=4"/></net>

<net id="471"><net_src comp="316" pin="1"/><net_sink comp="468" pin=0"/></net>

<net id="472"><net_src comp="468" pin="1"/><net_sink comp="344" pin=12"/></net>

<net id="473"><net_src comp="468" pin="1"/><net_sink comp="411" pin=5"/></net>

<net id="477"><net_src comp="320" pin="1"/><net_sink comp="474" pin=0"/></net>

<net id="478"><net_src comp="474" pin="1"/><net_sink comp="411" pin=6"/></net>

<net id="479"><net_src comp="474" pin="1"/><net_sink comp="369" pin=1"/></net>

<net id="483"><net_src comp="324" pin="1"/><net_sink comp="480" pin=0"/></net>

<net id="484"><net_src comp="480" pin="1"/><net_sink comp="411" pin=7"/></net>

<net id="485"><net_src comp="480" pin="1"/><net_sink comp="369" pin=2"/></net>

<net id="489"><net_src comp="328" pin="1"/><net_sink comp="486" pin=0"/></net>

<net id="490"><net_src comp="486" pin="1"/><net_sink comp="411" pin=8"/></net>

<net id="491"><net_src comp="486" pin="1"/><net_sink comp="369" pin=3"/></net>

<net id="495"><net_src comp="332" pin="1"/><net_sink comp="492" pin=0"/></net>

<net id="496"><net_src comp="492" pin="1"/><net_sink comp="411" pin=9"/></net>

<net id="497"><net_src comp="492" pin="1"/><net_sink comp="390" pin=1"/></net>

<net id="501"><net_src comp="336" pin="1"/><net_sink comp="498" pin=0"/></net>

<net id="502"><net_src comp="498" pin="1"/><net_sink comp="411" pin=10"/></net>

<net id="503"><net_src comp="498" pin="1"/><net_sink comp="390" pin=2"/></net>

<net id="507"><net_src comp="340" pin="1"/><net_sink comp="504" pin=0"/></net>

<net id="508"><net_src comp="504" pin="1"/><net_sink comp="411" pin=11"/></net>

<net id="509"><net_src comp="504" pin="1"/><net_sink comp="390" pin=3"/></net>

</net_list>

</model> 
---------------- Datapath Model END ------------------

* FSMD analyzer results:
  - Output states:
	Port: stream0_out_V_data_V | {6 7 }
	Port: stream0_out_V_keep_V | {6 7 }
	Port: stream0_out_V_strb_V | {6 7 }
	Port: stream0_out_V_user_V | {6 7 }
	Port: stream0_out_V_last_V | {6 7 }
	Port: stream0_out_V_id_V | {6 7 }
	Port: stream0_out_V_dest_V | {6 7 }
	Port: stream1_out_V_data_V | {6 7 }
	Port: stream1_out_V_keep_V | {6 7 }
	Port: stream1_out_V_strb_V | {6 7 }
	Port: stream1_out_V_user_V | {6 7 }
	Port: stream1_out_V_last_V | {6 7 }
	Port: stream1_out_V_id_V | {6 7 }
	Port: stream1_out_V_dest_V | {6 7 }
 - Input state : 
	Port: stream_duplicate : stream_in_V_data_V | {2 3 }
	Port: stream_duplicate : stream_in_V_keep_V | {2 3 }
	Port: stream_duplicate : stream_in_V_strb_V | {2 3 }
	Port: stream_duplicate : stream_in_V_user_V | {2 3 }
	Port: stream_duplicate : stream_in_V_last_V | {2 3 }
	Port: stream_duplicate : stream_in_V_id_V | {2 3 }
	Port: stream_duplicate : stream_in_V_dest_V | {2 3 }
  - Chain level:
	State 1
		StgValue_22 : 1
	State 2
	State 3
	State 4
	State 5
	State 6
	State 7
	State 8


============================================================
+ Verbose Summary: Datapath Resource usage 
============================================================

* Functional unit list:
|----------|-------------------------------|---------|---------|---------|
| Operation|        Functional Unit        |  Delay  |    FF   |   LUT   |
|----------|-------------------------------|---------|---------|---------|
|          |    grp_AXIvideo2Mat_fu_344    |  1.769  |   224   |    63   |
|          |   grp_Mat2AXIvideo32_fu_369   |  3.538  |    73   |    83   |
|   call   |    grp_Mat2AXIvideo_fu_390    |  3.538  |    73   |    83   |
|          |      grp_Duplicate_fu_411     |    0    |    70   |    52   |
|          | StgValue_22_Block_proc_fu_426 |    0    |    0    |    0    |
|----------|-------------------------------|---------|---------|---------|
|   Total  |                               |  8.845  |   440   |   281   |
|----------|-------------------------------|---------|---------|---------|

Memories:
N/A

* Register list:
+------------------------------+--------+
|                              |   FF   |
+------------------------------+--------+
| input_data_cols_V_c9_reg_432 |   12   |
|  input_data_cols_V_c_reg_444 |   12   |
|input_data_data_stre_1_reg_462|    8   |
|input_data_data_stre_2_reg_468|    8   |
| input_data_data_stre_reg_456 |    8   |
| input_data_rows_V_c8_reg_438 |   12   |
|  input_data_rows_V_c_reg_450 |   12   |
|output_data_0_data_s_1_reg_480|    8   |
|output_data_0_data_s_2_reg_486|    8   |
| output_data_0_data_s_reg_474 |    8   |
|output_data_1_data_s_1_reg_498|    8   |
|output_data_1_data_s_2_reg_504|    8   |
| output_data_1_data_s_reg_492 |    8   |
+------------------------------+--------+
|             Total            |   120  |
+------------------------------+--------+

* Multiplexer (MUX) list: 
|--------|------|------|------|--------|
|  Comp  |  Pin | Size |  BW  | S x BW |
|--------|------|------|------|--------|
|  Total |      |      |      |    0   |
|--------|------|------|------|--------|



* Summary:
+-----------+--------+--------+--------+
|           |  Delay |   FF   |   LUT  |
+-----------+--------+--------+--------+
|  Function |    8   |   440  |   281  |
|   Memory  |    -   |    -   |    -   |
|Multiplexer|    -   |    -   |    -   |
|  Register |    -   |   120  |    -   |
+-----------+--------+--------+--------+
|   Total   |    8   |   560  |   281  |
+-----------+--------+--------+--------+
