

================================================================
== Vivado HLS Report for 'Threshold'
================================================================
* Date:           Wed Jan  1 11:10:36 2020

* Version:        2018.2 (Build 2258646 on Thu Jun 14 20:25:20 MDT 2018)
* Project:        gray_rescale
* Solution:       solution1
* Product family: zynq
* Target device:  xc7z020clg400-1


================================================================
== Performance Estimates
================================================================
+ Timing (ns): 
    * Summary: 
    +--------+-------+----------+------------+
    |  Clock | Target| Estimated| Uncertainty|
    +--------+-------+----------+------------+
    |ap_clk  |  10.00|     5.185|        1.25|
    +--------+-------+----------+------------+

+ Latency (clock cycles): 
    * Summary: 
    +-----+-----+-----+-----+---------+
    |  Latency  |  Interval | Pipeline|
    | min | max | min | max |   Type  |
    +-----+-----+-----+-----+---------+
    |  897|  897|  897|  897|   none  |
    +-----+-----+-----+-----+---------+

    + Detail: 
        * Instance: 
        N/A

        * Loop: 
        +---------------+-----+-----+----------+-----------+-----------+------+----------+
        |               |  Latency  | Iteration|  Initiation Interval  | Trip |          |
        |   Loop Name   | min | max |  Latency |  achieved |   target  | Count| Pipelined|
        +---------------+-----+-----+----------+-----------+-----------+------+----------+
        |- loop_height  |  896|  896|        32|          -|          -|    28|    no    |
        | + loop_width  |   29|   29|         3|          1|          1|    28|    yes   |
        +---------------+-----+-----+----------+-----------+-----------+------+----------+



================================================================
== Utilization Estimates
================================================================
* Summary: 
+-----------------+---------+-------+--------+-------+
|       Name      | BRAM_18K| DSP48E|   FF   |  LUT  |
+-----------------+---------+-------+--------+-------+
|DSP              |        -|      -|       -|      -|
|Expression       |        -|      -|       0|     77|
|FIFO             |        -|      -|       -|      -|
|Instance         |        -|      -|       -|      -|
|Memory           |        -|      -|       -|      -|
|Multiplexer      |        -|      -|       -|    108|
|Register         |        -|      -|      35|      -|
+-----------------+---------+-------+--------+-------+
|Total            |        0|      0|      35|    185|
+-----------------+---------+-------+--------+-------+
|Available        |      280|    220|  106400|  53200|
+-----------------+---------+-------+--------+-------+
|Utilization (%)  |        0|      0|   ~0   |   ~0  |
+-----------------+---------+-------+--------+-------+

+ Detail: 
    * Instance: 
    N/A

    * DSP48: 
    N/A

    * Memory: 
    N/A

    * FIFO: 
    N/A

    * Expression: 
    +----------------------------------+----------+-------+---+----+------------+------------+
    |           Variable Name          | Operation| DSP48E| FF| LUT| Bitwidth P0| Bitwidth P1|
    +----------------------------------+----------+-------+---+----+------------+------------+
    |i_V_fu_141_p2                     |     +    |      0|  0|  15|           5|           1|
    |j_V_fu_153_p2                     |     +    |      0|  0|  15|           5|           1|
    |ap_block_state4_pp0_stage0_iter1  |    and   |      0|  0|   2|           1|           1|
    |ap_block_state5_pp0_stage0_iter2  |    and   |      0|  0|   2|           1|           1|
    |exitcond1_i_fu_135_p2             |   icmp   |      0|  0|  11|           5|           4|
    |exitcond_i_fu_147_p2              |   icmp   |      0|  0|  11|           5|           4|
    |tmp_i_83_fu_159_p2                |   icmp   |      0|  0|  11|           8|           8|
    |ap_block_pp0_stage0_01001         |    or    |      0|  0|   2|           1|           1|
    |ap_block_state1                   |    or    |      0|  0|   2|           1|           1|
    |dst_data_stream_V_din             |  select  |      0|  0|   2|           1|           2|
    |ap_enable_pp0                     |    xor   |      0|  0|   2|           1|           2|
    |ap_enable_reg_pp0_iter1           |    xor   |      0|  0|   2|           2|           1|
    +----------------------------------+----------+-------+---+----+------------+------------+
    |Total                             |          |      0|  0|  77|          36|          27|
    +----------------------------------+----------+-------+---+----+------------+------------+

    * Multiplexer: 
    +-------------------------+----+-----------+-----+-----------+
    |           Name          | LUT| Input Size| Bits| Total Bits|
    +-------------------------+----+-----------+-----+-----------+
    |ap_NS_fsm                |  27|          5|    1|          5|
    |ap_done                  |   9|          2|    1|          2|
    |ap_enable_reg_pp0_iter1  |   9|          2|    1|          2|
    |ap_enable_reg_pp0_iter2  |   9|          2|    1|          2|
    |dst_data_stream_V_blk_n  |   9|          2|    1|          2|
    |real_start               |   9|          2|    1|          2|
    |src_data_stream_V_blk_n  |   9|          2|    1|          2|
    |t_V_1_reg_124            |   9|          2|    5|         10|
    |t_V_reg_113              |   9|          2|    5|         10|
    |thresh_blk_n             |   9|          2|    1|          2|
    +-------------------------+----+-----------+-----+-----------+
    |Total                    | 108|         23|   18|         39|
    +-------------------------+----+-----------+-----+-----------+

    * Register: 
    +----------------------------------+---+----+-----+-----------+
    |               Name               | FF| LUT| Bits| Const Bits|
    +----------------------------------+---+----+-----+-----------+
    |ap_CS_fsm                         |  4|   0|    4|          0|
    |ap_done_reg                       |  1|   0|    1|          0|
    |ap_enable_reg_pp0_iter0           |  1|   0|    1|          0|
    |ap_enable_reg_pp0_iter1           |  1|   0|    1|          0|
    |ap_enable_reg_pp0_iter2           |  1|   0|    1|          0|
    |exitcond_i_reg_186                |  1|   0|    1|          0|
    |exitcond_i_reg_186_pp0_iter1_reg  |  1|   0|    1|          0|
    |i_V_reg_181                       |  5|   0|    5|          0|
    |p_thresh_reg_172                  |  8|   0|    8|          0|
    |start_once_reg                    |  1|   0|    1|          0|
    |t_V_1_reg_124                     |  5|   0|    5|          0|
    |t_V_reg_113                       |  5|   0|    5|          0|
    |tmp_i_83_reg_195                  |  1|   0|    1|          0|
    +----------------------------------+---+----+-----+-----------+
    |Total                             | 35|   0|   35|          0|
    +----------------------------------+---+----+-----+-----------+



================================================================
== Interface
================================================================
* Summary: 
+---------------------------+-----+-----+------------+-------------------+--------------+
|         RTL Ports         | Dir | Bits|  Protocol  |   Source Object   |    C Type    |
+---------------------------+-----+-----+------------+-------------------+--------------+
|ap_clk                     |  in |    1| ap_ctrl_hs |     Threshold     | return value |
|ap_rst                     |  in |    1| ap_ctrl_hs |     Threshold     | return value |
|ap_start                   |  in |    1| ap_ctrl_hs |     Threshold     | return value |
|start_full_n               |  in |    1| ap_ctrl_hs |     Threshold     | return value |
|ap_done                    | out |    1| ap_ctrl_hs |     Threshold     | return value |
|ap_continue                |  in |    1| ap_ctrl_hs |     Threshold     | return value |
|ap_idle                    | out |    1| ap_ctrl_hs |     Threshold     | return value |
|ap_ready                   | out |    1| ap_ctrl_hs |     Threshold     | return value |
|start_out                  | out |    1| ap_ctrl_hs |     Threshold     | return value |
|start_write                | out |    1| ap_ctrl_hs |     Threshold     | return value |
|src_data_stream_V_dout     |  in |    8|   ap_fifo  | src_data_stream_V |    pointer   |
|src_data_stream_V_empty_n  |  in |    1|   ap_fifo  | src_data_stream_V |    pointer   |
|src_data_stream_V_read     | out |    1|   ap_fifo  | src_data_stream_V |    pointer   |
|dst_data_stream_V_din      | out |    8|   ap_fifo  | dst_data_stream_V |    pointer   |
|dst_data_stream_V_full_n   |  in |    1|   ap_fifo  | dst_data_stream_V |    pointer   |
|dst_data_stream_V_write    | out |    1|   ap_fifo  | dst_data_stream_V |    pointer   |
|thresh_dout                |  in |    8|   ap_fifo  |       thresh      |    pointer   |
|thresh_empty_n             |  in |    1|   ap_fifo  |       thresh      |    pointer   |
|thresh_read                | out |    1|   ap_fifo  |       thresh      |    pointer   |
+---------------------------+-----+-----+------------+-------------------+--------------+

============================================================
+ Verbose Summary: Synthesis Manager
============================================================
InlineROM: 1
ExposeGlobal: 0
============================================================
+ Verbose Summary: CDFG Model
============================================================
IsTopModel: 0
ResetActiveHigh: 1
IsCombinational: 2
IsDatapathOnly: 0
HasWiredReturn: 1
HasMFsm: 0
HasVarLatency: 1
IsPipeline: 0
IsRtlPipelined: 0
IsInstanceOverlapped: 0
IsDontTouch: 0
HasImplIP: 0
IsGatedGlobalClock: 0

+ Individual pipeline summary: 
  * Pipeline-0: initiation interval (II) = 1, depth = 3


============================================================
+ Verbose Summary: Schedule
============================================================
* Number of FSM states : 6
* Pipeline : 1
  Pipeline-0 : II = 1, D = 3, States = { 3 4 5 }
* Dataflow Pipeline: 0

* FSM state transitions: 
1 --> 
	2  / true
2 --> 
	3  / (!exitcond1_i)
3 --> 
	6  / (exitcond_i)
	4  / (!exitcond_i)
4 --> 
	5  / true
5 --> 
	3  / true
6 --> 
	2  / true

* FSM state operations: 

State 1 <SV = 0> <Delay = 3.63>
ST_1 : Operation 7 [1/1] (0.00ns)   --->   "call void (...)* @_ssdm_op_SpecInterface(i8* %dst_data_stream_V, [8 x i8]* @ap_fifo_str, i32 0, i32 0, [1 x i8]* @p_str151, i32 0, i32 0, [1 x i8]* @p_str152, [1 x i8]* @p_str153, [1 x i8]* @p_str154, i32 2, i32 2, i32 16, i32 16, [1 x i8]* @p_str155, [1 x i8]* @p_str156)"   --->   Operation 7 'specinterface' <Predicate = true> <Delay = 0.00>
ST_1 : Operation 8 [1/1] (0.00ns)   --->   "call void (...)* @_ssdm_op_SpecInterface(i8* %src_data_stream_V, [8 x i8]* @ap_fifo_str, i32 0, i32 0, [1 x i8]* @p_str144, i32 0, i32 0, [1 x i8]* @p_str145, [1 x i8]* @p_str146, [1 x i8]* @p_str147, i32 2, i32 2, i32 16, i32 16, [1 x i8]* @p_str148, [1 x i8]* @p_str149)"   --->   Operation 8 'specinterface' <Predicate = true> <Delay = 0.00>
ST_1 : Operation 9 [1/1] (0.00ns)   --->   "call void (...)* @_ssdm_op_SpecInterface(i8* %thresh, [8 x i8]* @ap_fifo_str, i32 0, i32 0, [1 x i8]* @p_str328, i32 0, i32 0, [1 x i8]* @p_str329, [1 x i8]* @p_str330, [1 x i8]* @p_str331, i32 2, i32 2, i32 16, i32 16, [1 x i8]* @p_str332, [1 x i8]* @p_str333)"   --->   Operation 9 'specinterface' <Predicate = true> <Delay = 0.00>
ST_1 : Operation 10 [1/1] (3.63ns)   --->   "%p_thresh = call i8 @_ssdm_op_Read.ap_fifo.i8P(i8* %thresh)"   --->   Operation 10 'read' 'p_thresh' <Predicate = true> <Delay = 3.63> <Core = "FIFO">   --->   Core 32 'FIFO' <Latency = 0> <II = 1> <Delay = 3.63> <Storage> <Opcode : 'read' 'write' 'nbread' 'nbwrite'> <Ports = 0> <Width = 8> <Depth = 2> <FIFO>
ST_1 : Operation 11 [1/1] (1.76ns)   --->   "br label %0" [/home/faku/opt/Xilinx/Vivado/2018.2/common/technology/autopilot/hls/hls_video_arithm.h:1435]   --->   Operation 11 'br' <Predicate = true> <Delay = 1.76>

State 2 <SV = 1> <Delay = 2.34>
ST_2 : Operation 12 [1/1] (0.00ns)   --->   "%t_V = phi i5 [ 0, %entry ], [ %i_V, %3 ]"   --->   Operation 12 'phi' 't_V' <Predicate = true> <Delay = 0.00>
ST_2 : Operation 13 [1/1] (1.36ns)   --->   "%exitcond1_i = icmp eq i5 %t_V, -4" [/home/faku/opt/Xilinx/Vivado/2018.2/common/technology/autopilot/hls/hls_video_arithm.h:1435]   --->   Operation 13 'icmp' 'exitcond1_i' <Predicate = true> <Delay = 1.36> <Core = "Cmp">   --->   Core 25 'Cmp' <Latency = 0> <II = 1> <Delay = 1.55> <FuncUnit> <Opcode : 'icmp'> <InPorts = 2> <OutPorts = 1>
ST_2 : Operation 14 [1/1] (0.00ns)   --->   "call void (...)* @_ssdm_op_SpecLoopTripCount(i64 28, i64 28, i64 28)"   --->   Operation 14 'speclooptripcount' <Predicate = true> <Delay = 0.00>
ST_2 : Operation 15 [1/1] (1.78ns)   --->   "%i_V = add i5 %t_V, 1" [/home/faku/opt/Xilinx/Vivado/2018.2/common/technology/autopilot/hls/hls_video_arithm.h:1435]   --->   Operation 15 'add' 'i_V' <Predicate = true> <Delay = 1.78> <Core = "AddSub">   --->   Core 14 'AddSub' <Latency = 0> <II = 1> <Delay = 1.78> <FuncUnit> <Opcode : 'add' 'sub'> <InPorts = 2> <OutPorts = 1>
ST_2 : Operation 16 [1/1] (0.00ns)   --->   "br i1 %exitcond1_i, label %.exit, label %1" [/home/faku/opt/Xilinx/Vivado/2018.2/common/technology/autopilot/hls/hls_video_arithm.h:1435]   --->   Operation 16 'br' <Predicate = true> <Delay = 0.00>
ST_2 : Operation 17 [1/1] (0.00ns)   --->   "call void (...)* @_ssdm_op_SpecLoopName([12 x i8]* @p_str9) nounwind" [/home/faku/opt/Xilinx/Vivado/2018.2/common/technology/autopilot/hls/hls_video_arithm.h:1435]   --->   Operation 17 'specloopname' <Predicate = (!exitcond1_i)> <Delay = 0.00>
ST_2 : Operation 18 [1/1] (0.00ns)   --->   "%tmp_i = call i32 (...)* @_ssdm_op_SpecRegionBegin([12 x i8]* @p_str9)" [/home/faku/opt/Xilinx/Vivado/2018.2/common/technology/autopilot/hls/hls_video_arithm.h:1435]   --->   Operation 18 'specregionbegin' 'tmp_i' <Predicate = (!exitcond1_i)> <Delay = 0.00>
ST_2 : Operation 19 [1/1] (1.76ns)   --->   "br label %2" [/home/faku/opt/Xilinx/Vivado/2018.2/common/technology/autopilot/hls/hls_video_arithm.h:1436]   --->   Operation 19 'br' <Predicate = (!exitcond1_i)> <Delay = 1.76>
ST_2 : Operation 20 [1/1] (0.00ns)   --->   "ret void"   --->   Operation 20 'ret' <Predicate = (exitcond1_i)> <Delay = 0.00>

State 3 <SV = 2> <Delay = 1.78>
ST_3 : Operation 21 [1/1] (0.00ns)   --->   "%t_V_1 = phi i5 [ 0, %1 ], [ %j_V, %.critedge.i ]"   --->   Operation 21 'phi' 't_V_1' <Predicate = true> <Delay = 0.00>
ST_3 : Operation 22 [1/1] (1.36ns)   --->   "%exitcond_i = icmp eq i5 %t_V_1, -4" [/home/faku/opt/Xilinx/Vivado/2018.2/common/technology/autopilot/hls/hls_video_arithm.h:1436]   --->   Operation 22 'icmp' 'exitcond_i' <Predicate = true> <Delay = 1.36> <Core = "Cmp">   --->   Core 25 'Cmp' <Latency = 0> <II = 1> <Delay = 1.55> <FuncUnit> <Opcode : 'icmp'> <InPorts = 2> <OutPorts = 1>
ST_3 : Operation 23 [1/1] (0.00ns)   --->   "call void (...)* @_ssdm_op_SpecLoopTripCount(i64 28, i64 28, i64 28)"   --->   Operation 23 'speclooptripcount' <Predicate = true> <Delay = 0.00>
ST_3 : Operation 24 [1/1] (1.78ns)   --->   "%j_V = add i5 %t_V_1, 1" [/home/faku/opt/Xilinx/Vivado/2018.2/common/technology/autopilot/hls/hls_video_arithm.h:1436]   --->   Operation 24 'add' 'j_V' <Predicate = true> <Delay = 1.78> <Core = "AddSub">   --->   Core 14 'AddSub' <Latency = 0> <II = 1> <Delay = 1.78> <FuncUnit> <Opcode : 'add' 'sub'> <InPorts = 2> <OutPorts = 1>
ST_3 : Operation 25 [1/1] (0.00ns)   --->   "br i1 %exitcond_i, label %3, label %.critedge.i" [/home/faku/opt/Xilinx/Vivado/2018.2/common/technology/autopilot/hls/hls_video_arithm.h:1436]   --->   Operation 25 'br' <Predicate = true> <Delay = 0.00>

State 4 <SV = 3> <Delay = 5.18>
ST_4 : Operation 26 [1/1] (0.00ns)   --->   "%tmp_5_i = call i32 (...)* @_ssdm_op_SpecRegionBegin([13 x i8]* @p_str14)" [/home/faku/opt/Xilinx/Vivado/2018.2/common/technology/autopilot/hls/hls_video_core.h:617->/home/faku/opt/Xilinx/Vivado/2018.2/common/technology/autopilot/hls/hls_video_core.h:656->/home/faku/opt/Xilinx/Vivado/2018.2/common/technology/autopilot/hls/hls_video_arithm.h:1439]   --->   Operation 26 'specregionbegin' 'tmp_5_i' <Predicate = (!exitcond_i)> <Delay = 0.00>
ST_4 : Operation 27 [1/1] (0.00ns)   --->   "call void (...)* @_ssdm_op_SpecProtocol(i32 0, [1 x i8]* @p_str3) nounwind" [/home/faku/opt/Xilinx/Vivado/2018.2/common/technology/autopilot/hls/hls_video_core.h:621->/home/faku/opt/Xilinx/Vivado/2018.2/common/technology/autopilot/hls/hls_video_core.h:656->/home/faku/opt/Xilinx/Vivado/2018.2/common/technology/autopilot/hls/hls_video_arithm.h:1439]   --->   Operation 27 'specprotocol' <Predicate = (!exitcond_i)> <Delay = 0.00>
ST_4 : Operation 28 [1/1] (3.63ns)   --->   "%tmp = call i8 @_ssdm_op_Read.ap_fifo.volatile.i8P(i8* %src_data_stream_V)" [/home/faku/opt/Xilinx/Vivado/2018.2/common/technology/autopilot/hls/hls_video_core.h:624->/home/faku/opt/Xilinx/Vivado/2018.2/common/technology/autopilot/hls/hls_video_core.h:656->/home/faku/opt/Xilinx/Vivado/2018.2/common/technology/autopilot/hls/hls_video_arithm.h:1439]   --->   Operation 28 'read' 'tmp' <Predicate = (!exitcond_i)> <Delay = 3.63> <Core = "FIFO">   --->   Core 32 'FIFO' <Latency = 0> <II = 1> <Delay = 3.63> <Storage> <Opcode : 'read' 'write' 'nbread' 'nbwrite'> <Ports = 0> <Width = 8> <Depth = 2> <FIFO>
ST_4 : Operation 29 [1/1] (0.00ns)   --->   "%empty = call i32 (...)* @_ssdm_op_SpecRegionEnd([13 x i8]* @p_str14, i32 %tmp_5_i)" [/home/faku/opt/Xilinx/Vivado/2018.2/common/technology/autopilot/hls/hls_video_core.h:626->/home/faku/opt/Xilinx/Vivado/2018.2/common/technology/autopilot/hls/hls_video_core.h:656->/home/faku/opt/Xilinx/Vivado/2018.2/common/technology/autopilot/hls/hls_video_arithm.h:1439]   --->   Operation 29 'specregionend' 'empty' <Predicate = (!exitcond_i)> <Delay = 0.00>
ST_4 : Operation 30 [1/1] (1.55ns)   --->   "%tmp_i_83 = icmp ugt i8 %tmp, %p_thresh" [/home/faku/opt/Xilinx/Vivado/2018.2/common/technology/autopilot/hls/hls_video_arithm.h:1443]   --->   Operation 30 'icmp' 'tmp_i_83' <Predicate = (!exitcond_i)> <Delay = 1.55> <Core = "Cmp">   --->   Core 25 'Cmp' <Latency = 0> <II = 1> <Delay = 1.55> <FuncUnit> <Opcode : 'icmp'> <InPorts = 2> <OutPorts = 1>

State 5 <SV = 4> <Delay = 4.62>
ST_5 : Operation 31 [1/1] (0.00ns)   --->   "call void (...)* @_ssdm_op_SpecLoopName([11 x i8]* @p_str10) nounwind" [/home/faku/opt/Xilinx/Vivado/2018.2/common/technology/autopilot/hls/hls_video_arithm.h:1436]   --->   Operation 31 'specloopname' <Predicate = (!exitcond_i)> <Delay = 0.00>
ST_5 : Operation 32 [1/1] (0.00ns)   --->   "%tmp_4_i = call i32 (...)* @_ssdm_op_SpecRegionBegin([11 x i8]* @p_str10)" [/home/faku/opt/Xilinx/Vivado/2018.2/common/technology/autopilot/hls/hls_video_arithm.h:1436]   --->   Operation 32 'specregionbegin' 'tmp_4_i' <Predicate = (!exitcond_i)> <Delay = 0.00>
ST_5 : Operation 33 [1/1] (0.00ns)   --->   "call void (...)* @_ssdm_op_SpecPipeline(i32 1, i32 1, i32 1, i32 0, [1 x i8]* @p_str3) nounwind" [/home/faku/opt/Xilinx/Vivado/2018.2/common/technology/autopilot/hls/hls_video_arithm.h:1438]   --->   Operation 33 'specpipeline' <Predicate = (!exitcond_i)> <Delay = 0.00>
ST_5 : Operation 34 [1/1] (0.99ns)   --->   "%tmp_1 = select i1 %tmp_i_83, i8 -1, i8 0" [/home/faku/opt/Xilinx/Vivado/2018.2/common/technology/autopilot/hls/hls_video_arithm.h:1443]   --->   Operation 34 'select' 'tmp_1' <Predicate = (!exitcond_i)> <Delay = 0.99> <Core = "Sel">   --->   Core 26 'Sel' <Latency = 0> <II = 1> <Delay = 0.99> <FuncUnit> <Opcode : 'select'> <InPorts = 3> <OutPorts = 1>
ST_5 : Operation 35 [1/1] (0.00ns)   --->   "%tmp_6_i = call i32 (...)* @_ssdm_op_SpecRegionBegin([13 x i8]* @p_str19)" [/home/faku/opt/Xilinx/Vivado/2018.2/common/technology/autopilot/hls/hls_video_core.h:641->/home/faku/opt/Xilinx/Vivado/2018.2/common/technology/autopilot/hls/hls_video_core.h:662->/home/faku/opt/Xilinx/Vivado/2018.2/common/technology/autopilot/hls/hls_video_arithm.h:1462]   --->   Operation 35 'specregionbegin' 'tmp_6_i' <Predicate = (!exitcond_i)> <Delay = 0.00>
ST_5 : Operation 36 [1/1] (0.00ns)   --->   "call void (...)* @_ssdm_op_SpecProtocol(i32 0, [1 x i8]* @p_str3) nounwind" [/home/faku/opt/Xilinx/Vivado/2018.2/common/technology/autopilot/hls/hls_video_core.h:645->/home/faku/opt/Xilinx/Vivado/2018.2/common/technology/autopilot/hls/hls_video_core.h:662->/home/faku/opt/Xilinx/Vivado/2018.2/common/technology/autopilot/hls/hls_video_arithm.h:1462]   --->   Operation 36 'specprotocol' <Predicate = (!exitcond_i)> <Delay = 0.00>
ST_5 : Operation 37 [1/1] (3.63ns)   --->   "call void @_ssdm_op_Write.ap_fifo.volatile.i8P(i8* %dst_data_stream_V, i8 %tmp_1)" [/home/faku/opt/Xilinx/Vivado/2018.2/common/technology/autopilot/hls/hls_video_core.h:648->/home/faku/opt/Xilinx/Vivado/2018.2/common/technology/autopilot/hls/hls_video_core.h:662->/home/faku/opt/Xilinx/Vivado/2018.2/common/technology/autopilot/hls/hls_video_arithm.h:1462]   --->   Operation 37 'write' <Predicate = (!exitcond_i)> <Delay = 3.63> <Core = "FIFO">   --->   Core 32 'FIFO' <Latency = 0> <II = 1> <Delay = 3.63> <Storage> <Opcode : 'read' 'write' 'nbread' 'nbwrite'> <Ports = 0> <Width = 8> <Depth = 2> <FIFO>
ST_5 : Operation 38 [1/1] (0.00ns)   --->   "%empty_84 = call i32 (...)* @_ssdm_op_SpecRegionEnd([13 x i8]* @p_str19, i32 %tmp_6_i)" [/home/faku/opt/Xilinx/Vivado/2018.2/common/technology/autopilot/hls/hls_video_core.h:650->/home/faku/opt/Xilinx/Vivado/2018.2/common/technology/autopilot/hls/hls_video_core.h:662->/home/faku/opt/Xilinx/Vivado/2018.2/common/technology/autopilot/hls/hls_video_arithm.h:1462]   --->   Operation 38 'specregionend' 'empty_84' <Predicate = (!exitcond_i)> <Delay = 0.00>
ST_5 : Operation 39 [1/1] (0.00ns)   --->   "%empty_85 = call i32 (...)* @_ssdm_op_SpecRegionEnd([11 x i8]* @p_str10, i32 %tmp_4_i)" [/home/faku/opt/Xilinx/Vivado/2018.2/common/technology/autopilot/hls/hls_video_arithm.h:1463]   --->   Operation 39 'specregionend' 'empty_85' <Predicate = (!exitcond_i)> <Delay = 0.00>
ST_5 : Operation 40 [1/1] (0.00ns)   --->   "br label %2" [/home/faku/opt/Xilinx/Vivado/2018.2/common/technology/autopilot/hls/hls_video_arithm.h:1436]   --->   Operation 40 'br' <Predicate = (!exitcond_i)> <Delay = 0.00>

State 6 <SV = 3> <Delay = 0.00>
ST_6 : Operation 41 [1/1] (0.00ns)   --->   "%empty_86 = call i32 (...)* @_ssdm_op_SpecRegionEnd([12 x i8]* @p_str9, i32 %tmp_i)" [/home/faku/opt/Xilinx/Vivado/2018.2/common/technology/autopilot/hls/hls_video_arithm.h:1464]   --->   Operation 41 'specregionend' 'empty_86' <Predicate = true> <Delay = 0.00>
ST_6 : Operation 42 [1/1] (0.00ns)   --->   "br label %0" [/home/faku/opt/Xilinx/Vivado/2018.2/common/technology/autopilot/hls/hls_video_arithm.h:1435]   --->   Operation 42 'br' <Predicate = true> <Delay = 0.00>


============================================================
+ Verbose Summary: Binding
============================================================
STG Binding: 
---------------- STG Properties BEGIN ----------------
- Is combinational: 0
- Is one-state seq: 0
- Is datapath-only: 0
- Is pipelined: 0
- Is top level: 0
Port [ Return ] is wired: 1; IO mode=ap_ctrl_hs:ce=0
Port [ src_data_stream_V]:  wired=1; compound=1; hidden=0; nouse=0; global=0; static=0; extern=0; dir=0; type=3; pingpong=0; private_global=0; IO mode=ap_fifo:ce=0
Port [ dst_data_stream_V]:  wired=1; compound=1; hidden=0; nouse=0; global=0; static=0; extern=0; dir=1; type=3; pingpong=0; private_global=0; IO mode=ap_fifo:ce=0
Port [ thresh]:  wired=1; compound=1; hidden=0; nouse=0; global=0; static=0; extern=0; dir=0; type=3; pingpong=0; private_global=0; IO mode=ap_fifo:ce=0
---------------- STG Properties END ------------------

---------------- Datapath Model BEGIN ----------------

<LifeTime>
<method=bitvector/>
StgValue_7  (specinterface    ) [ 0000000]
StgValue_8  (specinterface    ) [ 0000000]
StgValue_9  (specinterface    ) [ 0000000]
p_thresh    (read             ) [ 0011111]
StgValue_11 (br               ) [ 0111111]
t_V         (phi              ) [ 0010000]
exitcond1_i (icmp             ) [ 0011111]
StgValue_14 (speclooptripcount) [ 0000000]
i_V         (add              ) [ 0111111]
StgValue_16 (br               ) [ 0000000]
StgValue_17 (specloopname     ) [ 0000000]
tmp_i       (specregionbegin  ) [ 0001111]
StgValue_19 (br               ) [ 0011111]
StgValue_20 (ret              ) [ 0000000]
t_V_1       (phi              ) [ 0001000]
exitcond_i  (icmp             ) [ 0011111]
StgValue_23 (speclooptripcount) [ 0000000]
j_V         (add              ) [ 0011111]
StgValue_25 (br               ) [ 0000000]
tmp_5_i     (specregionbegin  ) [ 0000000]
StgValue_27 (specprotocol     ) [ 0000000]
tmp         (read             ) [ 0000000]
empty       (specregionend    ) [ 0000000]
tmp_i_83    (icmp             ) [ 0001010]
StgValue_31 (specloopname     ) [ 0000000]
tmp_4_i     (specregionbegin  ) [ 0000000]
StgValue_33 (specpipeline     ) [ 0000000]
tmp_1       (select           ) [ 0000000]
tmp_6_i     (specregionbegin  ) [ 0000000]
StgValue_36 (specprotocol     ) [ 0000000]
StgValue_37 (write            ) [ 0000000]
empty_84    (specregionend    ) [ 0000000]
empty_85    (specregionend    ) [ 0000000]
StgValue_40 (br               ) [ 0011111]
empty_86    (specregionend    ) [ 0000000]
StgValue_42 (br               ) [ 0111111]
</LifeTime>

<model>

<comp_list>
<comp id="0" class="1000" name="src_data_stream_V">
<pin_list>
<pin id="1" dir="1" index="0" bw="1" slack="0"/>
</pin_list>
<bind>
<StgValue><ssdm name="src_data_stream_V"/></StgValue>
</bind>
</comp>

<comp id="2" class="1000" name="dst_data_stream_V">
<pin_list>
<pin id="3" dir="1" index="0" bw="1" slack="0"/>
</pin_list>
<bind>
<StgValue><ssdm name="dst_data_stream_V"/></StgValue>
</bind>
</comp>

<comp id="4" class="1000" name="thresh">
<pin_list>
<pin id="5" dir="1" index="0" bw="1" slack="0"/>
</pin_list>
<bind>
<StgValue><ssdm name="thresh"/></StgValue>
</bind>
</comp>

<comp id="6" class="1001" name="const_6">
<pin_list>
<pin id="7" dir="1" index="0" bw="1" slack="2147483647"/>
</pin_list>
<bind>
<StgValue><ssdm name="_ssdm_op_SpecInterface"/></StgValue>
</bind>
</comp>

<comp id="8" class="1001" name="const_8">
<pin_list>
<pin id="9" dir="1" index="0" bw="1" slack="2147483647"/>
</pin_list>
<bind>
<StgValue><ssdm name="ap_fifo_str"/></StgValue>
</bind>
</comp>

<comp id="10" class="1001" name="const_10">
<pin_list>
<pin id="11" dir="1" index="0" bw="1" slack="2147483647"/>
</pin_list>
<bind>
<StgValue><ssdm name=""/></StgValue>
</bind>
</comp>

<comp id="12" class="1001" name="const_12">
<pin_list>
<pin id="13" dir="1" index="0" bw="1" slack="2147483647"/>
</pin_list>
<bind>
<StgValue><ssdm name="p_str151"/></StgValue>
</bind>
</comp>

<comp id="14" class="1001" name="const_14">
<pin_list>
<pin id="15" dir="1" index="0" bw="1" slack="2147483647"/>
</pin_list>
<bind>
<StgValue><ssdm name="p_str152"/></StgValue>
</bind>
</comp>

<comp id="16" class="1001" name="const_16">
<pin_list>
<pin id="17" dir="1" index="0" bw="1" slack="2147483647"/>
</pin_list>
<bind>
<StgValue><ssdm name="p_str153"/></StgValue>
</bind>
</comp>

<comp id="18" class="1001" name="const_18">
<pin_list>
<pin id="19" dir="1" index="0" bw="1" slack="2147483647"/>
</pin_list>
<bind>
<StgValue><ssdm name="p_str154"/></StgValue>
</bind>
</comp>

<comp id="20" class="1001" name="const_20">
<pin_list>
<pin id="21" dir="1" index="0" bw="1" slack="2147483647"/>
</pin_list>
<bind>
<StgValue><ssdm name=""/></StgValue>
</bind>
</comp>

<comp id="22" class="1001" name="const_22">
<pin_list>
<pin id="23" dir="1" index="0" bw="1" slack="2147483647"/>
</pin_list>
<bind>
<StgValue><ssdm name=""/></StgValue>
</bind>
</comp>

<comp id="24" class="1001" name="const_24">
<pin_list>
<pin id="25" dir="1" index="0" bw="1" slack="2147483647"/>
</pin_list>
<bind>
<StgValue><ssdm name="p_str155"/></StgValue>
</bind>
</comp>

<comp id="26" class="1001" name="const_26">
<pin_list>
<pin id="27" dir="1" index="0" bw="1" slack="2147483647"/>
</pin_list>
<bind>
<StgValue><ssdm name="p_str156"/></StgValue>
</bind>
</comp>

<comp id="28" class="1001" name="const_28">
<pin_list>
<pin id="29" dir="1" index="0" bw="1" slack="2147483647"/>
</pin_list>
<bind>
<StgValue><ssdm name="p_str144"/></StgValue>
</bind>
</comp>

<comp id="30" class="1001" name="const_30">
<pin_list>
<pin id="31" dir="1" index="0" bw="1" slack="2147483647"/>
</pin_list>
<bind>
<StgValue><ssdm name="p_str145"/></StgValue>
</bind>
</comp>

<comp id="32" class="1001" name="const_32">
<pin_list>
<pin id="33" dir="1" index="0" bw="1" slack="2147483647"/>
</pin_list>
<bind>
<StgValue><ssdm name="p_str146"/></StgValue>
</bind>
</comp>

<comp id="34" class="1001" name="const_34">
<pin_list>
<pin id="35" dir="1" index="0" bw="1" slack="2147483647"/>
</pin_list>
<bind>
<StgValue><ssdm name="p_str147"/></StgValue>
</bind>
</comp>

<comp id="36" class="1001" name="const_36">
<pin_list>
<pin id="37" dir="1" index="0" bw="1" slack="2147483647"/>
</pin_list>
<bind>
<StgValue><ssdm name="p_str148"/></StgValue>
</bind>
</comp>

<comp id="38" class="1001" name="const_38">
<pin_list>
<pin id="39" dir="1" index="0" bw="1" slack="2147483647"/>
</pin_list>
<bind>
<StgValue><ssdm name="p_str149"/></StgValue>
</bind>
</comp>

<comp id="40" class="1001" name="const_40">
<pin_list>
<pin id="41" dir="1" index="0" bw="1" slack="2147483647"/>
</pin_list>
<bind>
<StgValue><ssdm name="p_str328"/></StgValue>
</bind>
</comp>

<comp id="42" class="1001" name="const_42">
<pin_list>
<pin id="43" dir="1" index="0" bw="1" slack="2147483647"/>
</pin_list>
<bind>
<StgValue><ssdm name="p_str329"/></StgValue>
</bind>
</comp>

<comp id="44" class="1001" name="const_44">
<pin_list>
<pin id="45" dir="1" index="0" bw="1" slack="2147483647"/>
</pin_list>
<bind>
<StgValue><ssdm name="p_str330"/></StgValue>
</bind>
</comp>

<comp id="46" class="1001" name="const_46">
<pin_list>
<pin id="47" dir="1" index="0" bw="1" slack="2147483647"/>
</pin_list>
<bind>
<StgValue><ssdm name="p_str331"/></StgValue>
</bind>
</comp>

<comp id="48" class="1001" name="const_48">
<pin_list>
<pin id="49" dir="1" index="0" bw="1" slack="2147483647"/>
</pin_list>
<bind>
<StgValue><ssdm name="p_str332"/></StgValue>
</bind>
</comp>

<comp id="50" class="1001" name="const_50">
<pin_list>
<pin id="51" dir="1" index="0" bw="1" slack="2147483647"/>
</pin_list>
<bind>
<StgValue><ssdm name="p_str333"/></StgValue>
</bind>
</comp>

<comp id="52" class="1001" name="const_52">
<pin_list>
<pin id="53" dir="1" index="0" bw="1" slack="0"/>
</pin_list>
<bind>
<StgValue><ssdm name="_ssdm_op_Read.ap_fifo.i8P"/></StgValue>
</bind>
</comp>

<comp id="54" class="1001" name="const_54">
<pin_list>
<pin id="55" dir="1" index="0" bw="1" slack="1"/>
</pin_list>
<bind>
<StgValue><ssdm name=""/></StgValue>
</bind>
</comp>

<comp id="56" class="1001" name="const_56">
<pin_list>
<pin id="57" dir="1" index="0" bw="1" slack="0"/>
</pin_list>
<bind>
<StgValue><ssdm name=""/></StgValue>
</bind>
</comp>

<comp id="58" class="1001" name="const_58">
<pin_list>
<pin id="59" dir="1" index="0" bw="1" slack="2147483647"/>
</pin_list>
<bind>
<StgValue><ssdm name="_ssdm_op_SpecLoopTripCount"/></StgValue>
</bind>
</comp>

<comp id="60" class="1001" name="const_60">
<pin_list>
<pin id="61" dir="1" index="0" bw="1" slack="2147483647"/>
</pin_list>
<bind>
<StgValue><ssdm name=""/></StgValue>
</bind>
</comp>

<comp id="62" class="1001" name="const_62">
<pin_list>
<pin id="63" dir="1" index="0" bw="1" slack="0"/>
</pin_list>
<bind>
<StgValue><ssdm name=""/></StgValue>
</bind>
</comp>

<comp id="64" class="1001" name="const_64">
<pin_list>
<pin id="65" dir="1" index="0" bw="1" slack="2147483647"/>
</pin_list>
<bind>
<StgValue><ssdm name="_ssdm_op_SpecLoopName"/></StgValue>
</bind>
</comp>

<comp id="66" class="1001" name="const_66">
<pin_list>
<pin id="67" dir="1" index="0" bw="1" slack="2147483647"/>
</pin_list>
<bind>
<StgValue><ssdm name="p_str9"/></StgValue>
</bind>
</comp>

<comp id="68" class="1001" name="const_68">
<pin_list>
<pin id="69" dir="1" index="0" bw="1" slack="2147483647"/>
</pin_list>
<bind>
<StgValue><ssdm name="_ssdm_op_SpecRegionBegin"/></StgValue>
</bind>
</comp>

<comp id="70" class="1001" name="const_70">
<pin_list>
<pin id="71" dir="1" index="0" bw="1" slack="2147483647"/>
</pin_list>
<bind>
<StgValue><ssdm name="p_str14"/></StgValue>
</bind>
</comp>

<comp id="72" class="1001" name="const_72">
<pin_list>
<pin id="73" dir="1" index="0" bw="1" slack="2147483647"/>
</pin_list>
<bind>
<StgValue><ssdm name="_ssdm_op_SpecProtocol"/></StgValue>
</bind>
</comp>

<comp id="74" class="1001" name="const_74">
<pin_list>
<pin id="75" dir="1" index="0" bw="1" slack="2147483647"/>
</pin_list>
<bind>
<StgValue><ssdm name="p_str3"/></StgValue>
</bind>
</comp>

<comp id="76" class="1001" name="const_76">
<pin_list>
<pin id="77" dir="1" index="0" bw="1" slack="0"/>
</pin_list>
<bind>
<StgValue><ssdm name="_ssdm_op_Read.ap_fifo.volatile.i8P"/></StgValue>
</bind>
</comp>

<comp id="78" class="1001" name="const_78">
<pin_list>
<pin id="79" dir="1" index="0" bw="1" slack="2147483647"/>
</pin_list>
<bind>
<StgValue><ssdm name="_ssdm_op_SpecRegionEnd"/></StgValue>
</bind>
</comp>

<comp id="80" class="1001" name="const_80">
<pin_list>
<pin id="81" dir="1" index="0" bw="1" slack="2147483647"/>
</pin_list>
<bind>
<StgValue><ssdm name="p_str10"/></StgValue>
</bind>
</comp>

<comp id="82" class="1001" name="const_82">
<pin_list>
<pin id="83" dir="1" index="0" bw="1" slack="2147483647"/>
</pin_list>
<bind>
<StgValue><ssdm name="_ssdm_op_SpecPipeline"/></StgValue>
</bind>
</comp>

<comp id="84" class="1001" name="const_84">
<pin_list>
<pin id="85" dir="1" index="0" bw="1" slack="2147483647"/>
</pin_list>
<bind>
<StgValue><ssdm name=""/></StgValue>
</bind>
</comp>

<comp id="86" class="1001" name="const_86">
<pin_list>
<pin id="87" dir="1" index="0" bw="1" slack="0"/>
</pin_list>
<bind>
<StgValue><ssdm name=""/></StgValue>
</bind>
</comp>

<comp id="88" class="1001" name="const_88">
<pin_list>
<pin id="89" dir="1" index="0" bw="1" slack="0"/>
</pin_list>
<bind>
<StgValue><ssdm name=""/></StgValue>
</bind>
</comp>

<comp id="90" class="1001" name="const_90">
<pin_list>
<pin id="91" dir="1" index="0" bw="1" slack="2147483647"/>
</pin_list>
<bind>
<StgValue><ssdm name="p_str19"/></StgValue>
</bind>
</comp>

<comp id="92" class="1001" name="const_92">
<pin_list>
<pin id="93" dir="1" index="0" bw="1" slack="0"/>
</pin_list>
<bind>
<StgValue><ssdm name="_ssdm_op_Write.ap_fifo.volatile.i8P"/></StgValue>
</bind>
</comp>

<comp id="94" class="1004" name="p_thresh_read_fu_94">
<pin_list>
<pin id="95" dir="0" index="0" bw="8" slack="0"/>
<pin id="96" dir="0" index="1" bw="8" slack="0"/>
<pin id="97" dir="1" index="2" bw="8" slack="3"/>
</pin_list>
<bind>
<opcode="read(1150) " fcode="read"/>
<opset="p_thresh/1 "/>
</bind>
</comp>

<comp id="100" class="1004" name="tmp_read_fu_100">
<pin_list>
<pin id="101" dir="0" index="0" bw="8" slack="0"/>
<pin id="102" dir="0" index="1" bw="8" slack="0"/>
<pin id="103" dir="1" index="2" bw="8" slack="0"/>
</pin_list>
<bind>
<opcode="read(1150) " fcode="read"/>
<opset="tmp/4 "/>
</bind>
</comp>

<comp id="106" class="1004" name="StgValue_37_write_fu_106">
<pin_list>
<pin id="107" dir="0" index="0" bw="0" slack="0"/>
<pin id="108" dir="0" index="1" bw="8" slack="0"/>
<pin id="109" dir="0" index="2" bw="8" slack="0"/>
<pin id="110" dir="1" index="3" bw="0" slack="2147483647"/>
</pin_list>
<bind>
<opcode="write(1151) " fcode="write"/>
<opset="StgValue_37/5 "/>
</bind>
</comp>

<comp id="113" class="1005" name="t_V_reg_113">
<pin_list>
<pin id="114" dir="0" index="0" bw="5" slack="1"/>
<pin id="115" dir="1" index="1" bw="5" slack="1"/>
</pin_list>
<bind>
<opset="t_V (phireg) "/>
</bind>
</comp>

<comp id="117" class="1004" name="t_V_phi_fu_117">
<pin_list>
<pin id="118" dir="0" index="0" bw="1" slack="1"/>
<pin id="119" dir="0" index="1" bw="0" slack="2147483647"/>
<pin id="120" dir="0" index="2" bw="5" slack="0"/>
<pin id="121" dir="0" index="3" bw="0" slack="2147483647"/>
<pin id="122" dir="1" index="4" bw="5" slack="0"/>
</pin_list>
<bind>
<opcode="phi(47) " fcode="phi"/>
<opset="t_V/2 "/>
</bind>
</comp>

<comp id="124" class="1005" name="t_V_1_reg_124">
<pin_list>
<pin id="125" dir="0" index="0" bw="5" slack="1"/>
<pin id="126" dir="1" index="1" bw="5" slack="1"/>
</pin_list>
<bind>
<opset="t_V_1 (phireg) "/>
</bind>
</comp>

<comp id="128" class="1004" name="t_V_1_phi_fu_128">
<pin_list>
<pin id="129" dir="0" index="0" bw="1" slack="1"/>
<pin id="130" dir="0" index="1" bw="0" slack="2147483647"/>
<pin id="131" dir="0" index="2" bw="5" slack="0"/>
<pin id="132" dir="0" index="3" bw="0" slack="2147483647"/>
<pin id="133" dir="1" index="4" bw="5" slack="0"/>
</pin_list>
<bind>
<opcode="phi(47) " fcode="phi"/>
<opset="t_V_1/3 "/>
</bind>
</comp>

<comp id="135" class="1004" name="exitcond1_i_fu_135">
<pin_list>
<pin id="136" dir="0" index="0" bw="5" slack="0"/>
<pin id="137" dir="0" index="1" bw="5" slack="0"/>
<pin id="138" dir="1" index="2" bw="1" slack="1"/>
</pin_list>
<bind>
<opcode="icmp(45) " fcode="icmp"/>
<opset="exitcond1_i/2 "/>
</bind>
</comp>

<comp id="141" class="1004" name="i_V_fu_141">
<pin_list>
<pin id="142" dir="0" index="0" bw="5" slack="0"/>
<pin id="143" dir="0" index="1" bw="1" slack="0"/>
<pin id="144" dir="1" index="2" bw="5" slack="0"/>
</pin_list>
<bind>
<opcode="add(8) " fcode="add"/>
<opset="i_V/2 "/>
</bind>
</comp>

<comp id="147" class="1004" name="exitcond_i_fu_147">
<pin_list>
<pin id="148" dir="0" index="0" bw="5" slack="0"/>
<pin id="149" dir="0" index="1" bw="5" slack="0"/>
<pin id="150" dir="1" index="2" bw="1" slack="1"/>
</pin_list>
<bind>
<opcode="icmp(45) " fcode="icmp"/>
<opset="exitcond_i/3 "/>
</bind>
</comp>

<comp id="153" class="1004" name="j_V_fu_153">
<pin_list>
<pin id="154" dir="0" index="0" bw="5" slack="0"/>
<pin id="155" dir="0" index="1" bw="1" slack="0"/>
<pin id="156" dir="1" index="2" bw="5" slack="0"/>
</pin_list>
<bind>
<opcode="add(8) " fcode="add"/>
<opset="j_V/3 "/>
</bind>
</comp>

<comp id="159" class="1004" name="tmp_i_83_fu_159">
<pin_list>
<pin id="160" dir="0" index="0" bw="8" slack="0"/>
<pin id="161" dir="0" index="1" bw="8" slack="3"/>
<pin id="162" dir="1" index="2" bw="1" slack="1"/>
</pin_list>
<bind>
<opcode="icmp(45) " fcode="icmp"/>
<opset="tmp_i_83/4 "/>
</bind>
</comp>

<comp id="164" class="1004" name="tmp_1_fu_164">
<pin_list>
<pin id="165" dir="0" index="0" bw="1" slack="1"/>
<pin id="166" dir="0" index="1" bw="8" slack="0"/>
<pin id="167" dir="0" index="2" bw="8" slack="0"/>
<pin id="168" dir="1" index="3" bw="8" slack="0"/>
</pin_list>
<bind>
<opcode="select(49) " fcode="select"/>
<opset="tmp_1/5 "/>
</bind>
</comp>

<comp id="172" class="1005" name="p_thresh_reg_172">
<pin_list>
<pin id="173" dir="0" index="0" bw="8" slack="3"/>
<pin id="174" dir="1" index="1" bw="8" slack="3"/>
</pin_list>
<bind>
<opset="p_thresh "/>
</bind>
</comp>

<comp id="177" class="1005" name="exitcond1_i_reg_177">
<pin_list>
<pin id="178" dir="0" index="0" bw="1" slack="1"/>
<pin id="179" dir="1" index="1" bw="1" slack="2147483647"/>
</pin_list>
<bind>
<opset="exitcond1_i "/>
</bind>
</comp>

<comp id="181" class="1005" name="i_V_reg_181">
<pin_list>
<pin id="182" dir="0" index="0" bw="5" slack="0"/>
<pin id="183" dir="1" index="1" bw="5" slack="0"/>
</pin_list>
<bind>
<opset="i_V "/>
</bind>
</comp>

<comp id="186" class="1005" name="exitcond_i_reg_186">
<pin_list>
<pin id="187" dir="0" index="0" bw="1" slack="1"/>
<pin id="188" dir="1" index="1" bw="1" slack="2147483647"/>
</pin_list>
<bind>
<opset="exitcond_i "/>
</bind>
</comp>

<comp id="190" class="1005" name="j_V_reg_190">
<pin_list>
<pin id="191" dir="0" index="0" bw="5" slack="0"/>
<pin id="192" dir="1" index="1" bw="5" slack="0"/>
</pin_list>
<bind>
<opset="j_V "/>
</bind>
</comp>

<comp id="195" class="1005" name="tmp_i_83_reg_195">
<pin_list>
<pin id="196" dir="0" index="0" bw="1" slack="1"/>
<pin id="197" dir="1" index="1" bw="1" slack="1"/>
</pin_list>
<bind>
<opset="tmp_i_83 "/>
</bind>
</comp>

</comp_list>

<net_list>
<net id="98"><net_src comp="52" pin="0"/><net_sink comp="94" pin=0"/></net>

<net id="99"><net_src comp="4" pin="0"/><net_sink comp="94" pin=1"/></net>

<net id="104"><net_src comp="76" pin="0"/><net_sink comp="100" pin=0"/></net>

<net id="105"><net_src comp="0" pin="0"/><net_sink comp="100" pin=1"/></net>

<net id="111"><net_src comp="92" pin="0"/><net_sink comp="106" pin=0"/></net>

<net id="112"><net_src comp="2" pin="0"/><net_sink comp="106" pin=1"/></net>

<net id="116"><net_src comp="54" pin="0"/><net_sink comp="113" pin=0"/></net>

<net id="123"><net_src comp="113" pin="1"/><net_sink comp="117" pin=0"/></net>

<net id="127"><net_src comp="54" pin="0"/><net_sink comp="124" pin=0"/></net>

<net id="134"><net_src comp="124" pin="1"/><net_sink comp="128" pin=0"/></net>

<net id="139"><net_src comp="117" pin="4"/><net_sink comp="135" pin=0"/></net>

<net id="140"><net_src comp="56" pin="0"/><net_sink comp="135" pin=1"/></net>

<net id="145"><net_src comp="117" pin="4"/><net_sink comp="141" pin=0"/></net>

<net id="146"><net_src comp="62" pin="0"/><net_sink comp="141" pin=1"/></net>

<net id="151"><net_src comp="128" pin="4"/><net_sink comp="147" pin=0"/></net>

<net id="152"><net_src comp="56" pin="0"/><net_sink comp="147" pin=1"/></net>

<net id="157"><net_src comp="128" pin="4"/><net_sink comp="153" pin=0"/></net>

<net id="158"><net_src comp="62" pin="0"/><net_sink comp="153" pin=1"/></net>

<net id="163"><net_src comp="100" pin="2"/><net_sink comp="159" pin=0"/></net>

<net id="169"><net_src comp="86" pin="0"/><net_sink comp="164" pin=1"/></net>

<net id="170"><net_src comp="88" pin="0"/><net_sink comp="164" pin=2"/></net>

<net id="171"><net_src comp="164" pin="3"/><net_sink comp="106" pin=2"/></net>

<net id="175"><net_src comp="94" pin="2"/><net_sink comp="172" pin=0"/></net>

<net id="176"><net_src comp="172" pin="1"/><net_sink comp="159" pin=1"/></net>

<net id="180"><net_src comp="135" pin="2"/><net_sink comp="177" pin=0"/></net>

<net id="184"><net_src comp="141" pin="2"/><net_sink comp="181" pin=0"/></net>

<net id="185"><net_src comp="181" pin="1"/><net_sink comp="117" pin=2"/></net>

<net id="189"><net_src comp="147" pin="2"/><net_sink comp="186" pin=0"/></net>

<net id="193"><net_src comp="153" pin="2"/><net_sink comp="190" pin=0"/></net>

<net id="194"><net_src comp="190" pin="1"/><net_sink comp="128" pin=2"/></net>

<net id="198"><net_src comp="159" pin="2"/><net_sink comp="195" pin=0"/></net>

<net id="199"><net_src comp="195" pin="1"/><net_sink comp="164" pin=0"/></net>

</net_list>

</model> 
---------------- Datapath Model END ------------------

* FSMD analyzer results:
  - Output states:
	Port: dst_data_stream_V | {5 }
 - Input state : 
	Port: Threshold : src_data_stream_V | {4 }
	Port: Threshold : thresh | {1 }
  - Chain level:
	State 1
	State 2
		exitcond1_i : 1
		i_V : 1
		StgValue_16 : 2
	State 3
		exitcond_i : 1
		j_V : 1
		StgValue_25 : 2
	State 4
		empty : 1
	State 5
		StgValue_37 : 1
		empty_84 : 1
		empty_85 : 1
	State 6


============================================================
+ Verbose Summary: Datapath Resource usage 
============================================================

* Functional unit list:
|----------|--------------------------|---------|---------|
| Operation|      Functional Unit     |    FF   |   LUT   |
|----------|--------------------------|---------|---------|
|          |    exitcond1_i_fu_135    |    0    |    11   |
|   icmp   |     exitcond_i_fu_147    |    0    |    11   |
|          |      tmp_i_83_fu_159     |    0    |    11   |
|----------|--------------------------|---------|---------|
|    add   |        i_V_fu_141        |    0    |    15   |
|          |        j_V_fu_153        |    0    |    15   |
|----------|--------------------------|---------|---------|
|  select  |       tmp_1_fu_164       |    0    |    8    |
|----------|--------------------------|---------|---------|
|   read   |    p_thresh_read_fu_94   |    0    |    0    |
|          |      tmp_read_fu_100     |    0    |    0    |
|----------|--------------------------|---------|---------|
|   write  | StgValue_37_write_fu_106 |    0    |    0    |
|----------|--------------------------|---------|---------|
|   Total  |                          |    0    |    71   |
|----------|--------------------------|---------|---------|

Memories:
N/A

* Register list:
+-------------------+--------+
|                   |   FF   |
+-------------------+--------+
|exitcond1_i_reg_177|    1   |
| exitcond_i_reg_186|    1   |
|    i_V_reg_181    |    5   |
|    j_V_reg_190    |    5   |
|  p_thresh_reg_172 |    8   |
|   t_V_1_reg_124   |    5   |
|    t_V_reg_113    |    5   |
|  tmp_i_83_reg_195 |    1   |
+-------------------+--------+
|       Total       |   31   |
+-------------------+--------+

* Multiplexer (MUX) list: 
|--------|------|------|------|--------|
|  Comp  |  Pin | Size |  BW  | S x BW |
|--------|------|------|------|--------|
|  Total |      |      |      |    0   |
|--------|------|------|------|--------|



* Summary:
+-----------+--------+--------+
|           |   FF   |   LUT  |
+-----------+--------+--------+
|  Function |    0   |   71   |
|   Memory  |    -   |    -   |
|Multiplexer|    -   |    -   |
|  Register |   31   |    -   |
+-----------+--------+--------+
|   Total   |   31   |   71   |
+-----------+--------+--------+
