

================================================================
== Vivado HLS Report for 'center_image'
================================================================
* Date:           Thu Dec  5 21:40:06 2019

* Version:        2018.2 (Build 2258646 on Thu Jun 14 20:25:20 MDT 2018)
* Project:        center_image
* Solution:       axis
* Product family: zynq
* Target device:  xc7z020clg400-1


================================================================
== Performance Estimates
================================================================
+ Timing (ns): 
    * Summary: 
    +--------+-------+----------+------------+
    |  Clock | Target| Estimated| Uncertainty|
    +--------+-------+----------+------------+
    |ap_clk  |  10.00|     7.268|        1.25|
    +--------+-------+----------+------------+

+ Latency (clock cycles): 
    * Summary: 
    +---------+---------+---------+---------+----------+
    |      Latency      |      Interval     | Pipeline |
    |   min   |   max   |   min   |   max   |   Type   |
    +---------+---------+---------+---------+----------+
    |  2081163|  2081163|  2081164|  2081164| dataflow |
    +---------+---------+---------+---------+----------+

    + Detail: 
        * Instance: 
        +---------------------------------+----------------------+---------+---------+---------+---------+---------+
        |                                 |                      |      Latency      |      Interval     | Pipeline|
        |             Instance            |        Module        |   min   |   max   |   min   |   max   |   Type  |
        +---------------------------------+----------------------+---------+---------+---------+---------+---------+
        |grp_AXIvideo2Mat_fu_262          |AXIvideo2Mat          |  2081163|  2081163|  2081163|  2081163|   none  |
        |grp_Loop_loop_height_pro_fu_283  |Loop_loop_height_pro  |  2077921|  2077921|  2077921|  2077921|   none  |
        |grp_Mat2AXIvideo_fu_296          |Mat2AXIvideo          |  2077921|  2077921|  2077921|  2077921|   none  |
        |grp_Mat2AXIvideo_1_fu_317        |Mat2AXIvideo_1        |  1170721|  1170721|  1170721|  1170721|   none  |
        +---------------------------------+----------------------+---------+---------+---------+---------+---------+

        * Loop: 
        N/A

============================================================
+ Verbose Summary: Synthesis Manager
============================================================
InlineROM: 1
ExposeGlobal: 0
============================================================
+ Verbose Summary: CDFG Model
============================================================
IsTopModel: 1
ResetActiveHigh: 1
IsCombinational: 2
IsDatapathOnly: 0
HasWiredReturn: 1
HasMFsm: 0
HasVarLatency: 1
IsPipeline: 0
IsRtlPipelined: 0
IsInstanceOverlapped: 0
IsDontTouch: 0
HasImplIP: 0
IsGatedGlobalClock: 0


============================================================
+ Verbose Summary: Schedule
============================================================
* Number of FSM states : 8
* Pipeline : 0
* Dataflow Pipeline: 1
  DF-Pipeline-0: Size = 8, States = { 1 2 3 4 5 6 7 8 }

* FSM state transitions: 
1 --> 
	2  / true
2 --> 
	3  / true
3 --> 
	4  / true
4 --> 
	5  / true
5 --> 
	6  / true
6 --> 
	7  / true
7 --> 
	8  / true
8 --> 

* FSM state operations: 

State 1 <SV = 0> <Delay = 0.00>
ST_1 : Operation 9 [1/1] (0.00ns)   --->   "%input_data_data_stre = alloca i8, align 1" [center_image/src/center_image.cpp:21]   --->   Operation 9 'alloca' 'input_data_data_stre' <Predicate = true> <Delay = 0.00> <Core = "FIFO">   --->   Core 32 'FIFO' <Latency = 0> <II = 1> <Delay = 3.63> <Storage> <Opcode : 'read' 'write' 'nbread' 'nbwrite'> <Ports = 0> <Width = 8> <Depth = 2> <FIFO>
ST_1 : Operation 10 [1/1] (0.00ns)   --->   "%input_data_data_stre_1 = alloca i8, align 1" [center_image/src/center_image.cpp:21]   --->   Operation 10 'alloca' 'input_data_data_stre_1' <Predicate = true> <Delay = 0.00> <Core = "FIFO">   --->   Core 32 'FIFO' <Latency = 0> <II = 1> <Delay = 3.63> <Storage> <Opcode : 'read' 'write' 'nbread' 'nbwrite'> <Ports = 0> <Width = 8> <Depth = 2> <FIFO>
ST_1 : Operation 11 [1/1] (0.00ns)   --->   "%input_data_data_stre_2 = alloca i8, align 1" [center_image/src/center_image.cpp:21]   --->   Operation 11 'alloca' 'input_data_data_stre_2' <Predicate = true> <Delay = 0.00> <Core = "FIFO">   --->   Core 32 'FIFO' <Latency = 0> <II = 1> <Delay = 3.63> <Storage> <Opcode : 'read' 'write' 'nbread' 'nbwrite'> <Ports = 0> <Width = 8> <Depth = 2> <FIFO>
ST_1 : Operation 12 [1/1] (0.00ns)   --->   "%passthrough_data_str = alloca i8, align 1" [center_image/src/center_image.cpp:22]   --->   Operation 12 'alloca' 'passthrough_data_str' <Predicate = true> <Delay = 0.00> <Core = "FIFO">   --->   Core 32 'FIFO' <Latency = 0> <II = 1> <Delay = 3.63> <Storage> <Opcode : 'read' 'write' 'nbread' 'nbwrite'> <Ports = 0> <Width = 8> <Depth = 2> <FIFO>
ST_1 : Operation 13 [1/1] (0.00ns)   --->   "%passthrough_data_str_1 = alloca i8, align 1" [center_image/src/center_image.cpp:22]   --->   Operation 13 'alloca' 'passthrough_data_str_1' <Predicate = true> <Delay = 0.00> <Core = "FIFO">   --->   Core 32 'FIFO' <Latency = 0> <II = 1> <Delay = 3.63> <Storage> <Opcode : 'read' 'write' 'nbread' 'nbwrite'> <Ports = 0> <Width = 8> <Depth = 2> <FIFO>
ST_1 : Operation 14 [1/1] (0.00ns)   --->   "%passthrough_data_str_2 = alloca i8, align 1" [center_image/src/center_image.cpp:22]   --->   Operation 14 'alloca' 'passthrough_data_str_2' <Predicate = true> <Delay = 0.00> <Core = "FIFO">   --->   Core 32 'FIFO' <Latency = 0> <II = 1> <Delay = 3.63> <Storage> <Opcode : 'read' 'write' 'nbread' 'nbwrite'> <Ports = 0> <Width = 8> <Depth = 2> <FIFO>
ST_1 : Operation 15 [1/1] (0.00ns)   --->   "%crop_data_data_strea = alloca i8, align 1" [center_image/src/center_image.cpp:23]   --->   Operation 15 'alloca' 'crop_data_data_strea' <Predicate = true> <Delay = 0.00> <Core = "FIFO">   --->   Core 32 'FIFO' <Latency = 0> <II = 1> <Delay = 3.63> <Storage> <Opcode : 'read' 'write' 'nbread' 'nbwrite'> <Ports = 0> <Width = 8> <Depth = 2> <FIFO>
ST_1 : Operation 16 [1/1] (0.00ns)   --->   "%crop_data_data_strea_1 = alloca i8, align 1" [center_image/src/center_image.cpp:23]   --->   Operation 16 'alloca' 'crop_data_data_strea_1' <Predicate = true> <Delay = 0.00> <Core = "FIFO">   --->   Core 32 'FIFO' <Latency = 0> <II = 1> <Delay = 3.63> <Storage> <Opcode : 'read' 'write' 'nbread' 'nbwrite'> <Ports = 0> <Width = 8> <Depth = 2> <FIFO>
ST_1 : Operation 17 [1/1] (0.00ns)   --->   "%crop_data_data_strea_2 = alloca i8, align 1" [center_image/src/center_image.cpp:23]   --->   Operation 17 'alloca' 'crop_data_data_strea_2' <Predicate = true> <Delay = 0.00> <Core = "FIFO">   --->   Core 32 'FIFO' <Latency = 0> <II = 1> <Delay = 3.63> <Storage> <Opcode : 'read' 'write' 'nbread' 'nbwrite'> <Ports = 0> <Width = 8> <Depth = 2> <FIFO>

State 2 <SV = 1> <Delay = 0.00>
ST_2 : Operation 18 [2/2] (0.00ns)   --->   "call fastcc void @AXIvideo2Mat(i24* %image_in_V_data_V, i3* %image_in_V_keep_V, i3* %image_in_V_strb_V, i1* %image_in_V_user_V, i1* %image_in_V_last_V, i1* %image_in_V_id_V, i1* %image_in_V_dest_V, i8* %input_data_data_stre, i8* %input_data_data_stre_1, i8* %input_data_data_stre_2)" [center_image/src/center_image.cpp:30]   --->   Operation 18 'call' <Predicate = true> <Delay = 0.00> <CoreType = "Generic">   --->   Core 0 '' <Latency = 0> <II = 1> <Delay = 1.00> <Generic> <Opcode : >

State 3 <SV = 2> <Delay = 0.00>
ST_3 : Operation 19 [1/2] (0.00ns)   --->   "call fastcc void @AXIvideo2Mat(i24* %image_in_V_data_V, i3* %image_in_V_keep_V, i3* %image_in_V_strb_V, i1* %image_in_V_user_V, i1* %image_in_V_last_V, i1* %image_in_V_id_V, i1* %image_in_V_dest_V, i8* %input_data_data_stre, i8* %input_data_data_stre_1, i8* %input_data_data_stre_2)" [center_image/src/center_image.cpp:30]   --->   Operation 19 'call' <Predicate = true> <Delay = 0.00> <CoreType = "Generic">   --->   Core 0 '' <Latency = 0> <II = 1> <Delay = 1.00> <Generic> <Opcode : >

State 4 <SV = 3> <Delay = 0.00>
ST_4 : Operation 20 [2/2] (0.00ns)   --->   "call fastcc void @Loop_loop_height_pro(i8* %input_data_data_stre, i8* %input_data_data_stre_1, i8* %input_data_data_stre_2, i8* %passthrough_data_str, i8* %passthrough_data_str_1, i8* %passthrough_data_str_2, i8* %crop_data_data_strea, i8* %crop_data_data_strea_1, i8* %crop_data_data_strea_2)"   --->   Operation 20 'call' <Predicate = true> <Delay = 0.00> <CoreType = "Generic">   --->   Core 0 '' <Latency = 0> <II = 1> <Delay = 1.00> <Generic> <Opcode : >

State 5 <SV = 4> <Delay = 0.00>
ST_5 : Operation 21 [1/2] (0.00ns)   --->   "call fastcc void @Loop_loop_height_pro(i8* %input_data_data_stre, i8* %input_data_data_stre_1, i8* %input_data_data_stre_2, i8* %passthrough_data_str, i8* %passthrough_data_str_1, i8* %passthrough_data_str_2, i8* %crop_data_data_strea, i8* %crop_data_data_strea_1, i8* %crop_data_data_strea_2)"   --->   Operation 21 'call' <Predicate = true> <Delay = 0.00> <CoreType = "Generic">   --->   Core 0 '' <Latency = 0> <II = 1> <Delay = 1.00> <Generic> <Opcode : >

State 6 <SV = 5> <Delay = 0.00>
ST_6 : Operation 22 [2/2] (0.00ns)   --->   "call fastcc void @Mat2AXIvideo(i8* %passthrough_data_str, i8* %passthrough_data_str_1, i8* %passthrough_data_str_2, i24* %image_out_V_data_V, i3* %image_out_V_keep_V, i3* %image_out_V_strb_V, i1* %image_out_V_user_V, i1* %image_out_V_last_V, i1* %image_out_V_id_V, i1* %image_out_V_dest_V)" [center_image/src/center_image.cpp:58]   --->   Operation 22 'call' <Predicate = true> <Delay = 0.00> <CoreType = "Generic">   --->   Core 0 '' <Latency = 0> <II = 1> <Delay = 1.00> <Generic> <Opcode : >
ST_6 : Operation 23 [2/2] (0.00ns)   --->   "call fastcc void @Mat2AXIvideo.1(i8* %crop_data_data_strea, i8* %crop_data_data_strea_1, i8* %crop_data_data_strea_2, i24* %crop_out_V_data_V, i3* %crop_out_V_keep_V, i3* %crop_out_V_strb_V, i1* %crop_out_V_user_V, i1* %crop_out_V_last_V, i1* %crop_out_V_id_V, i1* %crop_out_V_dest_V)" [center_image/src/center_image.cpp:59]   --->   Operation 23 'call' <Predicate = true> <Delay = 0.00> <CoreType = "Generic">   --->   Core 0 '' <Latency = 0> <II = 1> <Delay = 1.00> <Generic> <Opcode : >

State 7 <SV = 6> <Delay = 0.00>
ST_7 : Operation 24 [1/2] (0.00ns)   --->   "call fastcc void @Mat2AXIvideo(i8* %passthrough_data_str, i8* %passthrough_data_str_1, i8* %passthrough_data_str_2, i24* %image_out_V_data_V, i3* %image_out_V_keep_V, i3* %image_out_V_strb_V, i1* %image_out_V_user_V, i1* %image_out_V_last_V, i1* %image_out_V_id_V, i1* %image_out_V_dest_V)" [center_image/src/center_image.cpp:58]   --->   Operation 24 'call' <Predicate = true> <Delay = 0.00> <CoreType = "Generic">   --->   Core 0 '' <Latency = 0> <II = 1> <Delay = 1.00> <Generic> <Opcode : >
ST_7 : Operation 25 [1/2] (0.00ns)   --->   "call fastcc void @Mat2AXIvideo.1(i8* %crop_data_data_strea, i8* %crop_data_data_strea_1, i8* %crop_data_data_strea_2, i24* %crop_out_V_data_V, i3* %crop_out_V_keep_V, i3* %crop_out_V_strb_V, i1* %crop_out_V_user_V, i1* %crop_out_V_last_V, i1* %crop_out_V_id_V, i1* %crop_out_V_dest_V)" [center_image/src/center_image.cpp:59]   --->   Operation 25 'call' <Predicate = true> <Delay = 0.00> <CoreType = "Generic">   --->   Core 0 '' <Latency = 0> <II = 1> <Delay = 1.00> <Generic> <Opcode : >

State 8 <SV = 7> <Delay = 0.00>
ST_8 : Operation 26 [1/1] (0.00ns)   --->   "call void (...)* @_ssdm_op_SpecDataflowPipeline(i32 -1, [1 x i8]* @p_str3) nounwind" [center_image/src/center_image.cpp:28]   --->   Operation 26 'specdataflowpipeline' <Predicate = true> <Delay = 0.00>
ST_8 : Operation 27 [1/1] (0.00ns)   --->   "call void (...)* @_ssdm_op_SpecBitsMap(i24* %image_in_V_data_V), !map !124"   --->   Operation 27 'specbitsmap' <Predicate = true> <Delay = 0.00>
ST_8 : Operation 28 [1/1] (0.00ns)   --->   "call void (...)* @_ssdm_op_SpecBitsMap(i3* %image_in_V_keep_V), !map !128"   --->   Operation 28 'specbitsmap' <Predicate = true> <Delay = 0.00>
ST_8 : Operation 29 [1/1] (0.00ns)   --->   "call void (...)* @_ssdm_op_SpecBitsMap(i3* %image_in_V_strb_V), !map !132"   --->   Operation 29 'specbitsmap' <Predicate = true> <Delay = 0.00>
ST_8 : Operation 30 [1/1] (0.00ns)   --->   "call void (...)* @_ssdm_op_SpecBitsMap(i1* %image_in_V_user_V), !map !136"   --->   Operation 30 'specbitsmap' <Predicate = true> <Delay = 0.00>
ST_8 : Operation 31 [1/1] (0.00ns)   --->   "call void (...)* @_ssdm_op_SpecBitsMap(i1* %image_in_V_last_V), !map !140"   --->   Operation 31 'specbitsmap' <Predicate = true> <Delay = 0.00>
ST_8 : Operation 32 [1/1] (0.00ns)   --->   "call void (...)* @_ssdm_op_SpecBitsMap(i1* %image_in_V_id_V), !map !144"   --->   Operation 32 'specbitsmap' <Predicate = true> <Delay = 0.00>
ST_8 : Operation 33 [1/1] (0.00ns)   --->   "call void (...)* @_ssdm_op_SpecBitsMap(i1* %image_in_V_dest_V), !map !148"   --->   Operation 33 'specbitsmap' <Predicate = true> <Delay = 0.00>
ST_8 : Operation 34 [1/1] (0.00ns)   --->   "call void (...)* @_ssdm_op_SpecBitsMap(i24* %image_out_V_data_V), !map !152"   --->   Operation 34 'specbitsmap' <Predicate = true> <Delay = 0.00>
ST_8 : Operation 35 [1/1] (0.00ns)   --->   "call void (...)* @_ssdm_op_SpecBitsMap(i3* %image_out_V_keep_V), !map !156"   --->   Operation 35 'specbitsmap' <Predicate = true> <Delay = 0.00>
ST_8 : Operation 36 [1/1] (0.00ns)   --->   "call void (...)* @_ssdm_op_SpecBitsMap(i3* %image_out_V_strb_V), !map !160"   --->   Operation 36 'specbitsmap' <Predicate = true> <Delay = 0.00>
ST_8 : Operation 37 [1/1] (0.00ns)   --->   "call void (...)* @_ssdm_op_SpecBitsMap(i1* %image_out_V_user_V), !map !164"   --->   Operation 37 'specbitsmap' <Predicate = true> <Delay = 0.00>
ST_8 : Operation 38 [1/1] (0.00ns)   --->   "call void (...)* @_ssdm_op_SpecBitsMap(i1* %image_out_V_last_V), !map !168"   --->   Operation 38 'specbitsmap' <Predicate = true> <Delay = 0.00>
ST_8 : Operation 39 [1/1] (0.00ns)   --->   "call void (...)* @_ssdm_op_SpecBitsMap(i1* %image_out_V_id_V), !map !172"   --->   Operation 39 'specbitsmap' <Predicate = true> <Delay = 0.00>
ST_8 : Operation 40 [1/1] (0.00ns)   --->   "call void (...)* @_ssdm_op_SpecBitsMap(i1* %image_out_V_dest_V), !map !176"   --->   Operation 40 'specbitsmap' <Predicate = true> <Delay = 0.00>
ST_8 : Operation 41 [1/1] (0.00ns)   --->   "call void (...)* @_ssdm_op_SpecBitsMap(i24* %crop_out_V_data_V), !map !180"   --->   Operation 41 'specbitsmap' <Predicate = true> <Delay = 0.00>
ST_8 : Operation 42 [1/1] (0.00ns)   --->   "call void (...)* @_ssdm_op_SpecBitsMap(i3* %crop_out_V_keep_V), !map !184"   --->   Operation 42 'specbitsmap' <Predicate = true> <Delay = 0.00>
ST_8 : Operation 43 [1/1] (0.00ns)   --->   "call void (...)* @_ssdm_op_SpecBitsMap(i3* %crop_out_V_strb_V), !map !188"   --->   Operation 43 'specbitsmap' <Predicate = true> <Delay = 0.00>
ST_8 : Operation 44 [1/1] (0.00ns)   --->   "call void (...)* @_ssdm_op_SpecBitsMap(i1* %crop_out_V_user_V), !map !192"   --->   Operation 44 'specbitsmap' <Predicate = true> <Delay = 0.00>
ST_8 : Operation 45 [1/1] (0.00ns)   --->   "call void (...)* @_ssdm_op_SpecBitsMap(i1* %crop_out_V_last_V), !map !196"   --->   Operation 45 'specbitsmap' <Predicate = true> <Delay = 0.00>
ST_8 : Operation 46 [1/1] (0.00ns)   --->   "call void (...)* @_ssdm_op_SpecBitsMap(i1* %crop_out_V_id_V), !map !200"   --->   Operation 46 'specbitsmap' <Predicate = true> <Delay = 0.00>
ST_8 : Operation 47 [1/1] (0.00ns)   --->   "call void (...)* @_ssdm_op_SpecBitsMap(i1* %crop_out_V_dest_V), !map !204"   --->   Operation 47 'specbitsmap' <Predicate = true> <Delay = 0.00>
ST_8 : Operation 48 [1/1] (0.00ns)   --->   "call void (...)* @_ssdm_op_SpecTopModule([13 x i8]* @center_image_str) nounwind"   --->   Operation 48 'spectopmodule' <Predicate = true> <Delay = 0.00>
ST_8 : Operation 49 [1/1] (0.00ns)   --->   "%empty = call i32 (...)* @_ssdm_op_SpecChannel([28 x i8]* @input_data_OC_data_s_2, i32 1, [1 x i8]* @p_str46, [1 x i8]* @p_str46, i32 2, i32 2, i8* %input_data_data_stre, i8* %input_data_data_stre)"   --->   Operation 49 'specchannel' 'empty' <Predicate = true> <Delay = 0.00>
ST_8 : Operation 50 [1/1] (0.00ns)   --->   "call void (...)* @_ssdm_op_SpecInterface(i8* %input_data_data_stre, [8 x i8]* @ap_fifo_str, i32 0, i32 0, [1 x i8]* @p_str47, i32 0, i32 0, [1 x i8]* @p_str48, [1 x i8]* @p_str49, [1 x i8]* @p_str50, i32 2, i32 2, i32 16, i32 16, [1 x i8]* @p_str51, [1 x i8]* @p_str52)"   --->   Operation 50 'specinterface' <Predicate = true> <Delay = 0.00>
ST_8 : Operation 51 [1/1] (0.00ns)   --->   "%empty_6 = call i32 (...)* @_ssdm_op_SpecChannel([28 x i8]* @input_data_OC_data_s_1, i32 1, [1 x i8]* @p_str53, [1 x i8]* @p_str53, i32 2, i32 2, i8* %input_data_data_stre_1, i8* %input_data_data_stre_1)"   --->   Operation 51 'specchannel' 'empty_6' <Predicate = true> <Delay = 0.00>
ST_8 : Operation 52 [1/1] (0.00ns)   --->   "call void (...)* @_ssdm_op_SpecInterface(i8* %input_data_data_stre_1, [8 x i8]* @ap_fifo_str, i32 0, i32 0, [1 x i8]* @p_str54, i32 0, i32 0, [1 x i8]* @p_str55, [1 x i8]* @p_str56, [1 x i8]* @p_str57, i32 2, i32 2, i32 16, i32 16, [1 x i8]* @p_str58, [1 x i8]* @p_str59)"   --->   Operation 52 'specinterface' <Predicate = true> <Delay = 0.00>
ST_8 : Operation 53 [1/1] (0.00ns)   --->   "%empty_7 = call i32 (...)* @_ssdm_op_SpecChannel([28 x i8]* @input_data_OC_data_s, i32 1, [1 x i8]* @p_str60, [1 x i8]* @p_str60, i32 2, i32 2, i8* %input_data_data_stre_2, i8* %input_data_data_stre_2)"   --->   Operation 53 'specchannel' 'empty_7' <Predicate = true> <Delay = 0.00>
ST_8 : Operation 54 [1/1] (0.00ns)   --->   "call void (...)* @_ssdm_op_SpecInterface(i8* %input_data_data_stre_2, [8 x i8]* @ap_fifo_str, i32 0, i32 0, [1 x i8]* @p_str61, i32 0, i32 0, [1 x i8]* @p_str62, [1 x i8]* @p_str63, [1 x i8]* @p_str64, i32 2, i32 2, i32 16, i32 16, [1 x i8]* @p_str65, [1 x i8]* @p_str66)"   --->   Operation 54 'specinterface' <Predicate = true> <Delay = 0.00>
ST_8 : Operation 55 [1/1] (0.00ns)   --->   "%empty_8 = call i32 (...)* @_ssdm_op_SpecChannel([29 x i8]* @passthrough_OC_data_2, i32 1, [1 x i8]* @p_str67, [1 x i8]* @p_str67, i32 2, i32 2, i8* %passthrough_data_str, i8* %passthrough_data_str)"   --->   Operation 55 'specchannel' 'empty_8' <Predicate = true> <Delay = 0.00>
ST_8 : Operation 56 [1/1] (0.00ns)   --->   "call void (...)* @_ssdm_op_SpecInterface(i8* %passthrough_data_str, [8 x i8]* @ap_fifo_str, i32 0, i32 0, [1 x i8]* @p_str68, i32 0, i32 0, [1 x i8]* @p_str69, [1 x i8]* @p_str70, [1 x i8]* @p_str71, i32 2, i32 2, i32 16, i32 16, [1 x i8]* @p_str72, [1 x i8]* @p_str73)"   --->   Operation 56 'specinterface' <Predicate = true> <Delay = 0.00>
ST_8 : Operation 57 [1/1] (0.00ns)   --->   "%empty_9 = call i32 (...)* @_ssdm_op_SpecChannel([29 x i8]* @passthrough_OC_data_1, i32 1, [1 x i8]* @p_str74, [1 x i8]* @p_str74, i32 2, i32 2, i8* %passthrough_data_str_1, i8* %passthrough_data_str_1)"   --->   Operation 57 'specchannel' 'empty_9' <Predicate = true> <Delay = 0.00>
ST_8 : Operation 58 [1/1] (0.00ns)   --->   "call void (...)* @_ssdm_op_SpecInterface(i8* %passthrough_data_str_1, [8 x i8]* @ap_fifo_str, i32 0, i32 0, [1 x i8]* @p_str75, i32 0, i32 0, [1 x i8]* @p_str76, [1 x i8]* @p_str77, [1 x i8]* @p_str78, i32 2, i32 2, i32 16, i32 16, [1 x i8]* @p_str79, [1 x i8]* @p_str80)"   --->   Operation 58 'specinterface' <Predicate = true> <Delay = 0.00>
ST_8 : Operation 59 [1/1] (0.00ns)   --->   "%empty_10 = call i32 (...)* @_ssdm_op_SpecChannel([29 x i8]* @passthrough_OC_data_s, i32 1, [1 x i8]* @p_str81, [1 x i8]* @p_str81, i32 2, i32 2, i8* %passthrough_data_str_2, i8* %passthrough_data_str_2)"   --->   Operation 59 'specchannel' 'empty_10' <Predicate = true> <Delay = 0.00>
ST_8 : Operation 60 [1/1] (0.00ns)   --->   "call void (...)* @_ssdm_op_SpecInterface(i8* %passthrough_data_str_2, [8 x i8]* @ap_fifo_str, i32 0, i32 0, [1 x i8]* @p_str82, i32 0, i32 0, [1 x i8]* @p_str83, [1 x i8]* @p_str84, [1 x i8]* @p_str85, i32 2, i32 2, i32 16, i32 16, [1 x i8]* @p_str86, [1 x i8]* @p_str87)"   --->   Operation 60 'specinterface' <Predicate = true> <Delay = 0.00>
ST_8 : Operation 61 [1/1] (0.00ns)   --->   "%empty_11 = call i32 (...)* @_ssdm_op_SpecChannel([27 x i8]* @crop_data_OC_data_st_2, i32 1, [1 x i8]* @p_str88, [1 x i8]* @p_str88, i32 2, i32 2, i8* %crop_data_data_strea, i8* %crop_data_data_strea)"   --->   Operation 61 'specchannel' 'empty_11' <Predicate = true> <Delay = 0.00>
ST_8 : Operation 62 [1/1] (0.00ns)   --->   "call void (...)* @_ssdm_op_SpecInterface(i8* %crop_data_data_strea, [8 x i8]* @ap_fifo_str, i32 0, i32 0, [1 x i8]* @p_str89, i32 0, i32 0, [1 x i8]* @p_str90, [1 x i8]* @p_str91, [1 x i8]* @p_str92, i32 2, i32 2, i32 16, i32 16, [1 x i8]* @p_str93, [1 x i8]* @p_str94)"   --->   Operation 62 'specinterface' <Predicate = true> <Delay = 0.00>
ST_8 : Operation 63 [1/1] (0.00ns)   --->   "%empty_12 = call i32 (...)* @_ssdm_op_SpecChannel([27 x i8]* @crop_data_OC_data_st_1, i32 1, [1 x i8]* @p_str95, [1 x i8]* @p_str95, i32 2, i32 2, i8* %crop_data_data_strea_1, i8* %crop_data_data_strea_1)"   --->   Operation 63 'specchannel' 'empty_12' <Predicate = true> <Delay = 0.00>
ST_8 : Operation 64 [1/1] (0.00ns)   --->   "call void (...)* @_ssdm_op_SpecInterface(i8* %crop_data_data_strea_1, [8 x i8]* @ap_fifo_str, i32 0, i32 0, [1 x i8]* @p_str96, i32 0, i32 0, [1 x i8]* @p_str97, [1 x i8]* @p_str98, [1 x i8]* @p_str99, i32 2, i32 2, i32 16, i32 16, [1 x i8]* @p_str100, [1 x i8]* @p_str101)"   --->   Operation 64 'specinterface' <Predicate = true> <Delay = 0.00>
ST_8 : Operation 65 [1/1] (0.00ns)   --->   "%empty_13 = call i32 (...)* @_ssdm_op_SpecChannel([27 x i8]* @crop_data_OC_data_st, i32 1, [1 x i8]* @p_str102, [1 x i8]* @p_str102, i32 2, i32 2, i8* %crop_data_data_strea_2, i8* %crop_data_data_strea_2)"   --->   Operation 65 'specchannel' 'empty_13' <Predicate = true> <Delay = 0.00>
ST_8 : Operation 66 [1/1] (0.00ns)   --->   "call void (...)* @_ssdm_op_SpecInterface(i8* %crop_data_data_strea_2, [8 x i8]* @ap_fifo_str, i32 0, i32 0, [1 x i8]* @p_str103, i32 0, i32 0, [1 x i8]* @p_str104, [1 x i8]* @p_str105, [1 x i8]* @p_str106, i32 2, i32 2, i32 16, i32 16, [1 x i8]* @p_str107, [1 x i8]* @p_str108)"   --->   Operation 66 'specinterface' <Predicate = true> <Delay = 0.00>
ST_8 : Operation 67 [1/1] (0.00ns)   --->   "call void (...)* @_ssdm_op_SpecInterface(i24* %image_in_V_data_V, i3* %image_in_V_keep_V, i3* %image_in_V_strb_V, i1* %image_in_V_user_V, i1* %image_in_V_last_V, i1* %image_in_V_id_V, i1* %image_in_V_dest_V, [5 x i8]* @p_str, i32 1, i32 1, [5 x i8]* @p_str2, i32 0, i32 0, [1 x i8]* @p_str3, [1 x i8]* @p_str3, [1 x i8]* @p_str3, i32 0, i32 0, i32 0, i32 0, [1 x i8]* @p_str3, [1 x i8]* @p_str3) nounwind" [center_image/src/center_image.cpp:16]   --->   Operation 67 'specinterface' <Predicate = true> <Delay = 0.00>
ST_8 : Operation 68 [1/1] (0.00ns)   --->   "call void (...)* @_ssdm_op_SpecInterface(i24* %image_out_V_data_V, i3* %image_out_V_keep_V, i3* %image_out_V_strb_V, i1* %image_out_V_user_V, i1* %image_out_V_last_V, i1* %image_out_V_id_V, i1* %image_out_V_dest_V, [5 x i8]* @p_str, i32 1, i32 1, [5 x i8]* @p_str2, i32 0, i32 0, [1 x i8]* @p_str3, [1 x i8]* @p_str3, [1 x i8]* @p_str3, i32 0, i32 0, i32 0, i32 0, [1 x i8]* @p_str3, [1 x i8]* @p_str3) nounwind" [center_image/src/center_image.cpp:17]   --->   Operation 68 'specinterface' <Predicate = true> <Delay = 0.00>
ST_8 : Operation 69 [1/1] (0.00ns)   --->   "call void (...)* @_ssdm_op_SpecInterface(i24* %crop_out_V_data_V, i3* %crop_out_V_keep_V, i3* %crop_out_V_strb_V, i1* %crop_out_V_user_V, i1* %crop_out_V_last_V, i1* %crop_out_V_id_V, i1* %crop_out_V_dest_V, [5 x i8]* @p_str, i32 1, i32 1, [5 x i8]* @p_str2, i32 0, i32 0, [1 x i8]* @p_str3, [1 x i8]* @p_str3, [1 x i8]* @p_str3, i32 0, i32 0, i32 0, i32 0, [1 x i8]* @p_str3, [1 x i8]* @p_str3) nounwind" [center_image/src/center_image.cpp:18]   --->   Operation 69 'specinterface' <Predicate = true> <Delay = 0.00>
ST_8 : Operation 70 [1/1] (0.00ns)   --->   "ret void" [center_image/src/center_image.cpp:118]   --->   Operation 70 'ret' <Predicate = true> <Delay = 0.00>


============================================================
+ Verbose Summary: Binding
============================================================
STG Binding: 
---------------- STG Properties BEGIN ----------------
- Is combinational: 0
- Is one-state seq: 0
- Is datapath-only: 0
- Is pipelined: 0
- Is top level: 1
Port [ Return ] is wired: 1; IO mode=ap_ctrl_hs:ce=0
Port [ image_in_V_data_V]:  wired=1; compound=1; hidden=0; nouse=0; global=0; static=0; extern=0; dir=0; type=0; pingpong=0; private_global=0; IO mode=axis:ce=0
Port [ image_in_V_keep_V]:  wired=1; compound=1; hidden=0; nouse=0; global=0; static=0; extern=0; dir=0; type=0; pingpong=0; private_global=0; IO mode=axis:ce=0
Port [ image_in_V_strb_V]:  wired=1; compound=1; hidden=0; nouse=0; global=0; static=0; extern=0; dir=0; type=0; pingpong=0; private_global=0; IO mode=axis:ce=0
Port [ image_in_V_user_V]:  wired=1; compound=1; hidden=0; nouse=0; global=0; static=0; extern=0; dir=0; type=0; pingpong=0; private_global=0; IO mode=axis:ce=0
Port [ image_in_V_last_V]:  wired=1; compound=1; hidden=0; nouse=0; global=0; static=0; extern=0; dir=0; type=0; pingpong=0; private_global=0; IO mode=axis:ce=0
Port [ image_in_V_id_V]:  wired=1; compound=1; hidden=0; nouse=0; global=0; static=0; extern=0; dir=0; type=0; pingpong=0; private_global=0; IO mode=axis:ce=0
Port [ image_in_V_dest_V]:  wired=1; compound=1; hidden=0; nouse=0; global=0; static=0; extern=0; dir=0; type=0; pingpong=0; private_global=0; IO mode=axis:ce=0
Port [ image_out_V_data_V]:  wired=1; compound=1; hidden=0; nouse=0; global=0; static=0; extern=0; dir=1; type=0; pingpong=0; private_global=0; IO mode=axis:ce=0
Port [ image_out_V_keep_V]:  wired=1; compound=1; hidden=0; nouse=0; global=0; static=0; extern=0; dir=1; type=0; pingpong=0; private_global=0; IO mode=axis:ce=0
Port [ image_out_V_strb_V]:  wired=1; compound=1; hidden=0; nouse=0; global=0; static=0; extern=0; dir=1; type=0; pingpong=0; private_global=0; IO mode=axis:ce=0
Port [ image_out_V_user_V]:  wired=1; compound=1; hidden=0; nouse=0; global=0; static=0; extern=0; dir=1; type=0; pingpong=0; private_global=0; IO mode=axis:ce=0
Port [ image_out_V_last_V]:  wired=1; compound=1; hidden=0; nouse=0; global=0; static=0; extern=0; dir=1; type=0; pingpong=0; private_global=0; IO mode=axis:ce=0
Port [ image_out_V_id_V]:  wired=1; compound=1; hidden=0; nouse=0; global=0; static=0; extern=0; dir=1; type=0; pingpong=0; private_global=0; IO mode=axis:ce=0
Port [ image_out_V_dest_V]:  wired=1; compound=1; hidden=0; nouse=0; global=0; static=0; extern=0; dir=1; type=0; pingpong=0; private_global=0; IO mode=axis:ce=0
Port [ crop_out_V_data_V]:  wired=1; compound=1; hidden=0; nouse=0; global=0; static=0; extern=0; dir=1; type=0; pingpong=0; private_global=0; IO mode=axis:ce=0
Port [ crop_out_V_keep_V]:  wired=1; compound=1; hidden=0; nouse=0; global=0; static=0; extern=0; dir=1; type=0; pingpong=0; private_global=0; IO mode=axis:ce=0
Port [ crop_out_V_strb_V]:  wired=1; compound=1; hidden=0; nouse=0; global=0; static=0; extern=0; dir=1; type=0; pingpong=0; private_global=0; IO mode=axis:ce=0
Port [ crop_out_V_user_V]:  wired=1; compound=1; hidden=0; nouse=0; global=0; static=0; extern=0; dir=1; type=0; pingpong=0; private_global=0; IO mode=axis:ce=0
Port [ crop_out_V_last_V]:  wired=1; compound=1; hidden=0; nouse=0; global=0; static=0; extern=0; dir=1; type=0; pingpong=0; private_global=0; IO mode=axis:ce=0
Port [ crop_out_V_id_V]:  wired=1; compound=1; hidden=0; nouse=0; global=0; static=0; extern=0; dir=1; type=0; pingpong=0; private_global=0; IO mode=axis:ce=0
Port [ crop_out_V_dest_V]:  wired=1; compound=1; hidden=0; nouse=0; global=0; static=0; extern=0; dir=1; type=0; pingpong=0; private_global=0; IO mode=axis:ce=0
---------------- STG Properties END ------------------

---------------- Datapath Model BEGIN ----------------

<LifeTime>
<method=bitvector/>
input_data_data_stre   (alloca              ) [ 001111111]
input_data_data_stre_1 (alloca              ) [ 001111111]
input_data_data_stre_2 (alloca              ) [ 001111111]
passthrough_data_str   (alloca              ) [ 001111111]
passthrough_data_str_1 (alloca              ) [ 001111111]
passthrough_data_str_2 (alloca              ) [ 001111111]
crop_data_data_strea   (alloca              ) [ 001111111]
crop_data_data_strea_1 (alloca              ) [ 001111111]
crop_data_data_strea_2 (alloca              ) [ 001111111]
StgValue_19            (call                ) [ 000000000]
StgValue_21            (call                ) [ 000000000]
StgValue_24            (call                ) [ 000000000]
StgValue_25            (call                ) [ 000000000]
StgValue_26            (specdataflowpipeline) [ 000000000]
StgValue_27            (specbitsmap         ) [ 000000000]
StgValue_28            (specbitsmap         ) [ 000000000]
StgValue_29            (specbitsmap         ) [ 000000000]
StgValue_30            (specbitsmap         ) [ 000000000]
StgValue_31            (specbitsmap         ) [ 000000000]
StgValue_32            (specbitsmap         ) [ 000000000]
StgValue_33            (specbitsmap         ) [ 000000000]
StgValue_34            (specbitsmap         ) [ 000000000]
StgValue_35            (specbitsmap         ) [ 000000000]
StgValue_36            (specbitsmap         ) [ 000000000]
StgValue_37            (specbitsmap         ) [ 000000000]
StgValue_38            (specbitsmap         ) [ 000000000]
StgValue_39            (specbitsmap         ) [ 000000000]
StgValue_40            (specbitsmap         ) [ 000000000]
StgValue_41            (specbitsmap         ) [ 000000000]
StgValue_42            (specbitsmap         ) [ 000000000]
StgValue_43            (specbitsmap         ) [ 000000000]
StgValue_44            (specbitsmap         ) [ 000000000]
StgValue_45            (specbitsmap         ) [ 000000000]
StgValue_46            (specbitsmap         ) [ 000000000]
StgValue_47            (specbitsmap         ) [ 000000000]
StgValue_48            (spectopmodule       ) [ 000000000]
empty                  (specchannel         ) [ 000000000]
StgValue_50            (specinterface       ) [ 000000000]
empty_6                (specchannel         ) [ 000000000]
StgValue_52            (specinterface       ) [ 000000000]
empty_7                (specchannel         ) [ 000000000]
StgValue_54            (specinterface       ) [ 000000000]
empty_8                (specchannel         ) [ 000000000]
StgValue_56            (specinterface       ) [ 000000000]
empty_9                (specchannel         ) [ 000000000]
StgValue_58            (specinterface       ) [ 000000000]
empty_10               (specchannel         ) [ 000000000]
StgValue_60            (specinterface       ) [ 000000000]
empty_11               (specchannel         ) [ 000000000]
StgValue_62            (specinterface       ) [ 000000000]
empty_12               (specchannel         ) [ 000000000]
StgValue_64            (specinterface       ) [ 000000000]
empty_13               (specchannel         ) [ 000000000]
StgValue_66            (specinterface       ) [ 000000000]
StgValue_67            (specinterface       ) [ 000000000]
StgValue_68            (specinterface       ) [ 000000000]
StgValue_69            (specinterface       ) [ 000000000]
StgValue_70            (ret                 ) [ 000000000]
</LifeTime>

<model>

<comp_list>
<comp id="0" class="1000" name="image_in_V_data_V">
<pin_list>
<pin id="1" dir="1" index="0" bw="1" slack="0"/>
</pin_list>
<bind>
<StgValue><ssdm name="image_in_V_data_V"/></StgValue>
</bind>
</comp>

<comp id="2" class="1000" name="image_in_V_keep_V">
<pin_list>
<pin id="3" dir="1" index="0" bw="1" slack="0"/>
</pin_list>
<bind>
<StgValue><ssdm name="image_in_V_keep_V"/></StgValue>
</bind>
</comp>

<comp id="4" class="1000" name="image_in_V_strb_V">
<pin_list>
<pin id="5" dir="1" index="0" bw="1" slack="0"/>
</pin_list>
<bind>
<StgValue><ssdm name="image_in_V_strb_V"/></StgValue>
</bind>
</comp>

<comp id="6" class="1000" name="image_in_V_user_V">
<pin_list>
<pin id="7" dir="1" index="0" bw="1" slack="0"/>
</pin_list>
<bind>
<StgValue><ssdm name="image_in_V_user_V"/></StgValue>
</bind>
</comp>

<comp id="8" class="1000" name="image_in_V_last_V">
<pin_list>
<pin id="9" dir="1" index="0" bw="1" slack="0"/>
</pin_list>
<bind>
<StgValue><ssdm name="image_in_V_last_V"/></StgValue>
</bind>
</comp>

<comp id="10" class="1000" name="image_in_V_id_V">
<pin_list>
<pin id="11" dir="1" index="0" bw="1" slack="0"/>
</pin_list>
<bind>
<StgValue><ssdm name="image_in_V_id_V"/></StgValue>
</bind>
</comp>

<comp id="12" class="1000" name="image_in_V_dest_V">
<pin_list>
<pin id="13" dir="1" index="0" bw="1" slack="0"/>
</pin_list>
<bind>
<StgValue><ssdm name="image_in_V_dest_V"/></StgValue>
</bind>
</comp>

<comp id="14" class="1000" name="image_out_V_data_V">
<pin_list>
<pin id="15" dir="1" index="0" bw="1" slack="0"/>
</pin_list>
<bind>
<StgValue><ssdm name="image_out_V_data_V"/></StgValue>
</bind>
</comp>

<comp id="16" class="1000" name="image_out_V_keep_V">
<pin_list>
<pin id="17" dir="1" index="0" bw="1" slack="0"/>
</pin_list>
<bind>
<StgValue><ssdm name="image_out_V_keep_V"/></StgValue>
</bind>
</comp>

<comp id="18" class="1000" name="image_out_V_strb_V">
<pin_list>
<pin id="19" dir="1" index="0" bw="1" slack="0"/>
</pin_list>
<bind>
<StgValue><ssdm name="image_out_V_strb_V"/></StgValue>
</bind>
</comp>

<comp id="20" class="1000" name="image_out_V_user_V">
<pin_list>
<pin id="21" dir="1" index="0" bw="1" slack="0"/>
</pin_list>
<bind>
<StgValue><ssdm name="image_out_V_user_V"/></StgValue>
</bind>
</comp>

<comp id="22" class="1000" name="image_out_V_last_V">
<pin_list>
<pin id="23" dir="1" index="0" bw="1" slack="0"/>
</pin_list>
<bind>
<StgValue><ssdm name="image_out_V_last_V"/></StgValue>
</bind>
</comp>

<comp id="24" class="1000" name="image_out_V_id_V">
<pin_list>
<pin id="25" dir="1" index="0" bw="1" slack="0"/>
</pin_list>
<bind>
<StgValue><ssdm name="image_out_V_id_V"/></StgValue>
</bind>
</comp>

<comp id="26" class="1000" name="image_out_V_dest_V">
<pin_list>
<pin id="27" dir="1" index="0" bw="1" slack="0"/>
</pin_list>
<bind>
<StgValue><ssdm name="image_out_V_dest_V"/></StgValue>
</bind>
</comp>

<comp id="28" class="1000" name="crop_out_V_data_V">
<pin_list>
<pin id="29" dir="1" index="0" bw="1" slack="0"/>
</pin_list>
<bind>
<StgValue><ssdm name="crop_out_V_data_V"/></StgValue>
</bind>
</comp>

<comp id="30" class="1000" name="crop_out_V_keep_V">
<pin_list>
<pin id="31" dir="1" index="0" bw="1" slack="0"/>
</pin_list>
<bind>
<StgValue><ssdm name="crop_out_V_keep_V"/></StgValue>
</bind>
</comp>

<comp id="32" class="1000" name="crop_out_V_strb_V">
<pin_list>
<pin id="33" dir="1" index="0" bw="1" slack="0"/>
</pin_list>
<bind>
<StgValue><ssdm name="crop_out_V_strb_V"/></StgValue>
</bind>
</comp>

<comp id="34" class="1000" name="crop_out_V_user_V">
<pin_list>
<pin id="35" dir="1" index="0" bw="1" slack="0"/>
</pin_list>
<bind>
<StgValue><ssdm name="crop_out_V_user_V"/></StgValue>
</bind>
</comp>

<comp id="36" class="1000" name="crop_out_V_last_V">
<pin_list>
<pin id="37" dir="1" index="0" bw="1" slack="0"/>
</pin_list>
<bind>
<StgValue><ssdm name="crop_out_V_last_V"/></StgValue>
</bind>
</comp>

<comp id="38" class="1000" name="crop_out_V_id_V">
<pin_list>
<pin id="39" dir="1" index="0" bw="1" slack="0"/>
</pin_list>
<bind>
<StgValue><ssdm name="crop_out_V_id_V"/></StgValue>
</bind>
</comp>

<comp id="40" class="1000" name="crop_out_V_dest_V">
<pin_list>
<pin id="41" dir="1" index="0" bw="1" slack="0"/>
</pin_list>
<bind>
<StgValue><ssdm name="crop_out_V_dest_V"/></StgValue>
</bind>
</comp>

<comp id="42" class="1001" name="const_42">
<pin_list>
<pin id="43" dir="1" index="0" bw="1" slack="0"/>
</pin_list>
<bind>
<StgValue><ssdm name=""/></StgValue>
</bind>
</comp>

<comp id="44" class="1001" name="const_44">
<pin_list>
<pin id="45" dir="1" index="0" bw="1" slack="0"/>
</pin_list>
<bind>
<StgValue><ssdm name="AXIvideo2Mat"/></StgValue>
</bind>
</comp>

<comp id="46" class="1001" name="const_46">
<pin_list>
<pin id="47" dir="1" index="0" bw="1" slack="0"/>
</pin_list>
<bind>
<StgValue><ssdm name="Loop_loop_height_pro"/></StgValue>
</bind>
</comp>

<comp id="48" class="1001" name="const_48">
<pin_list>
<pin id="49" dir="1" index="0" bw="1" slack="0"/>
</pin_list>
<bind>
<StgValue><ssdm name="Mat2AXIvideo"/></StgValue>
</bind>
</comp>

<comp id="50" class="1001" name="const_50">
<pin_list>
<pin id="51" dir="1" index="0" bw="1" slack="0"/>
</pin_list>
<bind>
<StgValue><ssdm name="Mat2AXIvideo.1"/></StgValue>
</bind>
</comp>

<comp id="52" class="1001" name="const_52">
<pin_list>
<pin id="53" dir="1" index="0" bw="1" slack="2147483647"/>
</pin_list>
<bind>
<StgValue><ssdm name="_ssdm_op_SpecDataflowPipeline"/></StgValue>
</bind>
</comp>

<comp id="54" class="1001" name="const_54">
<pin_list>
<pin id="55" dir="1" index="0" bw="1" slack="2147483647"/>
</pin_list>
<bind>
<StgValue><ssdm name=""/></StgValue>
</bind>
</comp>

<comp id="56" class="1001" name="const_56">
<pin_list>
<pin id="57" dir="1" index="0" bw="1" slack="2147483647"/>
</pin_list>
<bind>
<StgValue><ssdm name="p_str3"/></StgValue>
</bind>
</comp>

<comp id="58" class="1001" name="const_58">
<pin_list>
<pin id="59" dir="1" index="0" bw="1" slack="2147483647"/>
</pin_list>
<bind>
<StgValue><ssdm name="_ssdm_op_SpecBitsMap"/></StgValue>
</bind>
</comp>

<comp id="60" class="1001" name="const_60">
<pin_list>
<pin id="61" dir="1" index="0" bw="1" slack="2147483647"/>
</pin_list>
<bind>
<StgValue><ssdm name="_ssdm_op_SpecTopModule"/></StgValue>
</bind>
</comp>

<comp id="62" class="1001" name="const_62">
<pin_list>
<pin id="63" dir="1" index="0" bw="1" slack="2147483647"/>
</pin_list>
<bind>
<StgValue><ssdm name="center_image_str"/></StgValue>
</bind>
</comp>

<comp id="64" class="1001" name="const_64">
<pin_list>
<pin id="65" dir="1" index="0" bw="1" slack="2147483647"/>
</pin_list>
<bind>
<StgValue><ssdm name="_ssdm_op_SpecChannel"/></StgValue>
</bind>
</comp>

<comp id="66" class="1001" name="const_66">
<pin_list>
<pin id="67" dir="1" index="0" bw="1" slack="2147483647"/>
</pin_list>
<bind>
<StgValue><ssdm name="input_data_OC_data_s_2"/></StgValue>
</bind>
</comp>

<comp id="68" class="1001" name="const_68">
<pin_list>
<pin id="69" dir="1" index="0" bw="1" slack="2147483647"/>
</pin_list>
<bind>
<StgValue><ssdm name=""/></StgValue>
</bind>
</comp>

<comp id="70" class="1001" name="const_70">
<pin_list>
<pin id="71" dir="1" index="0" bw="1" slack="2147483647"/>
</pin_list>
<bind>
<StgValue><ssdm name="p_str46"/></StgValue>
</bind>
</comp>

<comp id="72" class="1001" name="const_72">
<pin_list>
<pin id="73" dir="1" index="0" bw="1" slack="2147483647"/>
</pin_list>
<bind>
<StgValue><ssdm name=""/></StgValue>
</bind>
</comp>

<comp id="74" class="1001" name="const_74">
<pin_list>
<pin id="75" dir="1" index="0" bw="1" slack="2147483647"/>
</pin_list>
<bind>
<StgValue><ssdm name="_ssdm_op_SpecInterface"/></StgValue>
</bind>
</comp>

<comp id="76" class="1001" name="const_76">
<pin_list>
<pin id="77" dir="1" index="0" bw="1" slack="2147483647"/>
</pin_list>
<bind>
<StgValue><ssdm name="ap_fifo_str"/></StgValue>
</bind>
</comp>

<comp id="78" class="1001" name="const_78">
<pin_list>
<pin id="79" dir="1" index="0" bw="1" slack="2147483647"/>
</pin_list>
<bind>
<StgValue><ssdm name=""/></StgValue>
</bind>
</comp>

<comp id="80" class="1001" name="const_80">
<pin_list>
<pin id="81" dir="1" index="0" bw="1" slack="2147483647"/>
</pin_list>
<bind>
<StgValue><ssdm name="p_str47"/></StgValue>
</bind>
</comp>

<comp id="82" class="1001" name="const_82">
<pin_list>
<pin id="83" dir="1" index="0" bw="1" slack="2147483647"/>
</pin_list>
<bind>
<StgValue><ssdm name="p_str48"/></StgValue>
</bind>
</comp>

<comp id="84" class="1001" name="const_84">
<pin_list>
<pin id="85" dir="1" index="0" bw="1" slack="2147483647"/>
</pin_list>
<bind>
<StgValue><ssdm name="p_str49"/></StgValue>
</bind>
</comp>

<comp id="86" class="1001" name="const_86">
<pin_list>
<pin id="87" dir="1" index="0" bw="1" slack="2147483647"/>
</pin_list>
<bind>
<StgValue><ssdm name="p_str50"/></StgValue>
</bind>
</comp>

<comp id="88" class="1001" name="const_88">
<pin_list>
<pin id="89" dir="1" index="0" bw="1" slack="2147483647"/>
</pin_list>
<bind>
<StgValue><ssdm name=""/></StgValue>
</bind>
</comp>

<comp id="90" class="1001" name="const_90">
<pin_list>
<pin id="91" dir="1" index="0" bw="1" slack="2147483647"/>
</pin_list>
<bind>
<StgValue><ssdm name="p_str51"/></StgValue>
</bind>
</comp>

<comp id="92" class="1001" name="const_92">
<pin_list>
<pin id="93" dir="1" index="0" bw="1" slack="2147483647"/>
</pin_list>
<bind>
<StgValue><ssdm name="p_str52"/></StgValue>
</bind>
</comp>

<comp id="94" class="1001" name="const_94">
<pin_list>
<pin id="95" dir="1" index="0" bw="1" slack="2147483647"/>
</pin_list>
<bind>
<StgValue><ssdm name="input_data_OC_data_s_1"/></StgValue>
</bind>
</comp>

<comp id="96" class="1001" name="const_96">
<pin_list>
<pin id="97" dir="1" index="0" bw="1" slack="2147483647"/>
</pin_list>
<bind>
<StgValue><ssdm name="p_str53"/></StgValue>
</bind>
</comp>

<comp id="98" class="1001" name="const_98">
<pin_list>
<pin id="99" dir="1" index="0" bw="1" slack="2147483647"/>
</pin_list>
<bind>
<StgValue><ssdm name="p_str54"/></StgValue>
</bind>
</comp>

<comp id="100" class="1001" name="const_100">
<pin_list>
<pin id="101" dir="1" index="0" bw="1" slack="2147483647"/>
</pin_list>
<bind>
<StgValue><ssdm name="p_str55"/></StgValue>
</bind>
</comp>

<comp id="102" class="1001" name="const_102">
<pin_list>
<pin id="103" dir="1" index="0" bw="1" slack="2147483647"/>
</pin_list>
<bind>
<StgValue><ssdm name="p_str56"/></StgValue>
</bind>
</comp>

<comp id="104" class="1001" name="const_104">
<pin_list>
<pin id="105" dir="1" index="0" bw="1" slack="2147483647"/>
</pin_list>
<bind>
<StgValue><ssdm name="p_str57"/></StgValue>
</bind>
</comp>

<comp id="106" class="1001" name="const_106">
<pin_list>
<pin id="107" dir="1" index="0" bw="1" slack="2147483647"/>
</pin_list>
<bind>
<StgValue><ssdm name="p_str58"/></StgValue>
</bind>
</comp>

<comp id="108" class="1001" name="const_108">
<pin_list>
<pin id="109" dir="1" index="0" bw="1" slack="2147483647"/>
</pin_list>
<bind>
<StgValue><ssdm name="p_str59"/></StgValue>
</bind>
</comp>

<comp id="110" class="1001" name="const_110">
<pin_list>
<pin id="111" dir="1" index="0" bw="1" slack="2147483647"/>
</pin_list>
<bind>
<StgValue><ssdm name="input_data_OC_data_s"/></StgValue>
</bind>
</comp>

<comp id="112" class="1001" name="const_112">
<pin_list>
<pin id="113" dir="1" index="0" bw="1" slack="2147483647"/>
</pin_list>
<bind>
<StgValue><ssdm name="p_str60"/></StgValue>
</bind>
</comp>

<comp id="114" class="1001" name="const_114">
<pin_list>
<pin id="115" dir="1" index="0" bw="1" slack="2147483647"/>
</pin_list>
<bind>
<StgValue><ssdm name="p_str61"/></StgValue>
</bind>
</comp>

<comp id="116" class="1001" name="const_116">
<pin_list>
<pin id="117" dir="1" index="0" bw="1" slack="2147483647"/>
</pin_list>
<bind>
<StgValue><ssdm name="p_str62"/></StgValue>
</bind>
</comp>

<comp id="118" class="1001" name="const_118">
<pin_list>
<pin id="119" dir="1" index="0" bw="1" slack="2147483647"/>
</pin_list>
<bind>
<StgValue><ssdm name="p_str63"/></StgValue>
</bind>
</comp>

<comp id="120" class="1001" name="const_120">
<pin_list>
<pin id="121" dir="1" index="0" bw="1" slack="2147483647"/>
</pin_list>
<bind>
<StgValue><ssdm name="p_str64"/></StgValue>
</bind>
</comp>

<comp id="122" class="1001" name="const_122">
<pin_list>
<pin id="123" dir="1" index="0" bw="1" slack="2147483647"/>
</pin_list>
<bind>
<StgValue><ssdm name="p_str65"/></StgValue>
</bind>
</comp>

<comp id="124" class="1001" name="const_124">
<pin_list>
<pin id="125" dir="1" index="0" bw="1" slack="2147483647"/>
</pin_list>
<bind>
<StgValue><ssdm name="p_str66"/></StgValue>
</bind>
</comp>

<comp id="126" class="1001" name="const_126">
<pin_list>
<pin id="127" dir="1" index="0" bw="1" slack="2147483647"/>
</pin_list>
<bind>
<StgValue><ssdm name="passthrough_OC_data_2"/></StgValue>
</bind>
</comp>

<comp id="128" class="1001" name="const_128">
<pin_list>
<pin id="129" dir="1" index="0" bw="1" slack="2147483647"/>
</pin_list>
<bind>
<StgValue><ssdm name="p_str67"/></StgValue>
</bind>
</comp>

<comp id="130" class="1001" name="const_130">
<pin_list>
<pin id="131" dir="1" index="0" bw="1" slack="2147483647"/>
</pin_list>
<bind>
<StgValue><ssdm name="p_str68"/></StgValue>
</bind>
</comp>

<comp id="132" class="1001" name="const_132">
<pin_list>
<pin id="133" dir="1" index="0" bw="1" slack="2147483647"/>
</pin_list>
<bind>
<StgValue><ssdm name="p_str69"/></StgValue>
</bind>
</comp>

<comp id="134" class="1001" name="const_134">
<pin_list>
<pin id="135" dir="1" index="0" bw="1" slack="2147483647"/>
</pin_list>
<bind>
<StgValue><ssdm name="p_str70"/></StgValue>
</bind>
</comp>

<comp id="136" class="1001" name="const_136">
<pin_list>
<pin id="137" dir="1" index="0" bw="1" slack="2147483647"/>
</pin_list>
<bind>
<StgValue><ssdm name="p_str71"/></StgValue>
</bind>
</comp>

<comp id="138" class="1001" name="const_138">
<pin_list>
<pin id="139" dir="1" index="0" bw="1" slack="2147483647"/>
</pin_list>
<bind>
<StgValue><ssdm name="p_str72"/></StgValue>
</bind>
</comp>

<comp id="140" class="1001" name="const_140">
<pin_list>
<pin id="141" dir="1" index="0" bw="1" slack="2147483647"/>
</pin_list>
<bind>
<StgValue><ssdm name="p_str73"/></StgValue>
</bind>
</comp>

<comp id="142" class="1001" name="const_142">
<pin_list>
<pin id="143" dir="1" index="0" bw="1" slack="2147483647"/>
</pin_list>
<bind>
<StgValue><ssdm name="passthrough_OC_data_1"/></StgValue>
</bind>
</comp>

<comp id="144" class="1001" name="const_144">
<pin_list>
<pin id="145" dir="1" index="0" bw="1" slack="2147483647"/>
</pin_list>
<bind>
<StgValue><ssdm name="p_str74"/></StgValue>
</bind>
</comp>

<comp id="146" class="1001" name="const_146">
<pin_list>
<pin id="147" dir="1" index="0" bw="1" slack="2147483647"/>
</pin_list>
<bind>
<StgValue><ssdm name="p_str75"/></StgValue>
</bind>
</comp>

<comp id="148" class="1001" name="const_148">
<pin_list>
<pin id="149" dir="1" index="0" bw="1" slack="2147483647"/>
</pin_list>
<bind>
<StgValue><ssdm name="p_str76"/></StgValue>
</bind>
</comp>

<comp id="150" class="1001" name="const_150">
<pin_list>
<pin id="151" dir="1" index="0" bw="1" slack="2147483647"/>
</pin_list>
<bind>
<StgValue><ssdm name="p_str77"/></StgValue>
</bind>
</comp>

<comp id="152" class="1001" name="const_152">
<pin_list>
<pin id="153" dir="1" index="0" bw="1" slack="2147483647"/>
</pin_list>
<bind>
<StgValue><ssdm name="p_str78"/></StgValue>
</bind>
</comp>

<comp id="154" class="1001" name="const_154">
<pin_list>
<pin id="155" dir="1" index="0" bw="1" slack="2147483647"/>
</pin_list>
<bind>
<StgValue><ssdm name="p_str79"/></StgValue>
</bind>
</comp>

<comp id="156" class="1001" name="const_156">
<pin_list>
<pin id="157" dir="1" index="0" bw="1" slack="2147483647"/>
</pin_list>
<bind>
<StgValue><ssdm name="p_str80"/></StgValue>
</bind>
</comp>

<comp id="158" class="1001" name="const_158">
<pin_list>
<pin id="159" dir="1" index="0" bw="1" slack="2147483647"/>
</pin_list>
<bind>
<StgValue><ssdm name="passthrough_OC_data_s"/></StgValue>
</bind>
</comp>

<comp id="160" class="1001" name="const_160">
<pin_list>
<pin id="161" dir="1" index="0" bw="1" slack="2147483647"/>
</pin_list>
<bind>
<StgValue><ssdm name="p_str81"/></StgValue>
</bind>
</comp>

<comp id="162" class="1001" name="const_162">
<pin_list>
<pin id="163" dir="1" index="0" bw="1" slack="2147483647"/>
</pin_list>
<bind>
<StgValue><ssdm name="p_str82"/></StgValue>
</bind>
</comp>

<comp id="164" class="1001" name="const_164">
<pin_list>
<pin id="165" dir="1" index="0" bw="1" slack="2147483647"/>
</pin_list>
<bind>
<StgValue><ssdm name="p_str83"/></StgValue>
</bind>
</comp>

<comp id="166" class="1001" name="const_166">
<pin_list>
<pin id="167" dir="1" index="0" bw="1" slack="2147483647"/>
</pin_list>
<bind>
<StgValue><ssdm name="p_str84"/></StgValue>
</bind>
</comp>

<comp id="168" class="1001" name="const_168">
<pin_list>
<pin id="169" dir="1" index="0" bw="1" slack="2147483647"/>
</pin_list>
<bind>
<StgValue><ssdm name="p_str85"/></StgValue>
</bind>
</comp>

<comp id="170" class="1001" name="const_170">
<pin_list>
<pin id="171" dir="1" index="0" bw="1" slack="2147483647"/>
</pin_list>
<bind>
<StgValue><ssdm name="p_str86"/></StgValue>
</bind>
</comp>

<comp id="172" class="1001" name="const_172">
<pin_list>
<pin id="173" dir="1" index="0" bw="1" slack="2147483647"/>
</pin_list>
<bind>
<StgValue><ssdm name="p_str87"/></StgValue>
</bind>
</comp>

<comp id="174" class="1001" name="const_174">
<pin_list>
<pin id="175" dir="1" index="0" bw="1" slack="2147483647"/>
</pin_list>
<bind>
<StgValue><ssdm name="crop_data_OC_data_st_2"/></StgValue>
</bind>
</comp>

<comp id="176" class="1001" name="const_176">
<pin_list>
<pin id="177" dir="1" index="0" bw="1" slack="2147483647"/>
</pin_list>
<bind>
<StgValue><ssdm name="p_str88"/></StgValue>
</bind>
</comp>

<comp id="178" class="1001" name="const_178">
<pin_list>
<pin id="179" dir="1" index="0" bw="1" slack="2147483647"/>
</pin_list>
<bind>
<StgValue><ssdm name="p_str89"/></StgValue>
</bind>
</comp>

<comp id="180" class="1001" name="const_180">
<pin_list>
<pin id="181" dir="1" index="0" bw="1" slack="2147483647"/>
</pin_list>
<bind>
<StgValue><ssdm name="p_str90"/></StgValue>
</bind>
</comp>

<comp id="182" class="1001" name="const_182">
<pin_list>
<pin id="183" dir="1" index="0" bw="1" slack="2147483647"/>
</pin_list>
<bind>
<StgValue><ssdm name="p_str91"/></StgValue>
</bind>
</comp>

<comp id="184" class="1001" name="const_184">
<pin_list>
<pin id="185" dir="1" index="0" bw="1" slack="2147483647"/>
</pin_list>
<bind>
<StgValue><ssdm name="p_str92"/></StgValue>
</bind>
</comp>

<comp id="186" class="1001" name="const_186">
<pin_list>
<pin id="187" dir="1" index="0" bw="1" slack="2147483647"/>
</pin_list>
<bind>
<StgValue><ssdm name="p_str93"/></StgValue>
</bind>
</comp>

<comp id="188" class="1001" name="const_188">
<pin_list>
<pin id="189" dir="1" index="0" bw="1" slack="2147483647"/>
</pin_list>
<bind>
<StgValue><ssdm name="p_str94"/></StgValue>
</bind>
</comp>

<comp id="190" class="1001" name="const_190">
<pin_list>
<pin id="191" dir="1" index="0" bw="1" slack="2147483647"/>
</pin_list>
<bind>
<StgValue><ssdm name="crop_data_OC_data_st_1"/></StgValue>
</bind>
</comp>

<comp id="192" class="1001" name="const_192">
<pin_list>
<pin id="193" dir="1" index="0" bw="1" slack="2147483647"/>
</pin_list>
<bind>
<StgValue><ssdm name="p_str95"/></StgValue>
</bind>
</comp>

<comp id="194" class="1001" name="const_194">
<pin_list>
<pin id="195" dir="1" index="0" bw="1" slack="2147483647"/>
</pin_list>
<bind>
<StgValue><ssdm name="p_str96"/></StgValue>
</bind>
</comp>

<comp id="196" class="1001" name="const_196">
<pin_list>
<pin id="197" dir="1" index="0" bw="1" slack="2147483647"/>
</pin_list>
<bind>
<StgValue><ssdm name="p_str97"/></StgValue>
</bind>
</comp>

<comp id="198" class="1001" name="const_198">
<pin_list>
<pin id="199" dir="1" index="0" bw="1" slack="2147483647"/>
</pin_list>
<bind>
<StgValue><ssdm name="p_str98"/></StgValue>
</bind>
</comp>

<comp id="200" class="1001" name="const_200">
<pin_list>
<pin id="201" dir="1" index="0" bw="1" slack="2147483647"/>
</pin_list>
<bind>
<StgValue><ssdm name="p_str99"/></StgValue>
</bind>
</comp>

<comp id="202" class="1001" name="const_202">
<pin_list>
<pin id="203" dir="1" index="0" bw="1" slack="2147483647"/>
</pin_list>
<bind>
<StgValue><ssdm name="p_str100"/></StgValue>
</bind>
</comp>

<comp id="204" class="1001" name="const_204">
<pin_list>
<pin id="205" dir="1" index="0" bw="1" slack="2147483647"/>
</pin_list>
<bind>
<StgValue><ssdm name="p_str101"/></StgValue>
</bind>
</comp>

<comp id="206" class="1001" name="const_206">
<pin_list>
<pin id="207" dir="1" index="0" bw="1" slack="2147483647"/>
</pin_list>
<bind>
<StgValue><ssdm name="crop_data_OC_data_st"/></StgValue>
</bind>
</comp>

<comp id="208" class="1001" name="const_208">
<pin_list>
<pin id="209" dir="1" index="0" bw="1" slack="2147483647"/>
</pin_list>
<bind>
<StgValue><ssdm name="p_str102"/></StgValue>
</bind>
</comp>

<comp id="210" class="1001" name="const_210">
<pin_list>
<pin id="211" dir="1" index="0" bw="1" slack="2147483647"/>
</pin_list>
<bind>
<StgValue><ssdm name="p_str103"/></StgValue>
</bind>
</comp>

<comp id="212" class="1001" name="const_212">
<pin_list>
<pin id="213" dir="1" index="0" bw="1" slack="2147483647"/>
</pin_list>
<bind>
<StgValue><ssdm name="p_str104"/></StgValue>
</bind>
</comp>

<comp id="214" class="1001" name="const_214">
<pin_list>
<pin id="215" dir="1" index="0" bw="1" slack="2147483647"/>
</pin_list>
<bind>
<StgValue><ssdm name="p_str105"/></StgValue>
</bind>
</comp>

<comp id="216" class="1001" name="const_216">
<pin_list>
<pin id="217" dir="1" index="0" bw="1" slack="2147483647"/>
</pin_list>
<bind>
<StgValue><ssdm name="p_str106"/></StgValue>
</bind>
</comp>

<comp id="218" class="1001" name="const_218">
<pin_list>
<pin id="219" dir="1" index="0" bw="1" slack="2147483647"/>
</pin_list>
<bind>
<StgValue><ssdm name="p_str107"/></StgValue>
</bind>
</comp>

<comp id="220" class="1001" name="const_220">
<pin_list>
<pin id="221" dir="1" index="0" bw="1" slack="2147483647"/>
</pin_list>
<bind>
<StgValue><ssdm name="p_str108"/></StgValue>
</bind>
</comp>

<comp id="222" class="1001" name="const_222">
<pin_list>
<pin id="223" dir="1" index="0" bw="1" slack="2147483647"/>
</pin_list>
<bind>
<StgValue><ssdm name="p_str"/></StgValue>
</bind>
</comp>

<comp id="224" class="1001" name="const_224">
<pin_list>
<pin id="225" dir="1" index="0" bw="1" slack="2147483647"/>
</pin_list>
<bind>
<StgValue><ssdm name="p_str2"/></StgValue>
</bind>
</comp>

<comp id="226" class="1004" name="input_data_data_stre_fu_226">
<pin_list>
<pin id="227" dir="0" index="0" bw="1" slack="0"/>
<pin id="228" dir="1" index="1" bw="8" slack="1"/>
</pin_list>
<bind>
<opcode="alloca(26) " fcode="alloca"/>
<opset="input_data_data_stre/1 "/>
</bind>
</comp>

<comp id="230" class="1004" name="input_data_data_stre_1_fu_230">
<pin_list>
<pin id="231" dir="0" index="0" bw="1" slack="0"/>
<pin id="232" dir="1" index="1" bw="8" slack="1"/>
</pin_list>
<bind>
<opcode="alloca(26) " fcode="alloca"/>
<opset="input_data_data_stre_1/1 "/>
</bind>
</comp>

<comp id="234" class="1004" name="input_data_data_stre_2_fu_234">
<pin_list>
<pin id="235" dir="0" index="0" bw="1" slack="0"/>
<pin id="236" dir="1" index="1" bw="8" slack="1"/>
</pin_list>
<bind>
<opcode="alloca(26) " fcode="alloca"/>
<opset="input_data_data_stre_2/1 "/>
</bind>
</comp>

<comp id="238" class="1004" name="passthrough_data_str_fu_238">
<pin_list>
<pin id="239" dir="0" index="0" bw="1" slack="0"/>
<pin id="240" dir="1" index="1" bw="8" slack="3"/>
</pin_list>
<bind>
<opcode="alloca(26) " fcode="alloca"/>
<opset="passthrough_data_str/1 "/>
</bind>
</comp>

<comp id="242" class="1004" name="passthrough_data_str_1_fu_242">
<pin_list>
<pin id="243" dir="0" index="0" bw="1" slack="0"/>
<pin id="244" dir="1" index="1" bw="8" slack="3"/>
</pin_list>
<bind>
<opcode="alloca(26) " fcode="alloca"/>
<opset="passthrough_data_str_1/1 "/>
</bind>
</comp>

<comp id="246" class="1004" name="passthrough_data_str_2_fu_246">
<pin_list>
<pin id="247" dir="0" index="0" bw="1" slack="0"/>
<pin id="248" dir="1" index="1" bw="8" slack="3"/>
</pin_list>
<bind>
<opcode="alloca(26) " fcode="alloca"/>
<opset="passthrough_data_str_2/1 "/>
</bind>
</comp>

<comp id="250" class="1004" name="crop_data_data_strea_fu_250">
<pin_list>
<pin id="251" dir="0" index="0" bw="1" slack="0"/>
<pin id="252" dir="1" index="1" bw="8" slack="3"/>
</pin_list>
<bind>
<opcode="alloca(26) " fcode="alloca"/>
<opset="crop_data_data_strea/1 "/>
</bind>
</comp>

<comp id="254" class="1004" name="crop_data_data_strea_1_fu_254">
<pin_list>
<pin id="255" dir="0" index="0" bw="1" slack="0"/>
<pin id="256" dir="1" index="1" bw="8" slack="3"/>
</pin_list>
<bind>
<opcode="alloca(26) " fcode="alloca"/>
<opset="crop_data_data_strea_1/1 "/>
</bind>
</comp>

<comp id="258" class="1004" name="crop_data_data_strea_2_fu_258">
<pin_list>
<pin id="259" dir="0" index="0" bw="1" slack="0"/>
<pin id="260" dir="1" index="1" bw="8" slack="3"/>
</pin_list>
<bind>
<opcode="alloca(26) " fcode="alloca"/>
<opset="crop_data_data_strea_2/1 "/>
</bind>
</comp>

<comp id="262" class="1004" name="grp_AXIvideo2Mat_fu_262">
<pin_list>
<pin id="263" dir="0" index="0" bw="0" slack="0"/>
<pin id="264" dir="0" index="1" bw="24" slack="0"/>
<pin id="265" dir="0" index="2" bw="3" slack="0"/>
<pin id="266" dir="0" index="3" bw="3" slack="0"/>
<pin id="267" dir="0" index="4" bw="1" slack="0"/>
<pin id="268" dir="0" index="5" bw="1" slack="0"/>
<pin id="269" dir="0" index="6" bw="1" slack="0"/>
<pin id="270" dir="0" index="7" bw="1" slack="0"/>
<pin id="271" dir="0" index="8" bw="8" slack="1"/>
<pin id="272" dir="0" index="9" bw="8" slack="1"/>
<pin id="273" dir="0" index="10" bw="8" slack="1"/>
<pin id="274" dir="1" index="11" bw="0" slack="2147483647"/>
</pin_list>
<bind>
<opcode="call(48) " fcode="call"/>
<opset="StgValue_18/2 "/>
</bind>
</comp>

<comp id="283" class="1004" name="grp_Loop_loop_height_pro_fu_283">
<pin_list>
<pin id="284" dir="0" index="0" bw="0" slack="0"/>
<pin id="285" dir="0" index="1" bw="8" slack="3"/>
<pin id="286" dir="0" index="2" bw="8" slack="3"/>
<pin id="287" dir="0" index="3" bw="8" slack="3"/>
<pin id="288" dir="0" index="4" bw="8" slack="3"/>
<pin id="289" dir="0" index="5" bw="8" slack="3"/>
<pin id="290" dir="0" index="6" bw="8" slack="3"/>
<pin id="291" dir="0" index="7" bw="8" slack="3"/>
<pin id="292" dir="0" index="8" bw="8" slack="3"/>
<pin id="293" dir="0" index="9" bw="8" slack="3"/>
<pin id="294" dir="1" index="10" bw="0" slack="2147483647"/>
</pin_list>
<bind>
<opcode="call(48) " fcode="call"/>
<opset="StgValue_20/4 "/>
</bind>
</comp>

<comp id="296" class="1004" name="grp_Mat2AXIvideo_fu_296">
<pin_list>
<pin id="297" dir="0" index="0" bw="0" slack="0"/>
<pin id="298" dir="0" index="1" bw="8" slack="5"/>
<pin id="299" dir="0" index="2" bw="8" slack="5"/>
<pin id="300" dir="0" index="3" bw="8" slack="5"/>
<pin id="301" dir="0" index="4" bw="24" slack="0"/>
<pin id="302" dir="0" index="5" bw="3" slack="0"/>
<pin id="303" dir="0" index="6" bw="3" slack="0"/>
<pin id="304" dir="0" index="7" bw="1" slack="0"/>
<pin id="305" dir="0" index="8" bw="1" slack="0"/>
<pin id="306" dir="0" index="9" bw="1" slack="0"/>
<pin id="307" dir="0" index="10" bw="1" slack="0"/>
<pin id="308" dir="1" index="11" bw="0" slack="2147483647"/>
</pin_list>
<bind>
<opcode="call(48) " fcode="call"/>
<opset="StgValue_22/6 "/>
</bind>
</comp>

<comp id="317" class="1004" name="grp_Mat2AXIvideo_1_fu_317">
<pin_list>
<pin id="318" dir="0" index="0" bw="0" slack="0"/>
<pin id="319" dir="0" index="1" bw="8" slack="5"/>
<pin id="320" dir="0" index="2" bw="8" slack="5"/>
<pin id="321" dir="0" index="3" bw="8" slack="5"/>
<pin id="322" dir="0" index="4" bw="24" slack="0"/>
<pin id="323" dir="0" index="5" bw="3" slack="0"/>
<pin id="324" dir="0" index="6" bw="3" slack="0"/>
<pin id="325" dir="0" index="7" bw="1" slack="0"/>
<pin id="326" dir="0" index="8" bw="1" slack="0"/>
<pin id="327" dir="0" index="9" bw="1" slack="0"/>
<pin id="328" dir="0" index="10" bw="1" slack="0"/>
<pin id="329" dir="1" index="11" bw="0" slack="2147483647"/>
</pin_list>
<bind>
<opcode="call(48) " fcode="call"/>
<opset="StgValue_23/6 "/>
</bind>
</comp>

<comp id="338" class="1005" name="input_data_data_stre_reg_338">
<pin_list>
<pin id="339" dir="0" index="0" bw="8" slack="1"/>
<pin id="340" dir="1" index="1" bw="8" slack="1"/>
</pin_list>
<bind>
<opset="input_data_data_stre "/>
</bind>
</comp>

<comp id="344" class="1005" name="input_data_data_stre_1_reg_344">
<pin_list>
<pin id="345" dir="0" index="0" bw="8" slack="1"/>
<pin id="346" dir="1" index="1" bw="8" slack="1"/>
</pin_list>
<bind>
<opset="input_data_data_stre_1 "/>
</bind>
</comp>

<comp id="350" class="1005" name="input_data_data_stre_2_reg_350">
<pin_list>
<pin id="351" dir="0" index="0" bw="8" slack="1"/>
<pin id="352" dir="1" index="1" bw="8" slack="1"/>
</pin_list>
<bind>
<opset="input_data_data_stre_2 "/>
</bind>
</comp>

<comp id="356" class="1005" name="passthrough_data_str_reg_356">
<pin_list>
<pin id="357" dir="0" index="0" bw="8" slack="3"/>
<pin id="358" dir="1" index="1" bw="8" slack="3"/>
</pin_list>
<bind>
<opset="passthrough_data_str "/>
</bind>
</comp>

<comp id="362" class="1005" name="passthrough_data_str_1_reg_362">
<pin_list>
<pin id="363" dir="0" index="0" bw="8" slack="3"/>
<pin id="364" dir="1" index="1" bw="8" slack="3"/>
</pin_list>
<bind>
<opset="passthrough_data_str_1 "/>
</bind>
</comp>

<comp id="368" class="1005" name="passthrough_data_str_2_reg_368">
<pin_list>
<pin id="369" dir="0" index="0" bw="8" slack="3"/>
<pin id="370" dir="1" index="1" bw="8" slack="3"/>
</pin_list>
<bind>
<opset="passthrough_data_str_2 "/>
</bind>
</comp>

<comp id="374" class="1005" name="crop_data_data_strea_reg_374">
<pin_list>
<pin id="375" dir="0" index="0" bw="8" slack="3"/>
<pin id="376" dir="1" index="1" bw="8" slack="3"/>
</pin_list>
<bind>
<opset="crop_data_data_strea "/>
</bind>
</comp>

<comp id="380" class="1005" name="crop_data_data_strea_1_reg_380">
<pin_list>
<pin id="381" dir="0" index="0" bw="8" slack="3"/>
<pin id="382" dir="1" index="1" bw="8" slack="3"/>
</pin_list>
<bind>
<opset="crop_data_data_strea_1 "/>
</bind>
</comp>

<comp id="386" class="1005" name="crop_data_data_strea_2_reg_386">
<pin_list>
<pin id="387" dir="0" index="0" bw="8" slack="3"/>
<pin id="388" dir="1" index="1" bw="8" slack="3"/>
</pin_list>
<bind>
<opset="crop_data_data_strea_2 "/>
</bind>
</comp>

</comp_list>

<net_list>
<net id="229"><net_src comp="42" pin="0"/><net_sink comp="226" pin=0"/></net>

<net id="233"><net_src comp="42" pin="0"/><net_sink comp="230" pin=0"/></net>

<net id="237"><net_src comp="42" pin="0"/><net_sink comp="234" pin=0"/></net>

<net id="241"><net_src comp="42" pin="0"/><net_sink comp="238" pin=0"/></net>

<net id="245"><net_src comp="42" pin="0"/><net_sink comp="242" pin=0"/></net>

<net id="249"><net_src comp="42" pin="0"/><net_sink comp="246" pin=0"/></net>

<net id="253"><net_src comp="42" pin="0"/><net_sink comp="250" pin=0"/></net>

<net id="257"><net_src comp="42" pin="0"/><net_sink comp="254" pin=0"/></net>

<net id="261"><net_src comp="42" pin="0"/><net_sink comp="258" pin=0"/></net>

<net id="275"><net_src comp="44" pin="0"/><net_sink comp="262" pin=0"/></net>

<net id="276"><net_src comp="0" pin="0"/><net_sink comp="262" pin=1"/></net>

<net id="277"><net_src comp="2" pin="0"/><net_sink comp="262" pin=2"/></net>

<net id="278"><net_src comp="4" pin="0"/><net_sink comp="262" pin=3"/></net>

<net id="279"><net_src comp="6" pin="0"/><net_sink comp="262" pin=4"/></net>

<net id="280"><net_src comp="8" pin="0"/><net_sink comp="262" pin=5"/></net>

<net id="281"><net_src comp="10" pin="0"/><net_sink comp="262" pin=6"/></net>

<net id="282"><net_src comp="12" pin="0"/><net_sink comp="262" pin=7"/></net>

<net id="295"><net_src comp="46" pin="0"/><net_sink comp="283" pin=0"/></net>

<net id="309"><net_src comp="48" pin="0"/><net_sink comp="296" pin=0"/></net>

<net id="310"><net_src comp="14" pin="0"/><net_sink comp="296" pin=4"/></net>

<net id="311"><net_src comp="16" pin="0"/><net_sink comp="296" pin=5"/></net>

<net id="312"><net_src comp="18" pin="0"/><net_sink comp="296" pin=6"/></net>

<net id="313"><net_src comp="20" pin="0"/><net_sink comp="296" pin=7"/></net>

<net id="314"><net_src comp="22" pin="0"/><net_sink comp="296" pin=8"/></net>

<net id="315"><net_src comp="24" pin="0"/><net_sink comp="296" pin=9"/></net>

<net id="316"><net_src comp="26" pin="0"/><net_sink comp="296" pin=10"/></net>

<net id="330"><net_src comp="50" pin="0"/><net_sink comp="317" pin=0"/></net>

<net id="331"><net_src comp="28" pin="0"/><net_sink comp="317" pin=4"/></net>

<net id="332"><net_src comp="30" pin="0"/><net_sink comp="317" pin=5"/></net>

<net id="333"><net_src comp="32" pin="0"/><net_sink comp="317" pin=6"/></net>

<net id="334"><net_src comp="34" pin="0"/><net_sink comp="317" pin=7"/></net>

<net id="335"><net_src comp="36" pin="0"/><net_sink comp="317" pin=8"/></net>

<net id="336"><net_src comp="38" pin="0"/><net_sink comp="317" pin=9"/></net>

<net id="337"><net_src comp="40" pin="0"/><net_sink comp="317" pin=10"/></net>

<net id="341"><net_src comp="226" pin="1"/><net_sink comp="338" pin=0"/></net>

<net id="342"><net_src comp="338" pin="1"/><net_sink comp="262" pin=8"/></net>

<net id="343"><net_src comp="338" pin="1"/><net_sink comp="283" pin=1"/></net>

<net id="347"><net_src comp="230" pin="1"/><net_sink comp="344" pin=0"/></net>

<net id="348"><net_src comp="344" pin="1"/><net_sink comp="262" pin=9"/></net>

<net id="349"><net_src comp="344" pin="1"/><net_sink comp="283" pin=2"/></net>

<net id="353"><net_src comp="234" pin="1"/><net_sink comp="350" pin=0"/></net>

<net id="354"><net_src comp="350" pin="1"/><net_sink comp="262" pin=10"/></net>

<net id="355"><net_src comp="350" pin="1"/><net_sink comp="283" pin=3"/></net>

<net id="359"><net_src comp="238" pin="1"/><net_sink comp="356" pin=0"/></net>

<net id="360"><net_src comp="356" pin="1"/><net_sink comp="283" pin=4"/></net>

<net id="361"><net_src comp="356" pin="1"/><net_sink comp="296" pin=1"/></net>

<net id="365"><net_src comp="242" pin="1"/><net_sink comp="362" pin=0"/></net>

<net id="366"><net_src comp="362" pin="1"/><net_sink comp="283" pin=5"/></net>

<net id="367"><net_src comp="362" pin="1"/><net_sink comp="296" pin=2"/></net>

<net id="371"><net_src comp="246" pin="1"/><net_sink comp="368" pin=0"/></net>

<net id="372"><net_src comp="368" pin="1"/><net_sink comp="283" pin=6"/></net>

<net id="373"><net_src comp="368" pin="1"/><net_sink comp="296" pin=3"/></net>

<net id="377"><net_src comp="250" pin="1"/><net_sink comp="374" pin=0"/></net>

<net id="378"><net_src comp="374" pin="1"/><net_sink comp="283" pin=7"/></net>

<net id="379"><net_src comp="374" pin="1"/><net_sink comp="317" pin=1"/></net>

<net id="383"><net_src comp="254" pin="1"/><net_sink comp="380" pin=0"/></net>

<net id="384"><net_src comp="380" pin="1"/><net_sink comp="283" pin=8"/></net>

<net id="385"><net_src comp="380" pin="1"/><net_sink comp="317" pin=2"/></net>

<net id="389"><net_src comp="258" pin="1"/><net_sink comp="386" pin=0"/></net>

<net id="390"><net_src comp="386" pin="1"/><net_sink comp="283" pin=9"/></net>

<net id="391"><net_src comp="386" pin="1"/><net_sink comp="317" pin=3"/></net>

</net_list>

</model> 
---------------- Datapath Model END ------------------

* FSMD analyzer results:
  - Output states:
	Port: image_out_V_data_V | {6 7 }
	Port: image_out_V_keep_V | {6 7 }
	Port: image_out_V_strb_V | {6 7 }
	Port: image_out_V_user_V | {6 7 }
	Port: image_out_V_last_V | {6 7 }
	Port: image_out_V_id_V | {6 7 }
	Port: image_out_V_dest_V | {6 7 }
	Port: crop_out_V_data_V | {6 7 }
	Port: crop_out_V_keep_V | {6 7 }
	Port: crop_out_V_strb_V | {6 7 }
	Port: crop_out_V_user_V | {6 7 }
	Port: crop_out_V_last_V | {6 7 }
	Port: crop_out_V_id_V | {6 7 }
	Port: crop_out_V_dest_V | {6 7 }
 - Input state : 
	Port: center_image : image_in_V_data_V | {2 3 }
	Port: center_image : image_in_V_keep_V | {2 3 }
	Port: center_image : image_in_V_strb_V | {2 3 }
	Port: center_image : image_in_V_user_V | {2 3 }
	Port: center_image : image_in_V_last_V | {2 3 }
	Port: center_image : image_in_V_id_V | {2 3 }
	Port: center_image : image_in_V_dest_V | {2 3 }
  - Chain level:
	State 1
	State 2
	State 3
	State 4
	State 5
	State 6
	State 7
	State 8


============================================================
+ Verbose Summary: Datapath Resource usage 
============================================================

* Functional unit list:
|----------|---------------------------------|---------|---------|---------|
| Operation|         Functional Unit         |  Delay  |    FF   |   LUT   |
|----------|---------------------------------|---------|---------|---------|
|          |     grp_AXIvideo2Mat_fu_262     |  1.769  |   200   |    63   |
|   call   | grp_Loop_loop_height_pro_fu_283 |  5.307  |    80   |   135   |
|          |     grp_Mat2AXIvideo_fu_296     |  3.538  |    73   |    83   |
|          |    grp_Mat2AXIvideo_1_fu_317    |  3.538  |    73   |    83   |
|----------|---------------------------------|---------|---------|---------|
|   Total  |                                 |  14.152 |   426   |   364   |
|----------|---------------------------------|---------|---------|---------|

Memories:
N/A

* Register list:
+------------------------------+--------+
|                              |   FF   |
+------------------------------+--------+
|crop_data_data_strea_1_reg_380|    8   |
|crop_data_data_strea_2_reg_386|    8   |
| crop_data_data_strea_reg_374 |    8   |
|input_data_data_stre_1_reg_344|    8   |
|input_data_data_stre_2_reg_350|    8   |
| input_data_data_stre_reg_338 |    8   |
|passthrough_data_str_1_reg_362|    8   |
|passthrough_data_str_2_reg_368|    8   |
| passthrough_data_str_reg_356 |    8   |
+------------------------------+--------+
|             Total            |   72   |
+------------------------------+--------+

* Multiplexer (MUX) list: 
|--------|------|------|------|--------|
|  Comp  |  Pin | Size |  BW  | S x BW |
|--------|------|------|------|--------|
|  Total |      |      |      |    0   |
|--------|------|------|------|--------|



* Summary:
+-----------+--------+--------+--------+
|           |  Delay |   FF   |   LUT  |
+-----------+--------+--------+--------+
|  Function |   14   |   426  |   364  |
|   Memory  |    -   |    -   |    -   |
|Multiplexer|    -   |    -   |    -   |
|  Register |    -   |   72   |    -   |
+-----------+--------+--------+--------+
|   Total   |   14   |   498  |   364  |
+-----------+--------+--------+--------+
