

================================================================
== Vivado HLS Report for 'stream_bypass'
================================================================
* Date:           Sun Dec  8 16:37:27 2019

* Version:        2018.2 (Build 2258646 on Thu Jun 14 20:25:20 MDT 2018)
* Project:        stream_bypass
* Solution:       solution1
* Product family: zynq
* Target device:  xc7z020clg400-1


================================================================
== Performance Estimates
================================================================
+ Timing (ns): 
    * Summary: 
    +--------+-------+----------+------------+
    |  Clock | Target| Estimated| Uncertainty|
    +--------+-------+----------+------------+
    |ap_clk  |  10.00|     0.000|        1.25|
    +--------+-------+----------+------------+

+ Latency (clock cycles): 
    * Summary: 
    +-----+-----+-----+-----+---------+
    |  Latency  |  Interval | Pipeline|
    | min | max | min | max |   Type  |
    +-----+-----+-----+-----+---------+
    |    ?|    ?|    ?|    ?|   none  |
    +-----+-----+-----+-----+---------+

    + Detail: 
        * Instance: 
        N/A

        * Loop: 
        +----------+-----+-----+----------+-----------+-----------+------+----------+
        |          |  Latency  | Iteration|  Initiation Interval  | Trip |          |
        | Loop Name| min | max |  Latency |  achieved |   target  | Count| Pipelined|
        +----------+-----+-----+----------+-----------+-----------+------+----------+
        |- Loop 1  |    ?|    ?|         1|          -|          -|     ?|    no    |
        |- Loop 2  |    ?|    ?|         2|          -|          -|     ?|    no    |
        +----------+-----+-----+----------+-----------+-----------+------+----------+



================================================================
== Utilization Estimates
================================================================
* Summary: 
+-----------------+---------+-------+--------+-------+
|       Name      | BRAM_18K| DSP48E|   FF   |  LUT  |
+-----------------+---------+-------+--------+-------+
|DSP              |        -|      -|       -|      -|
|Expression       |        -|      -|       0|     94|
|FIFO             |        -|      -|       -|      -|
|Instance         |        -|      -|       -|      -|
|Memory           |        -|      -|       -|      -|
|Multiplexer      |        -|      -|       -|    207|
|Register         |        -|      -|     119|      -|
+-----------------+---------+-------+--------+-------+
|Total            |        0|      0|     119|    301|
+-----------------+---------+-------+--------+-------+
|Available        |      280|    220|  106400|  53200|
+-----------------+---------+-------+--------+-------+
|Utilization (%)  |        0|      0|   ~0   |   ~0  |
+-----------------+---------+-------+--------+-------+

+ Detail: 
    * Instance: 
    N/A

    * DSP48: 
    N/A

    * Memory: 
    N/A

    * FIFO: 
    N/A

    * Expression: 
    +--------------------------------------+----------+-------+---+----+------------+------------+
    |             Variable Name            | Operation| DSP48E| FF| LUT| Bitwidth P0| Bitwidth P1|
    +--------------------------------------+----------+-------+---+----+------------+------------+
    |ap_block_state2_io                    |    and   |      0|  0|   2|           1|           1|
    |ap_predicate_op29_read_state2         |    and   |      0|  0|   2|           1|           1|
    |ap_predicate_op34_read_state2         |    and   |      0|  0|   2|           1|           1|
    |grp_nbreadreq_fu_64_p9                |    and   |      0|  0|   2|           1|           0|
    |stream_out_V_data_V_1_load_A          |    and   |      0|  0|   2|           1|           1|
    |stream_out_V_data_V_1_load_B          |    and   |      0|  0|   2|           1|           1|
    |stream_out_V_dest_V_1_load_A          |    and   |      0|  0|   2|           1|           1|
    |stream_out_V_dest_V_1_load_B          |    and   |      0|  0|   2|           1|           1|
    |stream_out_V_id_V_1_load_A            |    and   |      0|  0|   2|           1|           1|
    |stream_out_V_id_V_1_load_B            |    and   |      0|  0|   2|           1|           1|
    |stream_out_V_keep_V_1_load_A          |    and   |      0|  0|   2|           1|           1|
    |stream_out_V_keep_V_1_load_B          |    and   |      0|  0|   2|           1|           1|
    |stream_out_V_last_V_1_load_A          |    and   |      0|  0|   2|           1|           1|
    |stream_out_V_last_V_1_load_B          |    and   |      0|  0|   2|           1|           1|
    |stream_out_V_strb_V_1_load_A          |    and   |      0|  0|   2|           1|           1|
    |stream_out_V_strb_V_1_load_B          |    and   |      0|  0|   2|           1|           1|
    |stream_out_V_user_V_1_load_A          |    and   |      0|  0|   2|           1|           1|
    |stream_out_V_user_V_1_load_B          |    and   |      0|  0|   2|           1|           1|
    |stream_out_V_data_V_1_state_cmp_full  |   icmp   |      0|  0|   8|           2|           1|
    |stream_out_V_dest_V_1_state_cmp_full  |   icmp   |      0|  0|   8|           2|           1|
    |stream_out_V_id_V_1_state_cmp_full    |   icmp   |      0|  0|   8|           2|           1|
    |stream_out_V_keep_V_1_state_cmp_full  |   icmp   |      0|  0|   8|           2|           1|
    |stream_out_V_last_V_1_state_cmp_full  |   icmp   |      0|  0|   8|           2|           1|
    |stream_out_V_strb_V_1_state_cmp_full  |   icmp   |      0|  0|   8|           2|           1|
    |stream_out_V_user_V_1_state_cmp_full  |   icmp   |      0|  0|   8|           2|           1|
    |ap_block_state2                       |    or    |      0|  0|   2|           1|           1|
    +--------------------------------------+----------+-------+---+----+------------+------------+
    |Total                                 |          |      0|  0|  94|          33|          25|
    +--------------------------------------+----------+-------+---+----+------------+------------+

    * Multiplexer: 
    +--------------------------------+----+-----------+-----+-----------+
    |              Name              | LUT| Input Size| Bits| Total Bits|
    +--------------------------------+----+-----------+-----+-----------+
    |ap_NS_fsm                       |  21|          4|    1|          4|
    |stream_in_TDATA_blk_n           |   9|          2|    1|          2|
    |stream_out_TDATA_blk_n          |   9|          2|    1|          2|
    |stream_out_V_data_V_1_data_out  |   9|          2|   32|         64|
    |stream_out_V_data_V_1_state     |  15|          3|    2|          6|
    |stream_out_V_dest_V_1_data_out  |   9|          2|    1|          2|
    |stream_out_V_dest_V_1_state     |  15|          3|    2|          6|
    |stream_out_V_id_V_1_data_out    |   9|          2|    1|          2|
    |stream_out_V_id_V_1_state       |  15|          3|    2|          6|
    |stream_out_V_keep_V_1_data_out  |   9|          2|    4|          8|
    |stream_out_V_keep_V_1_state     |  15|          3|    2|          6|
    |stream_out_V_last_V_1_data_out  |   9|          2|    1|          2|
    |stream_out_V_last_V_1_state     |  15|          3|    2|          6|
    |stream_out_V_strb_V_1_data_out  |   9|          2|    4|          8|
    |stream_out_V_strb_V_1_state     |  15|          3|    2|          6|
    |stream_out_V_user_V_1_data_out  |   9|          2|    1|          2|
    |stream_out_V_user_V_1_state     |  15|          3|    2|          6|
    +--------------------------------+----+-----------+-----+-----------+
    |Total                           | 207|         43|   61|        138|
    +--------------------------------+----+-----------+-----+-----------+

    * Register: 
    +---------------------------------+----+----+-----+-----------+
    |               Name              | FF | LUT| Bits| Const Bits|
    +---------------------------------+----+----+-----+-----------+
    |ap_CS_fsm                        |   3|   0|    3|          0|
    |stream_out_V_data_V_1_payload_A  |  32|   0|   32|          0|
    |stream_out_V_data_V_1_payload_B  |  32|   0|   32|          0|
    |stream_out_V_data_V_1_sel_rd     |   1|   0|    1|          0|
    |stream_out_V_data_V_1_sel_wr     |   1|   0|    1|          0|
    |stream_out_V_data_V_1_state      |   2|   0|    2|          0|
    |stream_out_V_dest_V_1_payload_A  |   1|   0|    1|          0|
    |stream_out_V_dest_V_1_payload_B  |   1|   0|    1|          0|
    |stream_out_V_dest_V_1_sel_rd     |   1|   0|    1|          0|
    |stream_out_V_dest_V_1_sel_wr     |   1|   0|    1|          0|
    |stream_out_V_dest_V_1_state      |   2|   0|    2|          0|
    |stream_out_V_id_V_1_payload_A    |   1|   0|    1|          0|
    |stream_out_V_id_V_1_payload_B    |   1|   0|    1|          0|
    |stream_out_V_id_V_1_sel_rd       |   1|   0|    1|          0|
    |stream_out_V_id_V_1_sel_wr       |   1|   0|    1|          0|
    |stream_out_V_id_V_1_state        |   2|   0|    2|          0|
    |stream_out_V_keep_V_1_payload_A  |   4|   0|    4|          0|
    |stream_out_V_keep_V_1_payload_B  |   4|   0|    4|          0|
    |stream_out_V_keep_V_1_sel_rd     |   1|   0|    1|          0|
    |stream_out_V_keep_V_1_sel_wr     |   1|   0|    1|          0|
    |stream_out_V_keep_V_1_state      |   2|   0|    2|          0|
    |stream_out_V_last_V_1_payload_A  |   1|   0|    1|          0|
    |stream_out_V_last_V_1_payload_B  |   1|   0|    1|          0|
    |stream_out_V_last_V_1_sel_rd     |   1|   0|    1|          0|
    |stream_out_V_last_V_1_sel_wr     |   1|   0|    1|          0|
    |stream_out_V_last_V_1_state      |   2|   0|    2|          0|
    |stream_out_V_strb_V_1_payload_A  |   4|   0|    4|          0|
    |stream_out_V_strb_V_1_payload_B  |   4|   0|    4|          0|
    |stream_out_V_strb_V_1_sel_rd     |   1|   0|    1|          0|
    |stream_out_V_strb_V_1_sel_wr     |   1|   0|    1|          0|
    |stream_out_V_strb_V_1_state      |   2|   0|    2|          0|
    |stream_out_V_user_V_1_payload_A  |   1|   0|    1|          0|
    |stream_out_V_user_V_1_payload_B  |   1|   0|    1|          0|
    |stream_out_V_user_V_1_sel_rd     |   1|   0|    1|          0|
    |stream_out_V_user_V_1_sel_wr     |   1|   0|    1|          0|
    |stream_out_V_user_V_1_state      |   2|   0|    2|          0|
    +---------------------------------+----+----+-----+-----------+
    |Total                            | 119|   0|  119|          0|
    +---------------------------------+----+----+-----+-----------+



================================================================
== Interface
================================================================
* Summary: 
+-------------------+-----+-----+------------+---------------------+--------------+
|     RTL Ports     | Dir | Bits|  Protocol  |    Source Object    |    C Type    |
+-------------------+-----+-----+------------+---------------------+--------------+
|ap_clk             |  in |    1| ap_ctrl_hs |    stream_bypass    | return value |
|ap_rst_n           |  in |    1| ap_ctrl_hs |    stream_bypass    | return value |
|ap_start           |  in |    1| ap_ctrl_hs |    stream_bypass    | return value |
|ap_done            | out |    1| ap_ctrl_hs |    stream_bypass    | return value |
|ap_idle            | out |    1| ap_ctrl_hs |    stream_bypass    | return value |
|ap_ready           | out |    1| ap_ctrl_hs |    stream_bypass    | return value |
|stream_in_TDATA    |  in |   32|    axis    |  stream_in_V_data_V |    pointer   |
|stream_in_TVALID   |  in |    1|    axis    |  stream_in_V_dest_V |    pointer   |
|stream_in_TREADY   | out |    1|    axis    |  stream_in_V_dest_V |    pointer   |
|stream_in_TDEST    |  in |    1|    axis    |  stream_in_V_dest_V |    pointer   |
|stream_in_TKEEP    |  in |    4|    axis    |  stream_in_V_keep_V |    pointer   |
|stream_in_TSTRB    |  in |    4|    axis    |  stream_in_V_strb_V |    pointer   |
|stream_in_TUSER    |  in |    1|    axis    |  stream_in_V_user_V |    pointer   |
|stream_in_TLAST    |  in |    1|    axis    |  stream_in_V_last_V |    pointer   |
|stream_in_TID      |  in |    1|    axis    |   stream_in_V_id_V  |    pointer   |
|enable_V           |  in |    1|   ap_none  |       enable_V      |    scalar    |
|stream_out_TDATA   | out |   32|    axis    | stream_out_V_data_V |    pointer   |
|stream_out_TVALID  | out |    1|    axis    | stream_out_V_dest_V |    pointer   |
|stream_out_TREADY  |  in |    1|    axis    | stream_out_V_dest_V |    pointer   |
|stream_out_TDEST   | out |    1|    axis    | stream_out_V_dest_V |    pointer   |
|stream_out_TKEEP   | out |    4|    axis    | stream_out_V_keep_V |    pointer   |
|stream_out_TSTRB   | out |    4|    axis    | stream_out_V_strb_V |    pointer   |
|stream_out_TUSER   | out |    1|    axis    | stream_out_V_user_V |    pointer   |
|stream_out_TLAST   | out |    1|    axis    | stream_out_V_last_V |    pointer   |
|stream_out_TID     | out |    1|    axis    |  stream_out_V_id_V  |    pointer   |
+-------------------+-----+-----+------------+---------------------+--------------+

