BE938F40
BCD38E4D
BDEA1808
BE3824CE
BE1455C3
BE8C9761
3DED90EC
BDF9C318
BE9F7846
3E0E0153
3D61BE49
BE393FFE
3C39634E
3CBE81B6
3E187752
BD02633A
BD8B5F96
3E573CC0
BE232667
BD576BFD
3DC885B3
3D77A92C
3CE2FBC8
3C7AA3E0
3DF2EF57
3DD70EAA
BE1A0D1D
BE870717
3E1EF490
BD9AD52A
BE1AE4B2
3DA7ED2F
3D965593
3DE1A5BE
3A6FB65C
BACB3924
BE7D2D74
BE5EF540
3D1DCF59
BE07753B
3DAA32EC
BDB75B71
3D0D5040
3E39EA59
3D52BCA3
BCFE28AA
BDF0E046
3D5461AF
BE0DEDCB
BDB601F0
BE64479E
3C95E906
BE9F6C44
3E74266C
3B210BFF
BD2A9BE5
3DE40B11
BE1DA5F7
3B83CC28
BE910DAF
BD3C50BC
BC7AAA00
3E3F85D0
BE08770C
3E578C63
3BA7D6F4
3D2B1895
3CCCA4F4
BD345F68
3D939068
BE061173
3DED5F4D
BD2B413A
BDB1456C
BE151728
3E25D932
3E164451
BD99021B
3E9AA35A
BE6A102A
3E6E0AA1
3DB35236
3DDE0109
BD93C27A
3CFA4AE5
BE2F73EB
BE01E356
3E22E2BF
BD5D1D32
BE36956E
BE1C7C21
3E124CAD
3E0497A5
3DF31A71
BCF76821
BE3ACE1E
BC4DF7F0
BB00CA15
BCF9644A
3C903BBD
3E16170B
3E902593
3DA8434F
BD8063E9
3DCE17F7
3D1598B9
BC343C5D
BE1D84E5
3D8BB5FE
BD5D0173
BE368011
3E5AE05D
3E11741B
3D5276BD
3E941EEC
3E702663
3E00D091
3E3F66BB
BDFD0C94
3E3F6DEF
3E29AF04
BC210D81
3D60FB7E
3D986E36
BE4AE884
BEA572A5
3DD791AA
BDE960C0
BE31F570
BDC6287D
3DB09C35
BE87F428
BD883E0F
3E3074A1
BDCA89F4
3E1BF2E9
BDB7448A
3DAB9837
3DFC9DEC
3DFBC220
BE66A58E
BC07128E
3D5C7A11
BEC90E2C
BE322764
BE18C284
BD97E76C
BD747238
3E5042A0
3E92861B
BD8CE09E
3DDF6719
BDC9EF1D
BDE18394
3E915C2D
3E39FC6F
3D265643
BD684FE5
3D26DD5F
BC12EA13
BE6B73A8
BE6C6E43
3C3EAD3A
3E9EFFCC
3EA5B622
3D82FCFD
3C68CE60
BDC16D9E
BDF896BA
3E13A817
BE2D5111
BEB69BD6
3E3D9643
BE2C8743
BE069D06
BE8ADD8B
BE2435FF
3EA04C42
BCA79C8C
BEA60B87
BE20513D
BE017EED
BE6EC326
3E5AF4B1
3DB8C906
3E1412FA
3D9BAC2F
3DBC00F4
BE7FA94B
BABF92D3
3DB06B9E
BC800168
BE7B06EE
BDD7C9AC
BBC3EABB
BE02EB9F
BA508C75
BE6B1A5F
BE7728C2
3E142A14
3D949D5E
3E2911B2
3E070487
3E33F4E8
3E65A886
BE430837
3D7001A0
BDD502E3
3E8E5C1F
3E13B504
BD1D6FB8
BD1A661D
3D4EC6C0
BE883811
3E2B7579
3EA60544
3DD880D3
3DA8E1D4
3DC5B6D0
3E9EAE6C
BE3B720D
BE926DE7
BDEACD79
BE2B1BE4
BE7C1F71
BD4A6EA4
3E8FE287
BB8BD8E7
BE002011
BECB23D4
BEB52501
BD558D53
3C65C3D4
BE1C62B8
3E807019
3E8A7A95
3CC05484
BB8295F2
BCF5ED12
3DE4CE6C
BEC2CD9F
BE58BFE8
BE716C09
BD185C80
BEBA43FC
BD464DA2
3DE898F7
3DEBD499
BD3E17D1
BE045753
BE61E800
3DE6C7A5
BE987AD3
3BAE3095
3E6F8AC3
3E634D5B
3E405E4F
BEB74AF0
3DFDD564
3E49BF71
3DDD8BF5
BE8FC25D
BCB75745
BDB3EFB9
3C5233DF
3E0B1CFE
BEA9E1CF
3D866DB5
3D9F6A84
BEFC9164
3EBD3BDB
3BE0EB3D
3D9563B6
3EB1B81B
BE4343F9
BE54C13D
3EB50FCA
BDC6D144
BE90066B
3D812703
3DA11DBB
3CF25994
3DA951F2
BD566705
3E519D99
BE876FFA
3E87F814
BE82C644
BBDA6ECC
3E860D61
BE256B6A
3CA6B23C
3E0AC123
3CC5CF8D
BD827FDD
BDBBF316
BE88CF27
BDF87697
3E81760E
BD5C78FF
BDAC1FC8
BE8ABC26
3BC13616
3E590523
3DEB189A
BE102BA7
BDF0DB17
BE1D8606
3C98A1FD
BE0432BD
BE323481
3DFDA8FA
3E4D36EA
BC858EAA
3E21714E
3DB9A41E
3D8E5205
3D336EBD
3DC9B236
3D3D1732
BD9ACB69
3C85CF1D
BD615AA6
BCA2C3B4
BE0CE319
3D542CD6
BE601066
3C983363
3DC6E969
BE3455A9
3D8F4BD5
3E15956D
3CC1A2A2
3DECF016
3D9B7317
BC70673B
3E8D0A89
BDCD1B5F
3E1DFBC5
3D78F247
3DC35E69
BE77E71D
BE121492
BDDB5774
3CF7F5FB
BE8B06F1
3D891E39
BB49FFE9
3E65E2A5
3CA8EBF2
BE30AD9D
BE0EB88F
BE0C68CF
3B15157B
BD0AEA54
BD2EB0C8
3DEB379F
3EB3F108
3E5A2D7A
BCEA8D0C
BDC3A470
3DDAAE03
BD88AA67
3DB4957D
BE15C23A
BDF679A2
BE345067
BDF934BF
3CD4BA4C
3DFDE712
BE342F00
3D076793
BD441883
BE8122C6
3CF5C9B6
BB2CE7D5
BE4CAB82
3E2DBB81
BC9163A5
BDE29625
3CCEF10A
3D9523C6
3E15BF73
BEBE5667
BF1322C7
3D3A03E2
BEF152E2
3E2DA36C
3E9A08FF
3E919332
3E84B7DD
BE70A887
3DC030ED
BD5E1C18
3E29724E
3E1C0F16
BAC37159
BD19D9E3
BDA9ECC9
BE28C677
BE5FEBED
BE33D44E
BEADE6F2
BF0DF739
BE9E41EE
3E5DAF4A
BE3A5D8F
BE0357A4
3E8EE188
BDA32FC0
3D5F407A
3ED600FC
BD2939F3
3DE2F376
3D10E4D5
3E5B2784
BE87504F
3E887E14
BD49A66F
BE19009F
3DF46DE1
BDE60D66
BEC98F8A
BE4C0052
BD041F47
3E9F3E4D
BD8E60B7
3C9C1F3B
BDE2865E
BEABE4DB
BEC9863F
3D7FBB4C
3D178009
3DF2EA24
3E23C147
BDAAE662
3E75D6C2
3E7F3A60
3D3D39B5
3E3C407A
3E1E0217
BCDFAD14
3E47E8F6
3D18E442
3E42D965
BE194D5B
BE4031C9
3DD635AE
3D76FEC2
BD743343
BE3EE6C3
3D65CC25
BB8D45E4
3C834758
BE8DD7B6
BD53D926
3E0DF3C6
BD74D0F0
3E0B0B19
BF12A5CC
BDC853F3
BBC09EEC
BECF418A
BD5A3B96
BE45ACF8
3E2DEE63
BDAB88A1
3B55FBF6
3E083964
BE8C3CDD
BCC1D11B
BE7F93EF
BE9D9F82
BD8FE603
BEBC94BF
BE830893
3D8F7CA1
3A46E4D6
BAD7518B
3CAB3492
BE61C93B
BE768CB9
BE9E2403
BE858044
BE2CED9D
BE5DBEE0
3E871C27
BE17D5E8
3D336573
BE0FDD3C
3DB2B12B
BDD87497
BE87423A
BE13104C
3DA29632
BEA0A32C
3D949E3C
BBF36DF6
BE312D07
BEAA21F6
BE0E2D8C
3D3F4FEF
3E09C412
3DAC70CA
3E2B2D14
BDD09B30
BE735300
BE10FC86
3E524A71
3E19C280
3E86A365
3E3BB486
3E81D4FD
3DDB23D1
3D885D31
3E0CC78C
BE3D9D96
BDE0F1E0
BD57E831
BDEC19C4
BE686A7B
3E4DA80A
3DB11FD2
BD8F74B8
BB87BC37
BE85EC02
3E615C71
3E312A08
BE439F27
3E08E1AF
3D81BA3B
3D3238B7
3E8CFD1A
BE908587
BC3583A5
BCF1F9AD
BCA8789F
3E76D0BF
3DD58A90
BDBAF91C
3E72B958
BD0B17CE
3BB2C73D
BC734FC3
BE7CDBCC
3D86897C
3C5CA07F
3DDFB770
3BCA8183
3E02EB52
3DD0AAEB
BD316017
3C9D8735
BDA5DF0B
BE81E354
BE32062B
3DE4E08B
3DD38E7B
BE59B24B
3E2EA46A
BE65A080
BD8B9C5D
3E5D4371
BE1954CA
3C978BF8
3C868DFF
3DA2A74A
3DD1B269
3DDF7667
3E477A94
BD71832A
BD31C8C2
3E0D54B2
3D0E4479
BD485D3F
3E147D45
BE237236
3E750D2B
BE67DD28
BC1D7B26
3E69F504
3E2CE5BE
BD213758
3E8BFD87
3DEAA255
BE0E3D5B
BDA96757
BE7673AE
BD8E0CAF
BAAC2E1C
BE11DCEB
3E4AC367
3E40D701
3E342ABC
3D81C347
BE200823
BE0E69FB
BDCDCAE7
BE3572A0
3CDD9A90
BD08D7E8
3CCCC9D2
BD6C7244
3E003864
3D9C1390
BBC1A2E3
3E4B6F14
3D080E31
BE0CEDAC
3D22D37F
BD8C2C60
BE48E8F9
3D9454C4
BD4C3B22
BEA1095D
3E61199E
BD5E1956
3E1C78A9
3DE07A1A
BB05EB92
3BE8E9F9
BE2F8DB4
BE97A939
BE40F162
3C6B7D87
BE2A370B
3E957545
3DB0AE1A
BD837E4A
BD6F8DD2
BE08E25E
BDF89A25
3CBD6993
3E74B5B1
3DC462B2
3E1F240D
3CE3A393
3E45D25D
3DDD54CC
3DC880C3
BD5DD3C6
BEB7C7EE
3E6CD67D
3E2A9E56
3E4AEED3
BD59142B
3DD2800A
BE08C5B6
3DF453F8
3CB3C006
BD8CF8E0
BDA114A3
3E6E99D8
BE50C122
BE13712A
BD8A9694
BE6FD135
BC39F42D
BD8BF1AA
3E845172
BDF24ED1
3E873274
3E3E6C65
BCC8B363
BD821B57
3D843111
BCC5F2C9
3E4C970B
3E5EAB03
BE9A4D33
BC4692A1
3E0DE7D3
3E2BF2D4
3E5E9BD5
3D05D9D7
3E71C1CE
BE154185
BE1ADBC9
BDCCD09D
3D888A45
3D573409
BE07F6F7
3DB5706E
3E6260FD
3E06AB85
3E37F7EA
3E51EA3C
BE352264
BDC51866
3DE8BF51
BDD00436
3E6807B5
3E1B9588
3D98CAF6
BE8E0D8B
BDE5FACE
BDA7C476
BD91DFCB
3E8C3E41
BE78EC5B
BB9E453A
3DE2108C
3C78FE79
3D80B8F9
BDC2D5D4
BEA2F5AF
BE0B46F8
BDA106CF
3D4BD61F
3DA50669
3E5AFBD6
3D208E4B
BD90F538
BCF11F57
BE948BB2
BE272D99
3EC74490
3E398F8F
3D959777
3E590AC1
3B9AA243
3DBAB1B5
BE2F60B5
3DF19ED9
3E27F080
3E23CD6B
BE667CFF
BC9CE5F5
3E3B3B27
3E18F502
3CE295BC
BE7BB2C7
3D835D3E
BE46ED90
BEC5A214
3BF6B1B8
BE6E4D5E
3CD65440
3D367525
BE123615
BE9C3038
BE07E4ED
BDB33A44
3DCC83D4
BE6A38DE
3C7C0E64
BD8501EE
3EAE8AB6
BE5359D1
BD54FFFF
BDE4871F
BCE903EA
BE1CFCB4
3DC3708D
BCF4E74E
3DED61F4
3D5C7958
BD454F80
3E31579A
BD67FE31
3E528067
3E4595F0
3C50447C
3E28F334
3E2F2E7B
BE01648B
3E980766
3D6CE015
3DEB632D
BE4C005C
BDDE06DB
3E0D6935
BDA494AE
BE6A02BD
3D491037
BD3DCAF2
BE45962C
BDD99D5B
3D8D858B
BE78E9A4
3E7E2ADF
BE892F52
3E26BC8C
3DED3EFD
3E317926
3EB89560
BC40DDEC
BCB65806
BE1A03C6
3E1E1713
3D911D73
3D9550E9
BD253D94
BE6AA7D2
3DCF0091
3E4E69D8
3D6D50F9
3DE995F9
BDE4E590
3E898665
3D8F0EA0
BC94F0CE
BEB0A47C
BD814300
3DB58FE9
3E0EC925
3D6C0E9C
BD20523D
BE29F698
BCC840E1
BE9B0CEB
BE14C6C5
BEBCDC4B
3CB9424C
BE113419
BD35D93B
BE3582F3
3E5B8C9F
3E4E0A94
3D29E68E
3E870DB8
3D3D73FF
3D0EED59
3D8F918C
BD9F8EA7
BE7297D0
3DA8AC61
3DC0E116
BDF37D0D
3CD68644
3CB14304
BE07A21B
BDEC5256
BEACDCDD
BD0554BE
BD2E3672
BE2D579C
3E06969A
BE7E7C6B
3E2F06F6
BED0F448
3C3279D0
BEA39A93
3CB34D34
3D44ED0A
BEB95369
BE8E6622
3D99E388
BEBA0D99
BCF5748C
3DC29135
3DF9CDDE
3DA32860
3E2DD873
3D54AE08
3E2421A4
3BE30BD3
3E18B3D6
3C2AEE8B
3DF03AC2
BC72442B
BDC6E6CE
3C806358
3E3D249B
BE21E61F
3DE07CFF
BDD99348
3B76EF0A
3E678A3B
BE218D9C
3E37F305
3E7DFADC
3D6D65F4
3DB0A5FF
3E4F0F39
3DE81587
3E648BBD
BC912A6A
3D863561
3C92CBE0
3E413A9C
3E33270B
3E6DB8C0
BE539AD6
BD998AFE
3E2315A3
BD27FB31
BDA1AD4E
3BA4E176
3E006257
3DC3C11C
3E02A5DE
BE35319A
3DE2D0DB
3EE93525
BE11456E
BD2BA99C
3E55C120
BC92A711
BECF377F
BE8B0C0E
BE5B9AC1
3E2F2E2A
BE3DBC4F
BD5C7CB3
BD2CDE1D
BE35C25E
BD8A35C1
3E987B89
3E62D85F
3D74D6E2
3D8D24BD
BE3BB309
BDE65299
BD82A2BA
BC0B87FE
BDFD39C5
3D9F19A1
BE451DAA
3D727729
3E4CEAC4
BDD23038
BDAC38CC
BE0EC365
BC26851A
BE3145B0
BE177110
BDDD3119
3A78C6FC
BDE2F62E
3E330702
3C633849
BE05F54E
BE4145FE
3E160D5C
BE58BA09
BCA096C4
3D1E783B
BE572292
3E0D441E
BC60B70F
3DE57A38
BD5F622E
3CC6FEF8
3E002DA7
3E08BF7E
BE7B563A
3DE9720A
BE725DC7
BDD4998D
BB136C03
BE781DCD
BBBA22A6
3DFF84F8
BEADBB50
3E31DCD6
3EC38BD4
3E155B42
BE907E4F
BD9F2C8A
BDF9B9C9
BE3BFD4B
BDDE2B84
BD2C24EA
3DA8C24A
BE9F1B34
3ECC03EF
3D0D83A9
BE30E2D8
BE48C41E
3DC4ED37
3D7A9D42
BE126214
BBF89324
BB921EA6
BEB32AAF
3E33F5C2
3E40F41D
3D4E872F
3DA82E43
BC818F3C
BD5F121C
3DFC3E98
3E45FDE7
3E55680E
BE436C48
3D7F24E1
3D9EF857
3E4839BA
BE9FB15A
3DCA5197
BDBE47AD
3E4732C0
BEDD91FE
BE1DFF4F
BDDCB977
BE4524C9
BDC53FFC
BCE794A4
3D2EE78F
3ED0298F
3E950069
3E7ED43C
3DD3848A
3CAEE9A2
3D5C4D28
3C83B42F
BE62B2E3
BED6C168
BF08D5E5
BC877372
3E540BC0
3E16F34F
BDDD3455
BE860B03
3E435987
3EB1B21F
3D204E31
BE81D461
3B34AF75
BDE007B0
BE411B1B
3ED1D3E7
BE1752C2
BE8AF88A
3DA71782
BDC63555
3D3AADBE
BDA6D6D5
3E2BF2FC
3CA3DA25
3D92611F
3E2B78DA
BE9A34F9
BC27685A
3E06187F
3D79475C
BC5456BA
BD3CEAE2
3DF1511D
BE8509CA
BF3A76EE
BEF88814
BDB667E0
3E58C402
3E59F03C
3D674DF8
3E239424
BD1C3F79
BDA422CF
3E5AF136
3C678CD7
3E210FED
3E0B5514
3E3E9FBF
BDAFA104
BE4827DC
BCDB070D
3E62454A
BE65DDA3
BED074C8
BE0780D8
3D7F92C5
BE428A8D
BEAD2496
BD82EF03
3DFA0335
BE758D00
3E1DEF17
BE430450
3DDC82D9
3DAFEED8
3E2A716D
BE94348C
3E9256CC
3DF19216
BE23CCA5
3E77ED1D
3DC8C33D
3E882064
BE294F69
3D887D1C
3E7D3581
BE81C912
3E484DD8
3C644B64
BEB524CD
3E51654F
3E0C2112
3D755400
BD944D65
BC9A050F
3E32ADBD
3E6EC8E0
3C1EF071
BE974E2F
3D19448D
3E707547
3DE0B183
3E246CD2
3E890BF5
3DF2000D
3DF5644B
BDA083FF
3E332D87
BD17CCA0
3E8CB28D
BDD961B7
BECBE77A
BE90C392
3DF508DA
3DAC8516
BC95AE98
3E714523
BECBC824
BE18D80A
3BE745F5
BDAAA8A0
BE1D3463
3E4A4C5B
3E1791ED
3D3D9BA7
3BE4E720
BE025D08
3E7E0CB7
BE4F183B
BCB257A1
3DC04995
BABCCA20
BE0F0E6D
BD94A84E
BD069068
BCCF5EC3
BB675B43
BE54F136
BE752E86
BE40C46A
3CE213D6
3DC9483C
BE0CEB5D
BE12FBEF
BE317DD1
3D6E8227
BE3C1596
BBD310DF
3DD1033B
BDCF65A9
3E73C6FC
BE28796E
3E4D732D
3DA694F4
BE4DAACA

