vhdl xil_defaultlib "AESL_sim_pkg.vhd"
vhdl xil_defaultlib "ip/xil_defaultlib/float_converter_ap_uitodp_4_no_dsp_32.vhd"
vhdl xil_defaultlib "ip/xil_defaultlib/float_converter_ap_ddiv_29_no_dsp_64.vhd"
vhdl xil_defaultlib "ip/xil_defaultlib/float_converter_ap_fptrunc_0_no_dsp_64.vhd"
sv work "glbl.v"
vhdl xil_defaultlib "float_converter_fbkb.vhd"
vhdl xil_defaultlib "float_converter_udEe.vhd"
vhdl xil_defaultlib "float_converter_dcud.vhd"
vhdl xil_defaultlib "AESL_axi_s_stream_in.vhd"
vhdl xil_defaultlib "float_converter.autotb.vhd"
vhdl xil_defaultlib "float_converter.vhd"
vhdl xil_defaultlib "AESL_axi_s_stream_out.vhd"

